%!PS-Adobe-3.0 EPSF-3.0
%%DocumentNeededResources: font Helvetica
%%+ font Helvetica-Bold
%%+ font Helvetica-Oblique
%%+ font Helvetica-BoldOblique
%%+ font Symbol
%%Title: R Graphics Output
%%Creator: R Software
%%Pages: (atend)
%%BoundingBox: 0 0 1008 360
%%EndComments
%%BeginProlog
/bp  { gs sRGB gs } def
% begin .ps.prolog
/gs  { gsave } bind def
/gr  { grestore } bind def
/ep  { showpage gr gr } bind def
/m   { moveto } bind def
/l  { rlineto } bind def
/np  { newpath } bind def
/cp  { closepath } bind def
/f   { fill } bind def
/o   { stroke } bind def
/c   { newpath 0 360 arc } bind def
/r   { 4 2 roll moveto 1 copy 3 -1 roll exch 0 exch rlineto 0 rlineto -1 mul 0 exch rlineto closepath } bind def
/p1  { stroke } bind def
/p2  { gsave bg fill grestore newpath } bind def
/p3  { gsave bg fill grestore stroke } bind def
/p6  { gsave bg eofill grestore newpath } bind def
/p7  { gsave bg eofill grestore stroke } bind def
/t   { 5 -2 roll moveto gsave rotate
       1 index stringwidth pop
       mul neg 0 rmoveto show grestore } bind def
/ta  { 4 -2 roll moveto gsave rotate show } bind def
/tb  { 2 -1 roll 0 rmoveto show } bind def
/cl  { grestore gsave newpath 3 index 3 index moveto 1 index
       4 -1 roll lineto  exch 1 index lineto lineto
       closepath clip newpath } bind def
/rgb { setrgbcolor } bind def
/s   { scalefont setfont } bind def
% end   .ps.prolog
/sRGB { [ /CIEBasedABC
          << /DecodeLMN
               [ { dup 0.03928 le
                        {12.92321 div}
                        {0.055 add 1.055 div 2.4 exp }
                     ifelse
                 } bind dup dup
               ]
             /MatrixLMN [0.412457 0.212673 0.019334
                         0.357576 0.715152 0.119192
                         0.180437 0.072175 0.950301]
             /WhitePoint [0.9505 1.0 1.0890]
           >>
         ] setcolorspace } bind def
/srgb { setcolor } bind def
%%IncludeResource: font Helvetica
/Helvetica findfont
dup length dict begin
  {1 index /FID ne {def} {pop pop} ifelse} forall
  /Encoding ISOLatin1Encoding def
  currentdict
  end
/Font1 exch definefont pop
%%IncludeResource: font Helvetica-Bold
/Helvetica-Bold findfont
dup length dict begin
  {1 index /FID ne {def} {pop pop} ifelse} forall
  /Encoding ISOLatin1Encoding def
  currentdict
  end
/Font2 exch definefont pop
%%IncludeResource: font Helvetica-Oblique
/Helvetica-Oblique findfont
dup length dict begin
  {1 index /FID ne {def} {pop pop} ifelse} forall
  /Encoding ISOLatin1Encoding def
  currentdict
  end
/Font3 exch definefont pop
%%IncludeResource: font Helvetica-BoldOblique
/Helvetica-BoldOblique findfont
dup length dict begin
  {1 index /FID ne {def} {pop pop} ifelse} forall
  /Encoding ISOLatin1Encoding def
  currentdict
  end
/Font4 exch definefont pop
%%IncludeResource: font Symbol
/Symbol findfont
dup length dict begin
  {1 index /FID ne {def} {pop pop} ifelse} forall
  currentdict
  end
/Font5 exch definefont pop
%%EndProlog
%%Page: 1 1
bp
28.80 50.40 475.20 331.20 cl
0 0 0 srgb
0.75 setlinewidth
[] 0 setdash
1 setlinecap
1 setlinejoin
10.00 setmiterlimit
np
45.33 237.86 m
0.42 -83.53 l
0.41 39.91 l
0.41 33.67 l
0.42 -54.32 l
0.41 17.64 l
0.42 -80.98 l
0.41 58.25 l
0.41 41.68 l
0.42 14.59 l
0.41 7.69 l
0.41 1.64 l
0.42 -97.74 l
0.41 125.59 l
0.42 -90.24 l
0.41 -56.47 l
0.41 101.82 l
0.42 -38.90 l
0.41 49.74 l
0.41 -33.99 l
0.42 -90.41 l
0.41 178.81 l
0.42 -45.25 l
0.41 -85.40 l
0.41 -14.58 l
0.42 23.27 l
0.41 10.01 l
0.41 21.70 l
0.42 2.55 l
0.41 -78.35 l
0.42 111.00 l
0.41 -32.26 l
0.41 80.37 l
0.42 -93.53 l
0.41 -15.16 l
0.41 -20.16 l
0.42 -12.70 l
0.41 112.44 l
0.42 -35.16 l
0.41 -65.40 l
0.41 120.59 l
0.42 -38.84 l
0.41 -34.75 l
0.41 -8.51 l
0.42 31.58 l
0.41 53.74 l
0.42 -110.66 l
0.41 58.31 l
0.41 -37.81 l
0.42 -3.38 l
0.41 3.55 l
0.41 30.02 l
0.42 -13.60 l
0.41 32.69 l
0.42 -44.38 l
0.41 -26.01 l
0.41 101.29 l
0.42 -41.08 l
0.41 -31.99 l
0.41 62.75 l
0.42 -17.64 l
0.41 -81.07 l
0.42 80.64 l
0.41 -39.50 l
0.41 32.37 l
0.42 41.32 l
0.41 -42.54 l
0.41 4.62 l
0.42 -54.62 l
0.41 108.40 l
0.42 -21.27 l
0.41 -79.21 l
0.41 -41.16 l
0.42 82.95 l
0.41 -48.90 l
0.41 -15.81 l
0.42 40.67 l
0.41 96.00 l
0.42 -144.54 l
0.41 42.39 l
0.41 -18.89 l
0.42 60.88 l
0.41 -64.33 l
0.41 75.27 l
0.42 -71.73 l
0.41 -93.23 l
0.42 157.25 l
0.41 2.38 l
0.41 -12.71 l
0.42 -75.12 l
0.41 76.73 l
0.41 -93.73 l
0.42 17.31 l
0.41 4.60 l
0.42 59.64 l
0.41 8.86 l
0.41 1.55 l
0.42 -19.25 l
0.41 -73.36 l
0.41 63.70 l
86.71 170.81 lineto
0.41 -4.48 l
0.42 11.64 l
0.41 -78.96 l
0.41 112.63 l
0.42 -35.87 l
0.41 18.20 l
0.41 24.84 l
0.42 14.83 l
0.41 -3.61 l
0.42 4.59 l
0.41 17.41 l
0.41 -91.83 l
0.42 72.79 l
0.41 -36.96 l
0.41 -29.38 l
0.42 -10.06 l
0.41 7.35 l
0.42 -14.95 l
0.41 35.79 l
0.41 120.40 l
0.42 -31.02 l
0.41 -79.90 l
0.41 -26.64 l
0.42 44.56 l
0.41 2.52 l
0.42 -2.26 l
0.41 -31.54 l
0.41 -2.18 l
0.42 40.31 l
0.41 -58.24 l
0.41 41.19 l
0.42 -25.42 l
0.41 -4.56 l
0.42 10.25 l
0.41 39.84 l
0.41 -65.77 l
0.42 74.73 l
0.41 -93.83 l
0.41 110.85 l
0.42 -60.65 l
0.41 -46.27 l
0.42 118.01 l
0.41 18.39 l
0.41 -19.92 l
0.42 -19.69 l
0.41 -56.93 l
0.41 6.84 l
0.42 -9.45 l
0.41 40.57 l
0.42 -39.49 l
0.41 -19.34 l
0.41 121.52 l
0.42 -123.94 l
0.41 26.00 l
0.41 -13.06 l
0.42 -27.26 l
0.41 -2.55 l
0.42 31.26 l
0.41 63.47 l
0.41 -19.42 l
0.42 14.60 l
0.41 -32.62 l
0.41 39.59 l
0.42 -83.83 l
0.41 13.11 l
0.42 31.42 l
0.41 50.81 l
0.41 6.08 l
0.42 -84.07 l
0.41 -4.48 l
0.41 -30.01 l
0.42 -0.31 l
0.41 24.03 l
0.42 57.53 l
0.41 -51.11 l
0.41 -8.34 l
0.42 19.64 l
0.41 10.09 l
0.41 -32.40 l
0.42 104.64 l
0.41 -114.97 l
0.42 29.29 l
0.41 29.45 l
0.41 64.37 l
0.42 -123.93 l
0.41 35.69 l
0.41 52.84 l
0.42 26.85 l
0.41 -68.93 l
0.42 25.38 l
0.41 -51.71 l
0.41 -19.44 l
0.42 -0.02 l
0.41 77.56 l
0.41 -68.48 l
0.42 16.67 l
0.41 102.42 l
0.42 -6.66 l
0.41 -93.87 l
128.08 181.42 lineto
0.42 69.38 l
0.41 -57.30 l
0.41 62.89 l
0.42 -24.89 l
0.41 -69.34 l
0.42 48.48 l
0.41 1.85 l
0.41 -88.78 l
0.42 17.73 l
0.41 -32.51 l
0.41 50.66 l
0.42 55.11 l
0.41 50.76 l
0.42 -109.12 l
0.41 101.27 l
0.41 -75.19 l
0.42 29.12 l
0.41 -62.80 l
0.41 35.84 l
0.42 15.09 l
0.41 -27.08 l
0.42 22.74 l
0.41 -2.40 l
0.41 -8.74 l
0.42 40.93 l
0.41 11.35 l
0.41 -80.86 l
0.42 43.30 l
0.41 49.13 l
0.42 9.98 l
0.41 -191.19 l
0.41 134.57 l
0.42 43.47 l
0.41 4.84 l
0.41 -70.98 l
0.42 -41.37 l
0.41 25.50 l
0.42 32.20 l
0.41 -37.99 l
0.41 14.99 l
0.42 -45.77 l
0.41 39.51 l
0.41 92.84 l
0.42 -56.64 l
0.41 2.07 l
0.42 84.06 l
0.41 -89.22 l
0.41 28.18 l
0.42 57.61 l
0.41 -76.02 l
0.41 -65.23 l
0.42 -7.83 l
0.41 -12.70 l
0.42 -0.32 l
0.41 137.19 l
0.41 -81.67 l
0.42 -20.24 l
0.41 -13.61 l
0.41 33.13 l
0.42 37.47 l
0.41 25.30 l
0.42 -60.80 l
0.41 -46.71 l
0.41 88.96 l
0.42 -102.32 l
0.41 104.58 l
0.41 -9.64 l
0.42 -115.22 l
0.41 117.92 l
0.42 8.41 l
0.41 -16.05 l
0.41 -68.56 l
0.42 47.80 l
0.41 12.03 l
0.41 79.74 l
0.42 -107.54 l
0.41 12.66 l
0.42 20.48 l
0.41 -50.32 l
0.41 9.47 l
0.42 15.33 l
0.41 54.79 l
0.41 -91.69 l
0.42 -9.93 l
0.41 111.25 l
0.41 -62.28 l
0.42 127.25 l
0.41 -76.35 l
0.42 -60.85 l
0.41 -41.03 l
0.41 51.33 l
0.42 66.42 l
0.41 -0.13 l
0.41 -77.02 l
0.42 -1.28 l
0.41 25.77 l
0.42 -0.20 l
0.41 -10.87 l
0.41 39.53 l
169.46 232.86 lineto
0.41 -5.45 l
0.41 12.83 l
0.42 7.07 l
0.41 -91.50 l
0.42 26.99 l
0.41 29.72 l
0.41 -6.35 l
0.42 55.95 l
0.41 -101.95 l
0.41 -4.22 l
0.42 60.03 l
0.41 71.16 l
0.42 -91.85 l
0.41 -31.12 l
0.41 57.98 l
0.42 -60.62 l
0.41 8.18 l
0.41 34.74 l
0.42 -10.24 l
0.41 -0.73 l
0.42 9.67 l
0.41 7.68 l
0.41 17.94 l
0.42 -52.78 l
0.41 34.39 l
0.41 -2.35 l
0.42 63.65 l
0.41 -88.43 l
0.42 106.55 l
0.41 -95.92 l
0.41 3.18 l
0.42 26.61 l
0.41 60.47 l
0.41 -99.47 l
0.42 6.37 l
0.41 -68.12 l
0.42 17.96 l
0.41 26.09 l
0.41 57.97 l
0.42 -71.27 l
0.41 62.05 l
0.41 13.29 l
0.42 -57.19 l
0.41 37.30 l
0.42 16.59 l
0.41 -84.73 l
0.41 27.07 l
0.42 75.60 l
0.41 -28.36 l
0.41 -61.00 l
0.42 53.55 l
0.41 -2.46 l
0.42 19.75 l
0.41 -17.18 l
0.41 -71.44 l
0.42 68.79 l
0.41 -10.81 l
0.41 -12.89 l
0.42 90.40 l
0.41 -68.76 l
0.42 -91.54 l
0.41 77.69 l
0.41 -38.34 l
0.42 61.35 l
0.41 -73.31 l
0.41 38.11 l
0.42 25.74 l
0.41 -28.55 l
0.42 21.69 l
0.41 51.06 l
0.41 -13.15 l
0.42 -50.48 l
0.41 -18.98 l
0.41 33.85 l
0.42 5.73 l
0.41 -9.82 l
0.42 -37.56 l
0.41 68.60 l
0.41 -16.55 l
0.42 11.58 l
0.41 60.49 l
0.41 -80.38 l
0.42 22.63 l
0.41 -93.12 l
0.42 112.51 l
0.41 -79.08 l
0.41 57.03 l
0.42 100.36 l
0.41 -91.45 l
0.41 4.53 l
0.42 -95.37 l
0.41 8.26 l
0.42 48.59 l
0.41 37.41 l
0.41 -36.57 l
0.42 79.40 l
0.41 -104.44 l
0.41 40.51 l
0.42 45.13 l
210.83 154.29 lineto
0.42 -59.81 l
0.41 133.98 l
0.41 24.92 l
0.42 -36.88 l
0.41 -42.41 l
0.41 0.25 l
0.42 31.46 l
0.41 40.35 l
0.42 -52.56 l
0.41 52.03 l
0.41 19.06 l
0.42 -12.43 l
0.41 -40.15 l
0.41 -49.25 l
0.42 76.77 l
0.41 34.65 l
0.42 -108.38 l
0.41 -39.42 l
0.41 47.62 l
0.42 -53.29 l
0.41 8.25 l
0.41 68.13 l
0.42 14.97 l
0.41 -57.53 l
0.42 108.14 l
0.41 -0.76 l
0.41 -119.31 l
0.42 110.19 l
0.41 -58.55 l
0.41 13.16 l
0.42 -18.02 l
0.41 90.54 l
0.42 -94.22 l
0.41 -10.60 l
0.41 38.82 l
0.42 -52.06 l
0.41 49.43 l
0.41 -39.41 l
0.42 -32.68 l
0.41 128.94 l
0.42 -52.64 l
0.41 -30.62 l
0.41 11.62 l
0.42 12.35 l
0.41 32.24 l
0.41 -38.82 l
0.42 -21.26 l
0.41 4.08 l
0.42 28.37 l
0.41 20.15 l
0.41 17.35 l
0.42 -67.16 l
0.41 13.91 l
0.41 -72.52 l
0.42 -1.32 l
0.41 48.64 l
0.42 26.64 l
0.41 -9.21 l
0.41 -27.44 l
0.42 2.01 l
0.41 -17.53 l
0.41 18.49 l
0.42 -22.11 l
0.41 63.54 l
0.42 7.55 l
0.41 11.38 l
0.41 -27.99 l
0.42 12.94 l
0.41 -20.26 l
0.41 -6.05 l
0.42 -10.90 l
0.41 -35.12 l
0.42 112.06 l
0.41 -53.34 l
0.41 2.55 l
0.42 -0.31 l
0.41 -6.27 l
0.41 -7.95 l
0.42 -69.92 l
0.41 114.77 l
0.42 -59.38 l
0.41 31.41 l
0.41 -16.99 l
0.42 58.89 l
0.41 25.04 l
0.41 -32.64 l
0.42 -35.83 l
0.41 -99.66 l
0.42 48.11 l
0.41 136.93 l
0.41 -4.21 l
0.42 -104.18 l
0.41 -47.96 l
0.41 -22.48 l
0.42 57.85 l
0.41 32.99 l
0.42 -59.29 l
0.41 -20.57 l
0.41 113.22 l
252.21 204.22 lineto
0.41 11.20 l
0.41 12.06 l
0.42 -51.46 l
0.41 -26.69 l
0.42 -21.13 l
0.41 129.80 l
0.41 -135.59 l
0.42 104.42 l
0.41 -5.13 l
0.41 -52.47 l
0.42 10.11 l
0.41 -24.88 l
0.42 101.77 l
0.41 -93.90 l
0.41 14.11 l
0.42 -11.65 l
0.41 106.10 l
0.41 -86.51 l
0.42 -19.79 l
0.41 68.82 l
0.42 4.10 l
0.41 -30.07 l
0.41 45.77 l
0.42 -50.67 l
0.41 0.91 l
0.41 24.51 l
0.42 20.32 l
0.41 -47.25 l
0.42 62.12 l
0.41 -110.53 l
0.41 22.37 l
0.42 73.07 l
0.41 -94.93 l
0.41 104.28 l
0.42 -41.29 l
0.41 -19.52 l
0.42 46.86 l
0.41 -45.31 l
0.41 92.05 l
0.42 -124.15 l
0.41 96.76 l
0.41 -52.35 l
0.42 6.10 l
0.41 -74.84 l
0.42 72.25 l
0.41 -0.36 l
0.41 -15.53 l
0.42 -49.08 l
0.41 12.23 l
0.41 22.64 l
0.42 -16.04 l
0.41 -49.24 l
0.42 82.52 l
0.41 -26.98 l
0.41 8.07 l
0.42 4.56 l
0.41 131.48 l
0.41 -142.98 l
0.42 50.55 l
0.41 -29.87 l
0.42 17.96 l
0.41 -58.01 l
0.41 -28.17 l
0.42 65.53 l
0.41 -42.34 l
0.41 -60.06 l
0.42 141.20 l
0.41 -9.05 l
0.42 13.36 l
0.41 -61.66 l
0.41 -3.15 l
0.42 -1.58 l
0.41 76.60 l
0.41 -71.53 l
0.42 -7.43 l
0.41 -37.11 l
0.42 153.86 l
0.41 -135.10 l
0.41 4.44 l
0.42 9.38 l
0.41 -7.19 l
0.41 51.81 l
0.42 25.82 l
0.41 -58.59 l
0.42 -31.56 l
0.41 7.17 l
0.41 101.88 l
0.42 -35.61 l
0.41 -39.61 l
0.41 77.11 l
0.42 17.34 l
0.41 -48.06 l
0.42 82.83 l
0.41 -49.44 l
0.41 -98.34 l
0.42 44.84 l
0.41 20.44 l
0.41 18.37 l
0.42 -75.23 l
293.58 213.43 lineto
0.42 -25.06 l
0.41 -9.69 l
0.41 2.68 l
0.42 -27.78 l
0.41 31.70 l
0.41 3.90 l
0.42 90.98 l
0.41 -84.87 l
0.42 -20.43 l
0.41 16.61 l
0.41 109.53 l
0.42 -96.00 l
0.41 20.57 l
0.41 -41.85 l
0.42 -53.73 l
0.41 50.98 l
0.42 27.20 l
0.41 -20.16 l
0.41 101.37 l
0.42 -9.06 l
0.41 -174.35 l
0.41 146.68 l
0.42 -76.60 l
0.41 -35.85 l
0.42 -0.37 l
0.41 -73.44 l
0.41 161.92 l
0.42 -13.09 l
0.41 19.31 l
0.41 -34.16 l
0.42 81.28 l
0.41 -100.06 l
0.42 45.51 l
0.41 -3.01 l
0.41 -3.96 l
0.42 -39.30 l
0.41 40.63 l
0.41 -32.57 l
0.42 2.35 l
0.41 1.16 l
0.42 5.46 l
0.41 -42.83 l
0.41 77.38 l
0.42 -34.21 l
0.41 -19.51 l
0.41 66.75 l
0.42 -20.62 l
0.41 -23.31 l
0.42 49.58 l
0.41 -59.27 l
0.41 3.24 l
0.42 -3.62 l
0.41 -57.80 l
0.41 61.08 l
0.42 -18.86 l
0.41 62.00 l
0.42 34.54 l
0.41 8.41 l
0.41 -120.77 l
0.42 69.23 l
0.41 25.12 l
0.41 -31.22 l
0.42 -49.87 l
0.41 38.87 l
0.42 10.63 l
0.41 -24.30 l
0.41 22.66 l
0.42 21.48 l
0.41 18.16 l
0.41 -45.69 l
0.42 -29.99 l
0.41 46.83 l
0.42 24.67 l
0.41 30.33 l
0.41 -162.62 l
0.42 -9.09 l
0.41 96.83 l
0.41 -5.40 l
0.42 44.07 l
0.41 -67.82 l
0.42 -37.89 l
0.41 62.02 l
0.41 2.03 l
0.42 41.23 l
0.41 -42.61 l
0.41 -48.75 l
0.42 -14.36 l
0.41 86.03 l
0.42 -109.05 l
0.41 144.76 l
0.41 12.58 l
0.42 -29.86 l
0.41 -156.73 l
0.41 103.53 l
0.42 -37.97 l
0.41 -32.12 l
0.42 135.33 l
0.41 -15.74 l
0.41 -95.32 l
334.96 170.12 lineto
0.41 138.41 l
0.41 -138.77 l
0.42 37.30 l
0.41 -97.41 l
0.42 95.74 l
0.41 18.51 l
0.41 -23.95 l
0.42 29.19 l
0.41 34.26 l
0.41 -74.18 l
0.42 4.42 l
0.41 -0.11 l
0.42 46.65 l
0.41 -50.73 l
0.41 -5.90 l
0.42 98.77 l
0.41 -154.26 l
0.41 -23.36 l
0.42 168.94 l
0.41 -123.75 l
0.41 153.50 l
0.42 -212.28 l
0.41 191.97 l
0.42 -19.70 l
0.41 -147.34 l
0.41 64.29 l
0.42 24.82 l
0.41 -38.33 l
0.41 -12.21 l
0.42 24.09 l
0.41 -19.72 l
0.42 48.52 l
0.41 -42.58 l
0.41 11.35 l
0.42 110.58 l
0.41 -11.68 l
0.41 -74.71 l
0.42 18.65 l
0.41 -5.88 l
0.42 1.06 l
0.41 -35.37 l
0.41 58.96 l
0.42 29.85 l
0.41 -18.11 l
0.41 -59.92 l
0.42 -68.73 l
0.41 112.48 l
0.42 -126.72 l
0.41 80.60 l
0.41 -12.39 l
0.42 54.27 l
0.41 10.30 l
0.41 -20.46 l
0.42 1.74 l
0.41 -8.12 l
0.42 55.61 l
0.41 -22.67 l
0.41 -88.74 l
0.42 35.56 l
0.41 20.74 l
0.41 -46.39 l
0.42 52.57 l
0.41 -34.83 l
0.42 25.81 l
0.41 47.23 l
0.41 -76.41 l
0.42 -26.10 l
0.41 92.42 l
0.41 -57.12 l
0.42 -14.47 l
0.41 31.76 l
0.42 14.45 l
0.41 -37.23 l
0.41 -26.42 l
0.42 -23.61 l
0.41 101.42 l
0.41 -47.69 l
0.42 57.76 l
0.41 1.70 l
0.42 -63.54 l
0.41 135.37 l
0.41 -90.77 l
0.42 -14.67 l
0.41 84.05 l
0.41 -87.50 l
0.42 79.09 l
0.41 -108.05 l
0.42 55.38 l
0.41 -22.85 l
0.41 -17.06 l
0.42 -136.67 l
0.41 131.69 l
0.41 -15.11 l
0.42 43.09 l
0.41 27.55 l
0.42 -25.54 l
0.41 14.17 l
0.41 -22.27 l
0.42 74.74 l
376.33 173.54 lineto
0.41 52.46 l
0.42 11.46 l
0.41 -63.55 l
0.42 -11.37 l
0.41 52.93 l
0.41 31.57 l
0.42 -13.29 l
0.41 -32.16 l
0.41 24.83 l
0.42 -54.54 l
0.41 -47.12 l
0.42 64.28 l
0.41 65.95 l
0.41 -61.41 l
0.42 30.96 l
0.41 -17.31 l
0.41 -10.79 l
0.42 9.76 l
0.41 98.17 l
0.42 -139.46 l
0.41 57.40 l
0.41 -48.10 l
0.42 83.67 l
0.41 12.12 l
0.41 -56.29 l
0.42 64.53 l
0.41 -189.10 l
0.42 177.37 l
0.41 -53.94 l
0.41 59.61 l
0.42 -61.60 l
0.41 -34.09 l
0.41 -83.61 l
0.42 116.82 l
0.41 37.41 l
0.42 -1.23 l
0.41 -61.77 l
0.41 12.37 l
0.42 27.72 l
0.41 -28.47 l
0.41 -2.90 l
0.42 118.24 l
0.41 -96.29 l
0.42 -25.42 l
0.41 5.04 l
0.41 41.62 l
0.42 -30.07 l
0.41 -60.07 l
0.41 105.35 l
0.42 -68.39 l
0.41 55.96 l
0.42 -33.59 l
0.41 -117.25 l
0.41 86.99 l
0.42 44.07 l
0.41 4.17 l
0.41 -77.95 l
0.42 41.39 l
0.41 -50.92 l
0.42 112.43 l
0.41 -116.56 l
0.41 21.52 l
0.42 -25.62 l
0.41 99.19 l
0.41 -71.49 l
0.42 94.15 l
0.41 -125.42 l
0.42 124.76 l
0.41 -133.51 l
0.41 77.58 l
0.42 -54.77 l
0.41 74.73 l
0.41 29.77 l
0.42 -10.24 l
0.41 -58.27 l
0.42 37.44 l
0.41 -65.21 l
0.41 106.26 l
0.42 -98.71 l
0.41 -6.73 l
0.41 85.68 l
0.42 -92.28 l
0.41 78.40 l
0.42 -53.46 l
0.41 69.26 l
0.41 -14.56 l
0.42 27.66 l
0.41 -68.53 l
0.41 56.64 l
0.42 -23.81 l
0.41 6.56 l
0.42 -100.70 l
0.41 104.55 l
0.41 11.20 l
0.42 -82.04 l
0.41 -0.72 l
0.41 53.47 l
0.42 -15.61 l
0.41 0.83 l
417.71 250.05 lineto
0.41 -35.11 l
0.41 7.04 l
0.42 16.20 l
0.41 -73.47 l
0.41 46.72 l
0.42 -39.97 l
0.41 18.30 l
0.42 -2.61 l
0.41 -21.51 l
0.41 39.43 l
0.42 -26.65 l
0.41 -78.83 l
0.41 58.01 l
0.42 54.14 l
0.41 18.85 l
0.42 -65.10 l
0.41 69.84 l
0.41 -31.59 l
0.42 -98.67 l
0.41 57.98 l
0.41 83.21 l
0.42 -118.79 l
0.41 104.42 l
0.42 4.13 l
0.41 -120.35 l
0.41 164.54 l
0.42 -78.05 l
0.41 -48.37 l
0.41 50.50 l
0.42 -6.62 l
0.41 60.10 l
0.42 9.29 l
0.41 -86.45 l
0.41 62.25 l
0.42 -31.58 l
0.41 -55.83 l
0.41 110.15 l
0.42 -80.97 l
0.41 51.67 l
0.42 32.74 l
0.41 -122.79 l
0.41 -3.40 l
0.42 35.37 l
0.41 73.76 l
0.41 10.70 l
0.42 -30.71 l
0.41 13.77 l
0.42 -73.56 l
0.41 -5.00 l
0.41 -0.39 l
0.42 7.34 l
0.41 44.12 l
0.41 -38.17 l
0.42 -86.31 l
0.41 113.23 l
0.42 83.03 l
0.41 -84.01 l
0.41 9.68 l
0.42 -106.39 l
0.41 93.55 l
0.41 11.34 l
0.42 -19.71 l
0.41 9.25 l
0.42 20.22 l
0.41 -33.88 l
0.41 5.00 l
0.42 -56.10 l
0.41 24.09 l
0.41 68.55 l
0.42 16.23 l
0.41 -56.32 l
0.42 -29.14 l
0.41 120.07 l
0.41 -73.65 l
0.42 51.89 l
0.41 -78.70 l
0.41 68.91 l
0.42 -26.69 l
0.41 -8.04 l
0.42 -87.87 l
0.41 47.49 l
0.41 -2.68 l
0.42 22.03 l
0.41 40.48 l
0.41 -24.23 l
0.42 -28.67 l
0.41 44.05 l
0.42 -62.88 l
0.41 6.56 l
0.41 72.14 l
0.42 -38.19 l
0.41 41.51 l
0.41 3.63 l
0.42 -47.73 l
0.41 -14.16 l
0.42 7.72 l
0.41 17.55 l
0.41 72.04 l
0.42 -59.01 l
o
0.00 0.00 1008.00 360.00 cl
0 0 0 srgb
0.75 setlinewidth
[] 0 setdash
1 setlinecap
1 setlinejoin
10.00 setmiterlimit
np
44.92 50.40 m
413.75 0 l
o
np
44.92 50.40 m
0 -7.20 l
o
np
127.67 50.40 m
0 -7.20 l
o
np
210.42 50.40 m
0 -7.20 l
o
np
293.17 50.40 m
0 -7.20 l
o
np
375.92 50.40 m
0 -7.20 l
o
np
458.67 50.40 m
0 -7.20 l
o
/Font1 findfont 12 s
44.92 24.48 (0) .5 0 t
127.67 24.48 (200) .5 0 t
210.42 24.48 (400) .5 0 t
293.17 24.48 (600) .5 0 t
375.92 24.48 (800) .5 0 t
458.67 24.48 (1000) .5 0 t
np
28.80 62.25 m
0 266.78 l
o
np
28.80 62.25 m
-7.20 0 l
o
np
28.80 106.72 m
-7.20 0 l
o
np
28.80 151.18 m
-7.20 0 l
o
np
28.80 195.64 m
-7.20 0 l
o
np
28.80 240.10 m
-7.20 0 l
o
np
28.80 284.57 m
-7.20 0 l
o
np
28.80 329.03 m
-7.20 0 l
o
11.52 62.25 (-3) .5 90 t
11.52 106.72 (-2) .5 90 t
11.52 151.18 (-1) .5 90 t
11.52 195.64 (0) .5 90 t
11.52 240.10 (1) .5 90 t
11.52 284.57 (2) .5 90 t
11.52 329.03 (3) .5 90 t
np
28.80 50.40 m
446.40 0 l
0 280.80 l
-446.40 0 l
0 -280.80 l
o
/Font1 findfont 14 s
252.00 338.40 (Input signal) .5 0 t
252.00 2.88 (Time) .5 0 t
28.80 50.40 475.20 331.20 cl
0 0 0 srgb
1.50 setlinewidth
[ 4.50 7.50] 0 setdash
1 setlinecap
1 setlinejoin
10.00 setmiterlimit
np
251.79 50.40 m
0 280.80 l
o
511.20 50.40 979.20 331.20 cl
0 0 0 srgb
0.75 setlinewidth
[] 0 setdash
1 setlinecap
1 setlinejoin
10.00 setmiterlimit
np
528.53 90.80 m
0.44 -3.79 l
0.43 -0.11 l
0.43 2.21 l
0.44 -2.18 l
0.43 -0.48 l
0.44 -6.70 l
0.43 -1.25 l
0.43 2.25 l
0.44 3.22 l
0.43 3.56 l
0.43 3.39 l
0.44 -5.04 l
0.43 5.89 l
0.44 -2.14 l
0.43 -6.80 l
0.43 2.29 l
0.44 -1.18 l
0.43 3.16 l
0.43 0.08 l
0.44 -7.74 l
0.43 8.09 l
0.44 3.81 l
0.43 -3.76 l
0.43 -4.88 l
0.44 -2.66 l
0.43 -1.70 l
0.44 0.27 l
0.43 0.48 l
0.43 -6.41 l
0.44 3.54 l
0.43 0.60 l
0.43 7.64 l
0.44 -0.81 l
0.43 -2.12 l
0.44 -3.84 l
0.43 -4.85 l
0.43 5.19 l
0.44 1.96 l
0.43 -3.87 l
0.43 6.88 l
0.44 3.29 l
0.43 0.13 l
0.44 -0.62 l
0.43 2.19 l
0.43 6.90 l
0.44 -3.05 l
0.43 2.18 l
0.43 -1.22 l
0.44 -1.50 l
0.43 -1.15 l
0.44 1.54 l
0.43 0.30 l
0.43 3.20 l
0.44 -0.80 l
0.43 -3.11 l
0.43 5.97 l
0.44 2.21 l
0.43 -0.68 l
0.44 4.92 l
0.43 3.27 l
0.43 -4.01 l
0.44 3.24 l
0.43 -0.33 l
0.43 2.56 l
0.44 6.22 l
0.43 2.32 l
0.44 2.70 l
0.43 -2.22 l
0.43 7.50 l
0.44 5.49 l
0.43 -1.66 l
0.43 -5.32 l
0.44 2.16 l
0.43 -2.23 l
0.44 -3.62 l
0.43 0.07 l
0.43 8.65 l
0.44 -4.38 l
0.43 -0.54 l
0.43 -2.23 l
0.44 3.26 l
0.43 -2.55 l
0.44 4.23 l
0.43 -2.25 l
0.43 -10.57 l
0.44 3.63 l
0.43 3.81 l
0.43 2.62 l
0.44 -4.13 l
0.43 2.78 l
0.44 -5.64 l
0.43 -4.03 l
0.43 -3.58 l
0.44 1.81 l
0.43 2.58 l
0.43 2.70 l
0.44 0.94 l
0.43 -5.65 l
0.44 0.12 l
571.91 109.09 lineto
0.43 -2.71 l
0.44 -1.63 l
0.43 -8.71 l
0.44 1.48 l
0.43 -1.75 l
0.43 -0.10 l
0.44 2.13 l
0.43 3.45 l
0.43 3.08 l
0.44 3.48 l
0.43 5.00 l
0.44 -3.29 l
0.43 3.28 l
0.43 -0.07 l
0.44 -2.70 l
0.43 -3.59 l
0.43 -2.90 l
0.44 -4.22 l
0.43 -0.96 l
0.44 9.86 l
0.43 6.99 l
0.43 -0.24 l
0.44 -2.64 l
0.43 1.39 l
0.43 1.61 l
0.44 1.39 l
0.43 -1.46 l
0.44 -1.64 l
0.43 1.99 l
0.43 -3.25 l
0.44 0.47 l
0.43 -1.82 l
0.43 -2.21 l
0.44 -1.28 l
0.43 2.32 l
0.44 -3.62 l
0.43 3.13 l
0.43 -5.33 l
0.44 4.68 l
0.43 -0.81 l
0.43 -4.97 l
0.44 5.69 l
0.43 7.30 l
0.44 5.46 l
0.43 3.65 l
0.43 -1.50 l
0.44 -0.88 l
0.43 -1.72 l
0.43 1.95 l
0.44 -1.63 l
0.43 -3.35 l
0.44 7.61 l
0.43 -3.60 l
0.43 -1.24 l
0.44 -2.40 l
0.43 -4.84 l
0.43 -5.04 l
0.44 -2.20 l
0.43 3.54 l
0.44 1.76 l
0.43 3.07 l
0.43 0.11 l
0.44 3.67 l
0.43 -3.89 l
0.43 -2.70 l
0.44 0.16 l
0.43 4.73 l
0.44 5.25 l
0.43 -2.36 l
0.43 -2.74 l
0.44 -5.43 l
0.43 -5.43 l
0.44 -3.24 l
0.43 1.97 l
0.43 -2.64 l
0.44 -3.39 l
0.43 -1.59 l
0.43 -0.68 l
0.44 -3.59 l
0.43 5.86 l
0.44 -4.54 l
0.43 -1.87 l
0.43 0.79 l
0.44 6.59 l
0.43 -4.61 l
0.43 -1.38 l
0.44 3.40 l
0.43 5.80 l
0.44 -0.45 l
0.43 1.85 l
0.43 -2.83 l
0.44 -4.56 l
0.43 -4.55 l
0.43 2.48 l
0.44 -3.72 l
0.43 -2.19 l
0.44 7.06 l
0.43 6.41 l
0.43 -2.07 l
615.29 98.91 lineto
0.43 4.95 l
0.43 -0.24 l
0.44 5.44 l
0.43 3.16 l
0.44 -3.11 l
0.43 1.28 l
0.43 1.44 l
0.44 -6.58 l
0.43 -4.94 l
0.43 -7.85 l
0.44 -3.25 l
0.43 1.74 l
0.44 6.31 l
0.43 -3.56 l
0.43 5.59 l
0.44 -1.22 l
0.43 1.41 l
0.43 -4.25 l
0.44 -1.01 l
0.43 0.36 l
0.44 -2.08 l
0.43 -0.03 l
0.43 -0.24 l
0.44 -1.02 l
0.43 2.67 l
0.43 3.68 l
0.44 -3.63 l
0.43 0.29 l
0.44 4.73 l
0.43 5.60 l
0.43 -11.67 l
0.44 0.52 l
0.43 4.45 l
0.43 4.86 l
0.44 -1.57 l
0.43 -5.29 l
0.44 -2.97 l
0.43 -0.05 l
0.43 -3.48 l
0.44 -2.11 l
0.43 -6.23 l
0.43 -2.64 l
0.44 5.74 l
0.43 0.62 l
0.44 0.79 l
0.43 8.38 l
0.43 0.30 l
0.44 2.83 l
0.43 8.03 l
0.44 1.13 l
0.43 -4.76 l
0.43 -5.45 l
0.44 -6.57 l
0.43 -6.58 l
0.43 5.83 l
0.44 -1.56 l
0.43 -3.38 l
0.44 -4.60 l
0.43 -1.59 l
0.43 1.79 l
0.44 4.08 l
0.43 -1.43 l
0.43 -5.64 l
0.44 2.41 l
0.43 -6.83 l
0.44 2.63 l
0.43 1.75 l
0.43 -8.65 l
0.44 2.02 l
0.43 2.77 l
0.43 1.32 l
0.44 -4.88 l
0.43 -0.55 l
0.44 0.54 l
0.43 7.74 l
0.43 -2.00 l
0.44 -0.85 l
0.43 1.01 l
0.43 -3.55 l
0.44 -2.67 l
0.43 -1.28 l
0.44 3.67 l
0.43 -4.63 l
0.43 -5.50 l
0.44 4.56 l
0.43 -1.07 l
0.43 10.41 l
0.44 3.49 l
0.43 -2.02 l
0.44 -5.72 l
0.43 -1.06 l
0.43 4.93 l
0.44 4.91 l
0.43 -2.06 l
0.43 -2.17 l
0.44 0.16 l
0.43 0.15 l
0.44 -0.84 l
0.43 2.73 l
658.66 80.63 lineto
0.44 2.92 l
0.43 4.08 l
0.43 4.70 l
0.44 -3.59 l
0.43 -1.13 l
0.44 1.56 l
0.43 0.97 l
0.43 6.03 l
0.44 -3.20 l
0.43 -3.57 l
0.43 1.86 l
0.44 8.29 l
0.43 -0.04 l
0.44 -2.85 l
0.43 2.39 l
0.43 -3.08 l
0.44 -2.34 l
0.43 0.80 l
0.44 -0.12 l
0.43 -0.18 l
0.43 0.69 l
0.44 1.38 l
0.43 2.99 l
0.43 -1.78 l
0.44 1.33 l
0.43 1.12 l
0.44 6.86 l
0.43 -1.15 l
0.43 8.48 l
0.44 -0.21 l
0.43 0.08 l
0.43 2.48 l
0.44 7.94 l
0.43 -1.07 l
0.44 -0.50 l
0.43 -6.64 l
0.43 -5.01 l
0.44 -2.63 l
0.43 2.61 l
0.43 -3.84 l
0.44 1.79 l
0.43 2.97 l
0.44 -2.19 l
0.43 1.18 l
0.43 2.67 l
0.44 -4.99 l
0.43 -2.53 l
0.43 4.31 l
0.44 1.74 l
0.43 -3.79 l
0.44 1.07 l
0.43 0.84 l
0.43 2.63 l
0.44 1.06 l
0.43 -5.39 l
0.43 0.84 l
0.44 -0.15 l
0.43 -1.30 l
0.44 6.86 l
0.43 0.64 l
0.43 -7.64 l
0.44 -0.60 l
0.43 -4.06 l
0.43 1.49 l
0.44 -5.14 l
0.43 -1.67 l
0.44 0.65 l
0.43 -1.93 l
0.43 0.04 l
0.44 4.65 l
0.43 3.45 l
0.43 -1.12 l
0.44 -2.83 l
0.43 0.23 l
0.44 0.75 l
0.43 -0.14 l
0.43 -3.53 l
0.44 2.67 l
0.43 1.18 l
0.43 2.22 l
0.44 7.67 l
0.43 0.40 l
0.44 2.44 l
0.43 -5.99 l
0.43 4.20 l
0.44 -2.96 l
0.43 2.20 l
0.43 11.27 l
0.44 2.98 l
0.43 3.37 l
0.44 -5.25 l
0.43 -4.49 l
0.43 -0.09 l
0.44 3.29 l
0.43 -0.02 l
0.44 7.15 l
0.43 -2.30 l
0.43 1.36 l
0.44 5.44 l
702.04 131.02 lineto
0.43 -9.23 l
0.44 2.90 l
0.43 5.14 l
0.44 1.80 l
0.43 -2.05 l
0.43 -2.01 l
0.44 0.84 l
0.43 4.48 l
0.43 -0.29 l
0.44 4.43 l
0.43 6.13 l
0.44 5.00 l
0.43 1.35 l
0.43 -3.10 l
0.44 3.85 l
0.43 6.97 l
0.43 -2.85 l
0.44 -6.40 l
0.43 -2.08 l
0.44 -6.90 l
0.43 -6.13 l
0.43 0.04 l
0.44 1.40 l
0.43 -3.81 l
0.43 5.98 l
0.44 5.89 l
0.43 -4.91 l
0.44 5.07 l
0.43 -0.24 l
0.43 0.96 l
0.44 -0.68 l
0.43 7.50 l
0.43 -1.02 l
0.44 -1.99 l
0.43 1.53 l
0.44 -3.18 l
0.43 1.30 l
0.43 -2.27 l
0.44 -5.22 l
0.43 6.45 l
0.43 1.68 l
0.44 -1.10 l
0.43 -0.04 l
0.44 1.07 l
0.43 3.99 l
0.43 0.47 l
0.44 -1.46 l
0.43 -1.08 l
0.43 1.48 l
0.44 3.30 l
0.43 4.87 l
0.44 -1.22 l
0.43 0.04 l
0.43 -6.52 l
0.44 -6.62 l
0.43 -2.21 l
0.43 0.21 l
0.44 -0.63 l
0.43 -3.11 l
0.44 -2.92 l
0.43 -4.50 l
0.43 -2.81 l
0.44 -4.81 l
0.43 0.94 l
0.44 1.63 l
0.43 2.65 l
0.43 0.12 l
0.44 1.29 l
0.43 -0.55 l
0.43 -1.10 l
0.44 -2.08 l
0.43 -5.25 l
0.44 4.90 l
0.43 0.06 l
0.43 0.29 l
0.44 0.26 l
0.43 -0.30 l
0.43 -1.02 l
0.44 -7.35 l
0.43 3.05 l
0.44 -2.33 l
0.43 0.52 l
0.43 -1.01 l
0.44 4.31 l
0.43 6.56 l
0.43 3.60 l
0.44 0.35 l
0.43 -8.66 l
0.44 -4.29 l
0.43 8.10 l
0.43 7.70 l
0.44 -1.73 l
0.43 -6.07 l
0.43 -8.09 l
0.44 -2.85 l
0.43 0.15 l
0.44 -5.21 l
0.43 -7.07 l
0.43 3.19 l
745.42 109.19 lineto
0.43 1.73 l
0.43 2.83 l
0.44 -1.84 l
0.43 -4.24 l
0.44 -6.15 l
0.43 5.60 l
0.43 -6.67 l
0.44 2.79 l
0.43 2.32 l
0.43 -2.43 l
0.44 -1.52 l
0.43 -3.76 l
0.44 5.45 l
0.43 -3.05 l
0.43 -1.77 l
0.44 -2.82 l
0.43 6.78 l
0.43 -1.05 l
0.44 -2.85 l
0.43 3.39 l
0.44 3.75 l
0.43 1.02 l
0.43 5.16 l
0.44 0.57 l
0.43 0.65 l
0.43 2.87 l
0.44 4.69 l
0.43 0.42 l
0.44 6.03 l
0.43 -3.97 l
0.43 -1.95 l
0.44 4.67 l
0.43 -3.93 l
0.43 5.51 l
0.44 1.77 l
0.43 0 l
0.44 4.24 l
0.43 0.13 l
0.43 8.45 l
0.44 -2.79 l
0.43 5.97 l
0.44 1.23 l
0.43 1.77 l
0.43 -5.00 l
0.44 1.54 l
0.43 1.51 l
0.43 0.10 l
0.44 -4.34 l
0.43 -3.22 l
0.44 -1.18 l
0.43 -2.62 l
0.43 -7.07 l
0.44 0.41 l
0.43 -2.03 l
0.43 -1.30 l
0.44 -0.88 l
0.43 11.01 l
0.44 -1.95 l
0.43 2.64 l
0.43 -0.08 l
0.44 1.55 l
0.43 -3.70 l
0.43 -6.24 l
0.44 -0.30 l
0.43 -4.13 l
0.44 -9.56 l
0.43 3.23 l
0.43 2.41 l
0.44 3.61 l
0.43 -1.97 l
0.43 -2.25 l
0.44 -2.39 l
0.43 4.54 l
0.44 -1.94 l
0.43 -2.61 l
0.43 -5.95 l
0.44 7.97 l
0.43 -4.27 l
0.43 -3.86 l
0.44 -3.00 l
0.43 -3.64 l
0.44 1.04 l
0.43 3.38 l
0.43 -1.92 l
0.44 -4.78 l
0.43 -4.12 l
0.43 5.11 l
0.44 1.87 l
0.43 -1.71 l
0.44 5.26 l
0.43 6.83 l
0.43 2.46 l
0.44 9.96 l
0.43 5.47 l
0.43 -3.44 l
0.44 0.62 l
0.43 2.47 l
0.44 4.13 l
0.43 -2.69 l
788.79 134.69 lineto
0.44 -0.76 l
0.43 -1.63 l
0.43 -1.38 l
0.44 -3.90 l
0.43 -1.02 l
0.44 -0.66 l
0.43 7.56 l
0.43 -0.12 l
0.44 -1.98 l
0.43 -0.47 l
0.44 9.45 l
0.43 0.74 l
0.43 2.60 l
0.44 -1.19 l
0.43 -6.05 l
0.43 -1.42 l
0.44 1.03 l
0.43 -0.79 l
0.44 8.39 l
0.43 7.55 l
0.43 -8.24 l
0.44 5.05 l
0.43 -1.89 l
0.43 -5.13 l
0.44 -5.15 l
0.43 -11.79 l
0.44 2.87 l
0.43 1.69 l
0.43 3.43 l
0.44 0.34 l
0.43 7.69 l
0.43 -1.38 l
0.44 2.75 l
0.43 2.46 l
0.44 2.11 l
0.43 -1.46 l
0.43 2.23 l
0.44 -0.73 l
0.43 -0.51 l
0.43 -0.41 l
0.44 0.09 l
0.43 -3.78 l
0.44 3.22 l
0.43 0.12 l
0.43 -1.65 l
0.44 4.40 l
0.43 2.52 l
0.43 0.41 l
0.44 4.90 l
0.43 -0.48 l
0.44 -0.18 l
0.43 -0.50 l
0.43 -5.74 l
0.44 -0.20 l
0.43 -1.91 l
0.43 3.71 l
0.44 6.82 l
0.43 7.58 l
0.44 -3.36 l
0.43 2.90 l
0.43 5.18 l
0.44 2.34 l
0.43 -2.17 l
0.43 1.34 l
0.44 2.31 l
0.43 0.10 l
0.44 2.16 l
0.43 4.09 l
0.43 5.73 l
0.44 1.59 l
0.43 -1.13 l
0.43 3.12 l
0.44 5.34 l
0.43 8.07 l
0.44 -6.65 l
0.43 -7.46 l
0.43 1.31 l
0.44 0.81 l
0.43 4.81 l
0.43 -1.34 l
0.44 -4.76 l
0.43 0.85 l
0.44 1.04 l
0.43 4.76 l
0.43 0.91 l
0.44 -3.51 l
0.43 -4.81 l
0.44 2.99 l
0.43 -6.89 l
0.43 6.23 l
0.44 7.35 l
0.43 4.65 l
0.43 -9.55 l
0.44 -0.17 l
0.43 -3.60 l
0.44 -6.50 l
0.43 5.75 l
0.43 4.32 l
0.44 -4.31 l
832.17 185.25 lineto
0.43 10.05 l
0.44 -2.53 l
0.43 0.84 l
0.44 -7.96 l
0.43 0.70 l
0.43 2.39 l
0.44 0.21 l
0.43 2.85 l
0.43 5.95 l
0.44 -0.78 l
0.43 -0.37 l
0.44 -0.38 l
0.43 3.84 l
0.43 -0.76 l
0.44 -1.28 l
0.43 7.65 l
0.43 -6.32 l
0.44 -8.43 l
0.43 6.88 l
0.44 -4.33 l
0.43 9.56 l
0.43 -9.66 l
0.44 7.73 l
0.43 5.93 l
0.43 -7.40 l
0.44 -1.59 l
0.43 0.67 l
0.44 -2.80 l
0.43 -3.90 l
0.43 -1.72 l
0.44 -3.50 l
0.43 0.90 l
0.43 -2.96 l
0.44 -1.93 l
0.43 8.08 l
0.44 7.02 l
0.43 0.24 l
0.43 1.93 l
0.44 1.40 l
0.43 1.49 l
0.43 -1.71 l
0.44 3.63 l
0.43 6.32 l
0.44 4.67 l
0.43 -0.75 l
0.43 -6.97 l
0.44 3.21 l
0.43 -8.25 l
0.43 -0.96 l
0.44 -2.07 l
0.43 2.85 l
0.44 3.77 l
0.43 1.91 l
0.43 2.07 l
0.44 1.33 l
0.43 6.36 l
0.44 4.31 l
0.43 -3.74 l
0.43 -0.51 l
0.44 1.37 l
0.43 -2.83 l
0.43 1.92 l
0.44 -1.22 l
0.43 1.11 l
0.44 5.38 l
0.43 -1.54 l
0.43 -3.89 l
0.44 4.47 l
0.43 -0.71 l
0.43 -2.01 l
0.44 0.86 l
0.43 2.17 l
0.44 -1.20 l
0.43 -3.59 l
0.43 -5.72 l
0.44 3.46 l
0.43 -0.86 l
0.43 4.37 l
0.44 4.52 l
0.43 -1.24 l
0.44 11.02 l
0.43 2.79 l
0.43 1.45 l
0.44 9.06 l
0.43 1.13 l
0.43 8.29 l
0.44 -1.51 l
0.43 3.51 l
0.44 1.44 l
0.43 -0.10 l
0.43 -12.48 l
0.44 -0.54 l
0.43 -1.91 l
0.43 1.99 l
0.44 4.48 l
0.43 2.17 l
0.44 3.45 l
0.43 1.42 l
0.43 8.19 l
875.55 264.82 lineto
0.43 2.47 l
0.43 3.50 l
0.44 -2.25 l
0.43 -3.28 l
0.44 1.52 l
0.43 4.37 l
0.43 3.16 l
0.44 0.25 l
0.43 2.49 l
0.43 -2.44 l
0.44 -6.71 l
0.43 -0.88 l
0.44 5.09 l
0.43 -0.47 l
0.43 2.33 l
0.44 0.76 l
0.43 -0.22 l
0.43 0.66 l
0.44 9.55 l
0.43 -3.08 l
0.44 2.11 l
0.43 -2.24 l
0.43 5.34 l
0.44 6.42 l
0.43 1.32 l
0.43 7.17 l
0.44 -9.97 l
0.43 6.10 l
0.44 1.22 l
0.43 6.61 l
0.43 1.02 l
0.44 -2.06 l
0.43 -9.63 l
0.44 0.95 l
0.43 4.35 l
0.43 4.22 l
0.44 -1.37 l
0.43 -0.25 l
0.43 2.26 l
0.44 -0.32 l
0.43 -0.58 l
0.44 10.12 l
0.43 1.39 l
0.43 -0.90 l
0.44 -0.46 l
0.43 3.32 l
0.43 0.59 l
0.44 -4.85 l
0.43 4.70 l
0.44 -1.51 l
0.43 3.57 l
0.43 0.52 l
0.44 -10.09 l
0.43 -2.21 l
0.43 1.78 l
0.44 2.16 l
0.43 -4.89 l
0.44 -1.15 l
0.43 -5.76 l
0.43 4.43 l
0.44 -6.12 l
0.43 -4.17 l
0.43 -6.49 l
0.44 2.50 l
0.43 -3.97 l
0.44 4.55 l
0.43 -6.80 l
0.43 4.49 l
0.44 -7.59 l
0.43 -0.56 l
0.43 -5.52 l
0.44 1.25 l
0.43 3.94 l
0.44 3.01 l
0.43 -2.26 l
0.43 1.12 l
0.44 -4.77 l
0.43 4.84 l
0.43 -4.09 l
0.44 -4.70 l
0.43 3.06 l
0.44 -5.30 l
0.43 1.81 l
0.43 -3.03 l
0.44 3.24 l
0.43 1.92 l
0.43 4.42 l
0.44 -1.79 l
0.43 3.34 l
0.44 1.18 l
0.43 1.77 l
0.43 -7.34 l
0.44 2.13 l
0.43 3.14 l
0.43 -4.29 l
0.44 -4.35 l
0.43 0.49 l
0.44 -0.91 l
0.43 -0.85 l
918.92 277.01 lineto
0.44 1.45 l
0.43 2.09 l
0.44 3.55 l
0.43 -3.11 l
0.43 1.13 l
0.44 -2.49 l
0.43 -0.83 l
0.43 -1.06 l
0.44 -3.02 l
0.43 0.56 l
0.44 -1.85 l
0.43 -8.98 l
0.43 -3.73 l
0.44 1.18 l
0.43 2.89 l
0.43 -3.02 l
0.44 3.32 l
0.43 0.45 l
0.44 -8.48 l
0.43 -3.23 l
0.43 4.31 l
0.44 -6.44 l
0.43 3.01 l
0.43 3.39 l
0.44 -7.52 l
0.43 7.39 l
0.44 0.32 l
0.43 -4.07 l
0.43 0.52 l
0.44 -0.09 l
0.43 5.35 l
0.43 6.19 l
0.44 -1.64 l
0.43 3.99 l
0.44 1.13 l
0.43 -3.93 l
0.43 6.05 l
0.44 -1.28 l
0.43 3.39 l
0.43 6.35 l
0.44 -4.77 l
0.43 -5.07 l
0.44 -1.87 l
0.43 4.82 l
0.43 5.78 l
0.44 2.99 l
0.43 4.23 l
0.43 -2.43 l
0.44 -2.87 l
0.43 -2.92 l
0.44 -2.24 l
0.43 1.75 l
0.43 -1.70 l
0.44 -9.52 l
0.43 0.75 l
0.43 8.26 l
0.44 0.64 l
0.43 1.53 l
0.44 -8.11 l
0.43 0.36 l
0.43 1.39 l
0.44 -0.39 l
0.43 0.45 l
0.43 2.27 l
0.44 -0.79 l
0.43 -0.35 l
0.44 -5.42 l
0.43 -3.23 l
0.43 2.98 l
0.44 4.44 l
0.43 -0.66 l
0.43 -3.30 l
0.44 7.58 l
0.43 0.90 l
0.44 5.59 l
0.43 -1.53 l
0.43 4.70 l
0.44 2.29 l
0.43 1.55 l
0.44 -6.40 l
0.43 -2.10 l
0.43 -2.33 l
0.44 -0.34 l
0.43 3.32 l
0.43 1.13 l
0.44 -1.47 l
0.43 2.52 l
0.44 -3.17 l
0.43 -2.58 l
0.43 3.96 l
0.44 0.50 l
0.43 4.25 l
0.43 4.57 l
0.44 0.26 l
0.43 -1.04 l
0.44 -0.33 l
0.43 1.26 l
0.43 7.78 l
0.44 2.43 l
o
0.00 0.00 1008.00 360.00 cl
0 0 0 srgb
0.75 setlinewidth
[] 0 setdash
1 setlinecap
1 setlinejoin
10.00 setmiterlimit
np
528.10 50.40 m
433.77 0 l
o
np
528.10 50.40 m
0 -7.20 l
o
np
614.85 50.40 m
0 -7.20 l
o
np
701.61 50.40 m
0 -7.20 l
o
np
788.36 50.40 m
0 -7.20 l
o
np
875.11 50.40 m
0 -7.20 l
o
np
961.87 50.40 m
0 -7.20 l
o
/Font1 findfont 12 s
528.10 24.48 (0) .5 0 t
614.85 24.48 (200) .5 0 t
701.61 24.48 (400) .5 0 t
788.36 24.48 (600) .5 0 t
875.11 24.48 (800) .5 0 t
961.87 24.48 (1000) .5 0 t
np
511.20 50.50 m
0 241.77 l
o
np
511.20 50.50 m
-7.20 0 l
o
np
511.20 90.80 m
-7.20 0 l
o
np
511.20 131.09 m
-7.20 0 l
o
np
511.20 171.39 m
-7.20 0 l
o
np
511.20 211.68 m
-7.20 0 l
o
np
511.20 251.97 m
-7.20 0 l
o
np
511.20 292.27 m
-7.20 0 l
o
493.92 50.50 (-10) .5 90 t
493.92 90.80 (0) .5 90 t
493.92 131.09 (10) .5 90 t
493.92 171.39 (20) .5 90 t
493.92 211.68 (30) .5 90 t
493.92 251.97 (40) .5 90 t
493.92 292.27 (50) .5 90 t
np
511.20 50.40 m
468.00 0 l
0 280.80 l
-468.00 0 l
0 -280.80 l
o
/Font1 findfont 14 s
745.20 338.40 (CuSum statistic) .5 0 t
745.20 2.88 (Time) .5 0 t
511.20 50.40 979.20 331.20 cl
0 0 0 srgb
0.75 setlinewidth
[ 2.25 3.75] 0 setdash
1 setlinecap
1 setlinejoin
10.00 setmiterlimit
np
744.98 50.40 m
0 280.80 l
o
1.50 setlinewidth
[ 4.50 7.50] 0 setdash
np
511.20 139.15 m
468.00 0 l
o
np
511.20 179.44 m
468.00 0 l
o
0 0 1 srgb
2.25 setlinewidth
[ 0.00 9.00] 0 setdash
np
723.29 90.80 m
0 201.47 l
o
np
766.67 90.80 m
0 201.47 l
o
np
723.29 292.27 m
43.38 0 l
o
ep
%%Trailer
%%Pages: 1
%%EOF
