%!PS-Adobe-3.0 EPSF-3.0
%%DocumentNeededResources: font Helvetica
%%+ font Helvetica-Bold
%%+ font Helvetica-Oblique
%%+ font Helvetica-BoldOblique
%%+ font Symbol
%%Title: R Graphics Output
%%Creator: R Software
%%Pages: (atend)
%%BoundingBox: 0 0 504 360
%%EndComments
%%BeginProlog
/bp  { gs sRGB gs } def
% begin .ps.prolog
/gs  { gsave } bind def
/gr  { grestore } bind def
/ep  { showpage gr gr } bind def
/m   { moveto } bind def
/l  { rlineto } bind def
/np  { newpath } bind def
/cp  { closepath } bind def
/f   { fill } bind def
/o   { stroke } bind def
/c   { newpath 0 360 arc } bind def
/r   { 4 2 roll moveto 1 copy 3 -1 roll exch 0 exch rlineto 0 rlineto -1 mul 0 exch rlineto closepath } bind def
/p1  { stroke } bind def
/p2  { gsave bg fill grestore newpath } bind def
/p3  { gsave bg fill grestore stroke } bind def
/p6  { gsave bg eofill grestore newpath } bind def
/p7  { gsave bg eofill grestore stroke } bind def
/t   { 5 -2 roll moveto gsave rotate
       1 index stringwidth pop
       mul neg 0 rmoveto show grestore } bind def
/ta  { 4 -2 roll moveto gsave rotate show } bind def
/tb  { 2 -1 roll 0 rmoveto show } bind def
/cl  { grestore gsave newpath 3 index 3 index moveto 1 index
       4 -1 roll lineto  exch 1 index lineto lineto
       closepath clip newpath } bind def
/rgb { setrgbcolor } bind def
/s   { scalefont setfont } bind def
% end   .ps.prolog
/sRGB { [ /CIEBasedABC
          << /DecodeLMN
               [ { dup 0.03928 le
                        {12.92321 div}
                        {0.055 add 1.055 div 2.4 exp }
                     ifelse
                 } bind dup dup
               ]
             /MatrixLMN [0.412457 0.212673 0.019334
                         0.357576 0.715152 0.119192
                         0.180437 0.072175 0.950301]
             /WhitePoint [0.9505 1.0 1.0890]
           >>
         ] setcolorspace } bind def
/srgb { setcolor } bind def
%%IncludeResource: font Helvetica
/Helvetica findfont
dup length dict begin
  {1 index /FID ne {def} {pop pop} ifelse} forall
  /Encoding ISOLatin1Encoding def
  currentdict
  end
/Font1 exch definefont pop
%%IncludeResource: font Helvetica-Bold
/Helvetica-Bold findfont
dup length dict begin
  {1 index /FID ne {def} {pop pop} ifelse} forall
  /Encoding ISOLatin1Encoding def
  currentdict
  end
/Font2 exch definefont pop
%%IncludeResource: font Helvetica-Oblique
/Helvetica-Oblique findfont
dup length dict begin
  {1 index /FID ne {def} {pop pop} ifelse} forall
  /Encoding ISOLatin1Encoding def
  currentdict
  end
/Font3 exch definefont pop
%%IncludeResource: font Helvetica-BoldOblique
/Helvetica-BoldOblique findfont
dup length dict begin
  {1 index /FID ne {def} {pop pop} ifelse} forall
  /Encoding ISOLatin1Encoding def
  currentdict
  end
/Font4 exch definefont pop
%%IncludeResource: font Symbol
/Symbol findfont
dup length dict begin
  {1 index /FID ne {def} {pop pop} ifelse} forall
  currentdict
  end
/Font5 exch definefont pop
%%EndProlog
%%Page: 1 1
bp
0.00 0.00 504.00 360.00 cl
0.00 0.00 504.00 360.00 cl
0.00 0.00 504.00 360.00 cl
0.00 0.00 504.00 360.00 cl
0.00 0.00 504.00 360.00 cl
0.00 0.00 504.00 360.00 cl
0.00 0.00 504.00 360.00 cl
0.00 0.00 504.00 360.00 cl
0.00 0.00 504.00 360.00 cl
0.00 0.00 504.00 360.00 cl
0.00 0.00 504.00 360.00 cl
0.00 0.00 504.00 360.00 cl
/bg { 1 1 1 srgb } def
1 1 1 srgb
1.07 setlinewidth
[] 0 setdash
1 setlinecap
1 setlinejoin
10.00 setmiterlimit
0.00 0.00 504.00 360.00 r p3
0.00 0.00 504.00 360.00 cl
33.95 32.79 498.52 337.07 cl
/bg { 1 1 1 srgb } def
33.95 32.79 464.57 304.28 r p2
0.9216 0.9216 0.9216 srgb
0.53 setlinewidth
[] 0 setdash
0 setlinecap
1 setlinejoin
10.00 setmiterlimit
np
33.95 109.99 m
464.57 0 l
o
np
33.95 208.03 m
464.57 0 l
o
np
33.95 306.08 m
464.57 0 l
o
np
124.28 32.79 m
0 304.28 l
o
np
265.53 32.79 m
0 304.28 l
o
np
406.78 32.79 m
0 304.28 l
o
1.07 setlinewidth
[] 0 setdash
np
33.95 60.96 m
464.57 0 l
o
np
33.95 159.01 m
464.57 0 l
o
np
33.95 257.05 m
464.57 0 l
o
np
53.65 32.79 m
0 304.28 l
o
np
194.90 32.79 m
0 304.28 l
o
np
336.15 32.79 m
0 304.28 l
o
np
477.40 32.79 m
0 304.28 l
o
0 0 0 srgb
np
55.07 78.29 m
1.41 132.78 l
1.41 -18.88 l
1.41 -16.21 l
1.42 -57.00 l
1.41 31.54 l
1.41 46.13 l
1.41 -4.61 l
1.42 -109.19 l
1.41 157.45 l
1.41 -15.67 l
1.41 -2.10 l
1.42 -85.89 l
1.41 -31.08 l
1.41 111.60 l
1.41 -16.09 l
1.42 3.21 l
1.41 27.29 l
1.41 -67.44 l
1.41 -108.43 l
1.42 66.40 l
1.41 146.44 l
1.41 -63.70 l
1.41 -30.47 l
1.42 2.89 l
1.41 -52.33 l
1.41 88.51 l
1.41 -67.78 l
1.42 -24.92 l
1.41 102.18 l
1.41 -61.22 l
1.41 -93.81 l
1.42 -5.15 l
1.41 139.27 l
1.41 -44.90 l
1.41 12.76 l
1.42 57.86 l
1.41 -34.41 l
1.41 -104.00 l
1.41 136.74 l
1.42 6.45 l
1.41 -117.52 l
1.41 72.34 l
1.41 -65.56 l
1.42 37.47 l
1.41 -81.65 l
1.41 160.45 l
1.41 -180.58 l
1.42 117.94 l
1.41 12.53 l
1.41 -24.45 l
1.41 -47.41 l
1.42 12.01 l
1.41 57.74 l
1.41 -36.56 l
1.41 73.64 l
1.42 -71.29 l
1.41 46.58 l
1.41 -47.41 l
1.41 13.77 l
1.42 -2.61 l
1.41 68.01 l
1.41 -67.43 l
1.41 0.78 l
1.42 35.92 l
1.41 -56.92 l
1.41 99.18 l
1.41 -94.01 l
1.42 -6.22 l
1.41 46.42 l
1.41 -12.30 l
1.41 1.48 l
1.42 -23.34 l
1.41 109.45 l
1.41 -150.31 l
1.41 69.12 l
1.42 36.68 l
1.41 -101.19 l
1.41 17.82 l
1.41 45.80 l
1.42 25.50 l
1.41 -122.19 l
1.41 34.53 l
1.41 -17.64 l
1.42 54.41 l
1.41 16.98 l
1.41 47.15 l
1.41 -34.58 l
1.42 -19.69 l
1.41 4.91 l
1.41 -12.14 l
1.41 67.61 l
1.42 -146.38 l
1.41 49.21 l
1.41 78.15 l
1.41 -5.60 l
1.42 -44.03 l
1.41 -38.70 l
1.41 102.15 l
1.41 -113.96 l
196.32 226.14 lineto
1.41 -4.00 l
1.41 7.41 l
1.41 -113.90 l
1.42 24.09 l
1.41 65.24 l
1.41 25.06 l
1.41 -106.42 l
1.42 128.83 l
1.41 -55.07 l
1.41 -71.85 l
1.41 -13.35 l
1.42 52.28 l
1.41 39.83 l
1.41 82.63 l
1.41 -32.22 l
1.42 -78.75 l
1.41 66.41 l
1.41 -29.63 l
1.41 -38.61 l
1.42 -21.53 l
1.41 64.69 l
1.41 -59.81 l
1.41 22.87 l
1.42 37.98 l
1.41 83.12 l
1.41 -73.16 l
1.41 4.83 l
1.42 -32.19 l
1.41 6.04 l
1.41 -75.28 l
1.41 161.65 l
1.42 29.91 l
1.41 -131.99 l
1.41 -71.94 l
1.41 58.71 l
1.42 53.62 l
1.41 -7.76 l
1.41 -64.58 l
1.41 -9.30 l
1.42 131.21 l
1.41 -92.26 l
1.41 2.36 l
1.41 74.49 l
1.42 -108.35 l
1.41 44.35 l
1.41 -24.14 l
1.41 -7.92 l
1.42 22.85 l
1.41 26.63 l
1.41 -10.17 l
1.41 64.41 l
1.42 -48.74 l
1.41 -40.10 l
1.41 52.66 l
1.41 -107.05 l
1.42 157.90 l
1.41 -60.56 l
1.41 81.18 l
1.41 -135.41 l
1.42 23.53 l
1.41 -20.73 l
1.41 26.23 l
1.41 -95.86 l
1.42 156.48 l
1.41 -19.17 l
1.41 -70.22 l
1.41 51.54 l
1.42 -43.93 l
1.41 19.82 l
1.41 -23.76 l
1.41 11.25 l
1.42 88.33 l
1.41 -124.55 l
1.41 -77.81 l
1.41 82.64 l
1.42 108.06 l
1.41 -131.15 l
1.41 56.38 l
1.41 25.34 l
1.42 51.08 l
1.41 -4.67 l
1.41 -20.51 l
1.41 -64.47 l
1.42 49.59 l
1.41 -95.08 l
1.41 145.52 l
1.41 -13.33 l
1.42 -39.62 l
1.41 10.44 l
1.41 -69.51 l
1.41 -37.11 l
1.42 49.85 l
1.41 -33.02 l
1.41 23.52 l
1.41 -35.33 l
1.42 36.26 l
1.41 -32.24 l
1.41 16.59 l
1.41 25.00 l
337.57 223.02 lineto
1.41 -43.14 l
1.41 -45.29 l
1.41 91.11 l
1.42 -161.60 l
1.41 180.93 l
1.41 8.53 l
1.41 -111.79 l
1.42 58.53 l
1.41 -57.84 l
1.41 -11.72 l
1.41 0.67 l
1.42 50.03 l
1.41 13.45 l
1.41 -148.27 l
1.41 139.07 l
1.42 -48.28 l
1.41 37.99 l
1.41 24.55 l
1.41 -15.62 l
1.42 -72.32 l
1.41 22.12 l
1.41 42.29 l
1.41 -18.93 l
1.42 28.13 l
1.41 -63.05 l
1.41 -66.97 l
1.41 104.64 l
1.42 -41.00 l
1.41 -55.57 l
1.41 117.74 l
1.41 14.79 l
1.42 -61.34 l
1.41 30.59 l
1.41 67.03 l
1.41 -14.61 l
1.42 -85.70 l
1.41 31.27 l
1.41 -38.47 l
1.41 -2.80 l
1.42 55.00 l
1.41 -27.51 l
1.41 -19.01 l
1.41 85.26 l
1.42 -90.38 l
1.41 81.60 l
1.41 -114.73 l
1.41 107.94 l
1.42 28.27 l
1.41 -6.53 l
1.41 -106.54 l
1.41 74.16 l
1.42 -20.03 l
1.41 -18.00 l
1.41 -29.59 l
1.41 -16.35 l
1.42 123.81 l
1.41 -41.44 l
1.41 -23.00 l
1.41 5.30 l
1.42 -22.07 l
1.41 39.62 l
1.41 10.77 l
1.41 -68.97 l
1.42 8.44 l
1.41 68.97 l
1.41 -31.24 l
1.41 24.22 l
1.42 12.71 l
1.41 -19.75 l
1.41 -8.52 l
1.41 -41.82 l
1.42 53.39 l
1.41 -32.70 l
1.41 -44.46 l
1.41 121.85 l
1.42 -170.07 l
1.41 138.35 l
1.41 -48.28 l
1.41 -40.81 l
1.42 36.11 l
1.41 75.08 l
1.41 -99.80 l
1.41 36.01 l
1.42 -39.10 l
1.41 70.37 l
1.41 -93.83 l
1.41 3.73 l
1.42 52.52 l
1.41 -77.87 l
1.41 89.75 l
1.41 -27.96 l
1.42 -34.75 l
1.41 59.46 l
1.41 75.18 l
1.41 -72.00 l
1.42 45.96 l
1.41 -34.43 l
1.41 -102.33 l
1.41 4.27 l
o
1 0 0 srgb
3.20 setlinewidth
[] 0 setdash
np
55.07 159.01 m
1.41 0 l
1.41 0 l
1.41 0 l
1.42 0 l
1.41 0 l
1.41 0 l
1.41 0 l
1.42 0 l
1.41 0 l
1.41 0 l
1.41 0 l
1.42 0 l
1.41 0 l
1.41 0 l
1.41 0 l
1.42 0 l
1.41 0 l
1.41 0 l
1.41 0 l
1.42 0 l
1.41 0 l
1.41 0 l
1.41 0 l
1.42 0 l
1.41 0 l
1.41 0 l
1.41 0 l
1.42 0 l
1.41 0 l
1.41 0 l
1.41 0 l
1.42 0 l
1.41 0 l
1.41 0 l
1.41 0 l
1.42 0 l
1.41 0 l
1.41 0 l
1.41 0 l
1.42 0 l
1.41 0 l
1.41 0 l
1.41 0 l
1.42 0 l
1.41 0 l
1.41 0 l
1.41 0 l
1.42 0 l
1.41 0 l
1.41 0 l
1.41 0 l
1.42 0 l
1.41 0 l
1.41 0 l
1.41 0 l
1.42 0 l
1.41 0 l
1.41 0 l
1.41 0 l
1.42 0 l
1.41 0 l
1.41 0 l
1.41 0 l
1.42 0 l
1.41 0 l
1.41 0 l
1.41 0 l
1.42 0 l
1.41 0 l
1.41 0 l
1.41 0 l
1.42 0 l
1.41 0 l
1.41 0 l
1.41 0 l
1.42 0 l
1.41 0 l
1.41 0 l
1.41 0 l
1.42 49.02 l
1.41 0 l
1.41 0 l
1.41 0 l
1.42 0 l
1.41 0 l
1.41 0 l
1.41 0 l
1.42 0 l
1.41 0 l
1.41 0 l
1.41 0 l
1.42 0 l
1.41 0 l
1.41 0 l
1.41 0 l
1.42 0 l
1.41 0 l
1.41 0 l
1.41 0 l
196.32 208.03 lineto
1.41 0 l
1.41 0 l
1.41 0 l
1.42 0 l
1.41 0 l
1.41 0 l
1.41 0 l
1.42 0 l
1.41 0 l
1.41 0 l
1.41 0 l
1.42 0 l
1.41 0 l
1.41 0 l
1.41 0 l
1.42 0 l
1.41 0 l
1.41 0 l
1.41 0 l
1.42 -49.02 l
1.41 0 l
1.41 0 l
1.41 0 l
1.42 0 l
1.41 0 l
1.41 0 l
1.41 0 l
1.42 0 l
1.41 0 l
1.41 0 l
1.41 0 l
1.42 0 l
1.41 0 l
1.41 0 l
1.41 0 l
1.42 0 l
1.41 0 l
1.41 0 l
1.41 0 l
1.42 0 l
1.41 0 l
1.41 0 l
1.41 0 l
1.42 0 l
1.41 0 l
1.41 0 l
1.41 0 l
1.42 0 l
1.41 0 l
1.41 0 l
1.41 0 l
1.42 0 l
1.41 0 l
1.41 0 l
1.41 0 l
1.42 0 l
1.41 0 l
1.41 0 l
1.41 0 l
1.42 0 l
1.41 0 l
1.41 0 l
1.41 0 l
1.42 0 l
1.41 0 l
1.41 0 l
1.41 0 l
1.42 0 l
1.41 0 l
1.41 0 l
1.41 0 l
1.42 0 l
1.41 0 l
1.41 0 l
1.41 0 l
1.42 0 l
1.41 0 l
1.41 0 l
1.41 0 l
1.42 49.02 l
1.41 0 l
1.41 0 l
1.41 0 l
1.42 0 l
1.41 0 l
1.41 0 l
1.41 0 l
1.42 0 l
1.41 0 l
1.41 0 l
1.41 0 l
1.42 0 l
1.41 0 l
1.41 0 l
1.41 0 l
1.42 0 l
1.41 0 l
1.41 0 l
1.41 0 l
337.57 208.03 lineto
1.41 0 l
1.41 0 l
1.41 0 l
1.42 0 l
1.41 0 l
1.41 0 l
1.41 0 l
1.42 0 l
1.41 0 l
1.41 0 l
1.41 0 l
1.42 0 l
1.41 0 l
1.41 0 l
1.41 0 l
1.42 0 l
1.41 0 l
1.41 0 l
1.41 0 l
1.42 -49.02 l
1.41 0 l
1.41 0 l
1.41 0 l
1.42 0 l
1.41 0 l
1.41 0 l
1.41 0 l
1.42 0 l
1.41 0 l
1.41 0 l
1.41 0 l
1.42 0 l
1.41 0 l
1.41 0 l
1.41 0 l
1.42 0 l
1.41 0 l
1.41 0 l
1.41 0 l
1.42 0 l
1.41 0 l
1.41 0 l
1.41 0 l
1.42 0 l
1.41 0 l
1.41 0 l
1.41 0 l
1.42 0 l
1.41 0 l
1.41 0 l
1.41 0 l
1.42 0 l
1.41 0 l
1.41 0 l
1.41 0 l
1.42 0 l
1.41 0 l
1.41 0 l
1.41 0 l
1.42 0 l
1.41 0 l
1.41 0 l
1.41 0 l
1.42 0 l
1.41 0 l
1.41 0 l
1.41 0 l
1.42 0 l
1.41 0 l
1.41 0 l
1.41 0 l
1.42 0 l
1.41 0 l
1.41 0 l
1.41 0 l
1.42 0 l
1.41 0 l
1.41 0 l
1.41 0 l
1.42 0 l
1.41 0 l
1.41 0 l
1.41 0 l
1.42 0 l
1.41 0 l
1.41 0 l
1.41 0 l
1.42 0 l
1.41 0 l
1.41 0 l
1.41 0 l
1.42 0 l
1.41 0 l
1.41 0 l
1.41 0 l
1.42 0 l
1.41 0 l
1.41 0 l
1.41 0 l
o
0 0 0 srgb
3.20 setlinewidth
[ 3.20 9.60] 0 setdash
np
194.90 32.79 m
0 304.28 l
o
np
336.15 32.79 m
0 304.28 l
o
0.2000 0.2000 0.2000 srgb
1.07 setlinewidth
[] 0 setdash
1 setlinecap
33.95 32.79 464.57 304.28 r p1
0.00 0.00 504.00 360.00 cl
0.00 0.00 504.00 360.00 cl
0.00 0.00 504.00 360.00 cl
0.00 0.00 504.00 360.00 cl
0.00 0.00 504.00 360.00 cl
0.00 0.00 504.00 360.00 cl
0.00 0.00 504.00 360.00 cl
0.00 0.00 504.00 360.00 cl
0.00 0.00 504.00 360.00 cl
0.00 0.00 504.00 360.00 cl
0.00 0.00 504.00 360.00 cl
0.00 0.00 504.00 360.00 cl
0.00 0.00 504.00 360.00 cl
0.00 0.00 504.00 360.00 cl
0.00 0.00 504.00 360.00 cl
0.00 0.00 504.00 360.00 cl
/Font1 findfont 9 s
0.3020 0.3020 0.3020 srgb
29.02 57.73 (-2) 1 0 t
29.02 155.78 (0) 1 0 t
29.02 253.82 (2) 1 0 t
0.00 0.00 504.00 360.00 cl
0.00 0.00 504.00 360.00 cl
0.2000 0.2000 0.2000 srgb
1.07 setlinewidth
[] 0 setdash
0 setlinecap
1 setlinejoin
10.00 setmiterlimit
np
31.21 60.96 m
2.74 0 l
o
np
31.21 159.01 m
2.74 0 l
o
np
31.21 257.05 m
2.74 0 l
o
0.00 0.00 504.00 360.00 cl
0.00 0.00 504.00 360.00 cl
0.00 0.00 504.00 360.00 cl
0.00 0.00 504.00 360.00 cl
0.00 0.00 504.00 360.00 cl
0.00 0.00 504.00 360.00 cl
0.00 0.00 504.00 360.00 cl
0.00 0.00 504.00 360.00 cl
0.00 0.00 504.00 360.00 cl
0.00 0.00 504.00 360.00 cl
0.2000 0.2000 0.2000 srgb
1.07 setlinewidth
[] 0 setdash
0 setlinecap
1 setlinejoin
10.00 setmiterlimit
np
53.65 30.05 m
0 2.74 l
o
np
194.90 30.05 m
0 2.74 l
o
np
336.15 30.05 m
0 2.74 l
o
np
477.40 30.05 m
0 2.74 l
o
0.00 0.00 504.00 360.00 cl
0.00 0.00 504.00 360.00 cl
/Font1 findfont 9 s
0.3020 0.3020 0.3020 srgb
53.65 21.40 (0) .5 0 t
194.90 21.40 (100) .5 0 t
336.15 21.40 (200) .5 0 t
477.40 21.40 (300) .5 0 t
0.00 0.00 504.00 360.00 cl
0.00 0.00 504.00 360.00 cl
0.00 0.00 504.00 360.00 cl
0.00 0.00 504.00 360.00 cl
0.00 0.00 504.00 360.00 cl
0.00 0.00 504.00 360.00 cl
/Font1 findfont 11 s
0 0 0 srgb
266.23 8.12 (x) .5 0 t
0.00 0.00 504.00 360.00 cl
0.00 0.00 504.00 360.00 cl
/Font1 findfont 11 s
0 0 0 srgb
13.38 184.93 (y) .5 90 t
0.00 0.00 504.00 360.00 cl
0.00 0.00 504.00 360.00 cl
0.00 0.00 504.00 360.00 cl
0.00 0.00 504.00 360.00 cl
0.00 0.00 504.00 360.00 cl
0.00 0.00 504.00 360.00 cl
/Font1 findfont 13 s
0 0 0 srgb
33.95 345.19 (Input signal) 0 0 t
0.00 0.00 504.00 360.00 cl
0.00 0.00 504.00 360.00 cl
0.00 0.00 504.00 360.00 cl
0.00 0.00 504.00 360.00 cl
0.00 0.00 504.00 360.00 cl
0.00 0.00 504.00 360.00 cl
ep
%%Trailer
%%Pages: 1
%%EOF
