%!PS-Adobe-3.0 EPSF-3.0
%%DocumentNeededResources: font Helvetica
%%+ font Helvetica-Bold
%%+ font Helvetica-Oblique
%%+ font Helvetica-BoldOblique
%%+ font Symbol
%%Title: R Graphics Output
%%Creator: R Software
%%Pages: (atend)
%%BoundingBox: 0 0 1008 360
%%EndComments
%%BeginProlog
/bp  { gs sRGB gs } def
% begin .ps.prolog
/gs  { gsave } bind def
/gr  { grestore } bind def
/ep  { showpage gr gr } bind def
/m   { moveto } bind def
/l  { rlineto } bind def
/np  { newpath } bind def
/cp  { closepath } bind def
/f   { fill } bind def
/o   { stroke } bind def
/c   { newpath 0 360 arc } bind def
/r   { 4 2 roll moveto 1 copy 3 -1 roll exch 0 exch rlineto 0 rlineto -1 mul 0 exch rlineto closepath } bind def
/p1  { stroke } bind def
/p2  { gsave bg fill grestore newpath } bind def
/p3  { gsave bg fill grestore stroke } bind def
/p6  { gsave bg eofill grestore newpath } bind def
/p7  { gsave bg eofill grestore stroke } bind def
/t   { 5 -2 roll moveto gsave rotate
       1 index stringwidth pop
       mul neg 0 rmoveto show grestore } bind def
/ta  { 4 -2 roll moveto gsave rotate show } bind def
/tb  { 2 -1 roll 0 rmoveto show } bind def
/cl  { grestore gsave newpath 3 index 3 index moveto 1 index
       4 -1 roll lineto  exch 1 index lineto lineto
       closepath clip newpath } bind def
/rgb { setrgbcolor } bind def
/s   { scalefont setfont } bind def
% end   .ps.prolog
/sRGB { [ /CIEBasedABC
          << /DecodeLMN
               [ { dup 0.03928 le
                        {12.92321 div}
                        {0.055 add 1.055 div 2.4 exp }
                     ifelse
                 } bind dup dup
               ]
             /MatrixLMN [0.412457 0.212673 0.019334
                         0.357576 0.715152 0.119192
                         0.180437 0.072175 0.950301]
             /WhitePoint [0.9505 1.0 1.0890]
           >>
         ] setcolorspace } bind def
/srgb { setcolor } bind def
%%IncludeResource: font Helvetica
/Helvetica findfont
dup length dict begin
  {1 index /FID ne {def} {pop pop} ifelse} forall
  /Encoding ISOLatin1Encoding def
  currentdict
  end
/Font1 exch definefont pop
%%IncludeResource: font Helvetica-Bold
/Helvetica-Bold findfont
dup length dict begin
  {1 index /FID ne {def} {pop pop} ifelse} forall
  /Encoding ISOLatin1Encoding def
  currentdict
  end
/Font2 exch definefont pop
%%IncludeResource: font Helvetica-Oblique
/Helvetica-Oblique findfont
dup length dict begin
  {1 index /FID ne {def} {pop pop} ifelse} forall
  /Encoding ISOLatin1Encoding def
  currentdict
  end
/Font3 exch definefont pop
%%IncludeResource: font Helvetica-BoldOblique
/Helvetica-BoldOblique findfont
dup length dict begin
  {1 index /FID ne {def} {pop pop} ifelse} forall
  /Encoding ISOLatin1Encoding def
  currentdict
  end
/Font4 exch definefont pop
%%IncludeResource: font Symbol
/Symbol findfont
dup length dict begin
  {1 index /FID ne {def} {pop pop} ifelse} forall
  currentdict
  end
/Font5 exch definefont pop
%%EndProlog
%%Page: 1 1
bp
19.01 249.50 494.50 340.99 cl
0 0 0 srgb
0.75 setlinewidth
[] 0 setdash
1 setlinecap
1 setlinejoin
10.00 setmiterlimit
np
36.62 252.89 m
1.45 0 l
1.45 0 l
1.46 0 l
1.45 0 l
1.45 0 l
1.46 0 l
1.45 0 l
1.45 0 l
1.46 0 l
1.45 0 l
1.45 0 l
1.45 0 l
1.46 0 l
1.45 0 l
1.45 0 l
1.46 0 l
1.45 0 l
1.45 0 l
1.46 0 l
1.45 0 l
1.45 0 l
1.46 0 l
1.45 0 l
1.45 0 l
1.45 0.01 l
1.46 0.16 l
1.45 1.41 l
1.45 7.44 l
1.46 22.28 l
1.45 34.75 l
1.45 18.66 l
1.46 -18.66 l
1.45 -34.75 l
1.45 -22.28 l
1.45 -7.44 l
1.46 -1.41 l
1.45 -0.16 l
1.45 -0.01 l
1.46 0 l
1.45 0 l
1.45 0 l
1.46 0 l
1.45 0 l
1.45 0 l
1.45 0 l
1.46 0 l
1.45 0.02 l
1.45 0.12 l
1.46 0.54 l
1.45 1.99 l
1.45 5.51 l
1.46 11.36 l
1.45 16.87 l
1.45 16.48 l
1.46 7.01 l
1.45 -7.01 l
1.45 -16.48 l
1.45 -16.87 l
1.46 -11.36 l
1.45 -5.51 l
1.45 -1.99 l
1.46 -0.54 l
1.45 -0.12 l
1.45 -0.02 l
1.46 0 l
1.45 0 l
1.45 0 l
1.45 0 l
1.46 0.01 l
1.45 0.05 l
1.45 0.18 l
1.46 0.60 l
1.45 1.63 l
1.45 3.68 l
1.46 6.82 l
1.45 10.21 l
1.45 11.92 l
1.45 9.92 l
1.46 3.89 l
1.45 -3.89 l
1.45 -9.92 l
1.46 -11.92 l
1.45 -10.21 l
1.45 -6.82 l
1.46 -3.68 l
1.45 -1.63 l
1.45 -0.60 l
1.45 -0.18 l
1.46 -0.05 l
1.45 0 l
1.45 0 l
1.46 0.02 l
1.45 0.06 l
1.45 0.19 l
1.46 0.51 l
1.45 1.22 l
1.45 2.50 l
1.46 4.43 l
1.45 6.71 l
181.92 277.08 lineto
1.45 8.83 l
1.46 6.78 l
1.45 2.56 l
1.45 -2.56 l
1.46 -6.78 l
1.45 -8.83 l
1.45 -8.54 l
1.46 -6.71 l
1.45 -4.43 l
1.45 -2.50 l
1.45 -1.22 l
1.46 -0.51 l
1.45 -0.19 l
1.45 -0.06 l
1.46 0.01 l
1.45 0.06 l
1.45 0.16 l
1.46 0.41 l
1.45 0.90 l
1.45 1.74 l
1.45 3.00 l
1.46 4.60 l
1.45 6.17 l
1.45 7.12 l
1.46 6.85 l
1.45 5.00 l
1.45 1.84 l
1.46 -1.84 l
1.45 -5.00 l
1.45 -6.85 l
1.45 -7.12 l
1.46 -6.17 l
1.45 -4.60 l
1.45 -3.00 l
1.46 -1.74 l
1.45 -0.89 l
1.45 -0.41 l
1.46 -0.14 l
1.45 -0.01 l
1.45 0.12 l
1.46 0.31 l
1.45 0.65 l
1.45 1.23 l
1.45 2.10 l
1.46 3.24 l
1.45 4.49 l
1.45 5.55 l
1.46 6.00 l
1.45 5.49 l
1.45 3.88 l
1.46 1.41 l
1.45 -1.41 l
1.45 -3.88 l
1.45 -5.49 l
1.46 -6.00 l
1.45 -5.55 l
1.45 -4.49 l
1.46 -3.24 l
1.45 -2.09 l
1.45 -1.23 l
1.46 -0.63 l
1.45 -0.27 l
1.45 -0.03 l
1.45 0.19 l
1.46 0.46 l
1.45 0.87 l
1.45 1.49 l
1.46 2.32 l
1.45 3.29 l
1.45 4.26 l
1.46 4.97 l
1.45 5.12 l
1.45 4.52 l
1.46 3.13 l
1.45 1.12 l
1.45 -1.12 l
1.45 -3.13 l
1.46 -4.52 l
1.45 -5.12 l
1.45 -4.97 l
1.46 -4.26 l
1.45 -3.29 l
1.45 -2.31 l
1.46 -1.47 l
1.45 -0.85 l
1.45 -0.39 l
1.45 -0.06 l
1.46 0.24 l
1.45 0.60 l
1.45 1.05 l
1.46 1.67 l
1.45 2.43 l
1.45 3.25 l
1.46 3.99 l
1.45 4.45 l
1.45 4.43 l
1.45 3.81 l
1.46 2.58 l
1.45 0.92 l
327.22 281.92 lineto
1.46 -2.58 l
1.45 -3.81 l
1.45 -4.43 l
1.46 -4.45 l
1.45 -3.98 l
1.45 -3.25 l
1.45 -2.42 l
1.46 -1.64 l
1.45 -1.01 l
1.45 -0.50 l
1.46 -0.09 l
1.45 0.28 l
1.45 0.70 l
1.46 1.18 l
1.45 1.79 l
1.45 2.47 l
1.46 3.15 l
1.45 3.70 l
1.45 4.00 l
1.45 3.88 l
1.46 3.26 l
1.45 2.19 l
1.45 0.77 l
1.46 -0.77 l
1.45 -2.19 l
1.45 -3.26 l
1.46 -3.88 l
1.45 -3.99 l
1.45 -3.71 l
1.45 -3.14 l
1.46 -2.44 l
1.45 -1.75 l
1.45 -1.13 l
1.46 -0.58 l
1.45 -0.13 l
1.45 0.31 l
1.46 0.77 l
1.45 1.27 l
1.45 1.85 l
1.45 2.45 l
1.46 3.02 l
1.45 3.44 l
1.45 3.61 l
1.46 3.42 l
1.45 2.84 l
1.45 1.88 l
1.46 0.66 l
1.45 -0.66 l
1.45 -1.88 l
1.45 -2.84 l
1.46 -3.42 l
1.45 -3.60 l
1.45 -3.44 l
1.46 -3.00 l
1.45 -2.42 l
1.45 -1.80 l
1.46 -1.20 l
1.45 -0.65 l
1.45 -0.15 l
1.46 0.32 l
1.45 0.81 l
1.45 1.33 l
1.45 1.86 l
1.46 2.40 l
1.45 2.87 l
1.45 3.19 l
1.46 3.28 l
1.45 3.05 l
1.45 2.49 l
1.46 1.64 l
1.45 0.57 l
1.45 -0.57 l
1.45 -1.64 l
1.46 -2.49 l
1.45 -3.05 l
1.45 -3.27 l
1.46 -3.18 l
1.45 -2.85 l
1.45 -2.37 l
1.46 -1.80 l
1.45 -1.24 l
1.45 -0.69 l
1.45 -0.17 l
1.46 0.33 l
1.45 0.83 l
1.45 1.34 l
1.46 1.84 l
1.45 2.33 l
1.45 2.72 l
1.46 2.96 l
1.45 2.98 l
1.45 2.74 l
1.46 2.22 l
1.45 1.44 l
1.45 0.51 l
1.45 -0.50 l
1.46 -1.45 l
1.45 -2.21 l
1.45 -2.74 l
472.53 267.47 lineto
1.45 -2.94 l
1.45 -2.70 l
1.46 -2.28 l
o
0.00 0.00 1008.00 360.00 cl
0 0 0 srgb
0.75 setlinewidth
[] 0 setdash
1 setlinecap
1 setlinejoin
10.00 setmiterlimit
np
35.17 249.50 m
435.90 0 l
o
np
35.17 249.50 m
0 -4.75 l
o
np
107.82 249.50 m
0 -4.75 l
o
np
180.47 249.50 m
0 -4.75 l
o
np
253.12 249.50 m
0 -4.75 l
o
np
325.77 249.50 m
0 -4.75 l
o
np
398.42 249.50 m
0 -4.75 l
o
np
471.07 249.50 m
0 -4.75 l
o
/Font1 findfont 8 s
35.17 232.40 (0) .5 0 t
107.82 232.40 (50) .5 0 t
180.47 232.40 (100) .5 0 t
253.12 232.40 (150) .5 0 t
325.77 232.40 (200) .5 0 t
398.42 232.40 (250) .5 0 t
471.07 232.40 (300) .5 0 t
np
19.01 252.89 m
0 75.24 l
o
np
19.01 252.89 m
-4.75 0 l
o
np
19.01 267.94 m
-4.75 0 l
o
np
19.01 282.99 m
-4.75 0 l
o
np
19.01 298.03 m
-4.75 0 l
o
np
19.01 313.08 m
-4.75 0 l
o
np
19.01 328.13 m
-4.75 0 l
o
7.60 252.89 (0.00) .5 90 t
7.60 282.99 (0.10) .5 90 t
7.60 313.08 (0.20) .5 90 t
np
19.01 249.50 m
475.49 0 l
0 91.49 l
-475.49 0 l
0 -91.49 l
o
/Font1 findfont 12 s
256.75 342.89 (sig1) .5 0 t
19.01 249.50 494.50 340.99 cl
0 0 0 srgb
0.75 setlinewidth
[] 0 setdash
1 setlinecap
1 setlinejoin
10.00 setmiterlimit
np
80.21 249.50 m
0 91.49 l
o
np
112.18 249.50 m
0 91.49 l
o
np
149.95 249.50 m
0 91.49 l
o
np
231.32 249.50 m
0 91.49 l
o
np
289.45 249.50 m
0 91.49 l
o
np
362.10 249.50 m
0 91.49 l
o
np
442.01 249.50 m
0 91.49 l
o
523.01 249.50 998.50 340.99 cl
0 0 0 srgb
0.75 setlinewidth
[] 0 setdash
1 setlinecap
1 setlinejoin
10.00 setmiterlimit
np
540.62 252.89 m
0.36 0 l
0.35 0 l
0.36 0 l
0.36 0 l
0.36 0 l
0.36 0 l
0.35 0 l
0.36 0 l
0.36 0 l
0.36 0 l
0.36 0 l
0.35 0 l
0.36 0 l
0.36 0 l
0.36 0 l
0.36 0 l
0.35 0 l
0.36 0 l
0.36 0 l
0.36 0 l
0.36 0 l
0.35 0 l
0.36 0 l
0.36 0 l
0.36 0 l
0.36 0 l
0.35 0 l
0.36 0 l
0.36 0 l
0.36 0 l
0.35 0 l
0.36 0 l
0.36 0 l
0.36 0 l
0.36 0 l
0.35 0 l
0.36 0 l
0.36 0 l
0.36 0 l
0.36 0 l
0.35 0 l
0.36 0 l
0.36 0 l
0.36 0 l
0.36 0 l
0.35 0 l
0.36 0 l
0.36 0 l
0.36 0 l
0.36 0 l
0.35 0 l
0.36 0 l
0.36 0 l
0.36 0 l
0.36 0 l
0.35 0 l
0.36 0 l
0.36 0 l
0.36 0 l
0.36 0 l
0.35 0 l
0.36 0 l
0.36 0 l
0.36 0 l
0.35 0 l
0.36 0 l
0.36 0 l
0.36 0 l
0.36 0 l
0.35 0 l
0.36 0 l
0.36 0 l
0.36 0 l
0.36 0 l
0.35 0 l
0.36 0 l
0.36 0 l
0.36 0 l
0.36 0 l
0.35 0 l
0.36 0 l
0.36 0 l
0.36 0 l
0.36 0 l
0.35 0 l
0.36 0 l
0.36 0 l
0.36 0 l
0.36 0 l
0.35 0 l
0.36 0 l
0.36 0 l
0.36 0 l
0.36 0 l
0.35 0 l
0.36 0 l
0.36 0 l
0.36 0 l
0.35 0 l
576.41 252.89 lineto
0.36 0 l
0.36 0 l
0.36 0 l
0.35 0 l
0.36 0 l
0.36 0 l
0.36 0 l
0.36 0 l
0.35 0 l
0.36 0 l
0.36 0 l
0.36 0 l
0.36 0 l
0.35 0 l
0.36 0 l
0.36 0 l
0.36 0 l
0.36 0 l
0.35 0 l
0.36 0 l
0.36 0 l
0.36 0 l
0.36 0 l
0.35 0 l
0.36 0 l
0.36 0 l
0.36 0 l
0.36 0 l
0.35 0 l
0.36 0 l
0.36 0 l
0.36 0 l
0.35 0 l
0.36 0 l
0.36 0 l
0.36 0 l
0.36 0 l
0.35 0 l
0.36 0 l
0.36 0 l
0.36 0 l
0.36 0 l
0.35 0 l
0.36 0 l
0.36 0 l
0.36 0 l
0.36 0 l
0.35 0 l
0.36 0 l
0.36 0 l
0.36 0 l
0.36 0 l
0.35 0 l
0.36 0 l
0.36 0 l
0.36 0 l
0.36 0 l
0.35 0 l
0.36 0 l
0.36 0 l
0.36 0 l
0.36 0 l
0.35 0 l
0.36 0 l
0.36 0 l
0.36 0 l
0.35 0 l
0.36 0 l
0.36 0 l
0.36 0 l
0.36 0 l
0.35 0 l
0.36 0 l
0.36 0 l
0.36 0 l
0.36 0 l
0.35 0 l
0.36 0 l
0.36 0 l
0.36 0 l
0.36 0 l
0.35 0 l
0.36 0 l
0.36 0 l
0.36 0 l
0.36 0 l
0.35 0 l
0.36 0 l
0.36 0 l
0.36 0 l
0.36 0 l
0.35 0 l
0.36 0 l
0.36 0 l
0.36 0 l
0.35 0 l
0.36 0 l
0.36 0 l
0.36 0 l
612.21 252.89 lineto
0.35 0 l
0.36 0 l
0.36 0 l
0.36 0 l
0.36 0 l
0.35 0 l
0.36 0 l
0.36 0 l
0.36 0 l
0.36 0 l
0.35 0 l
0.36 0 l
0.36 0 l
0.36 0 l
0.36 0 l
0.35 0 l
0.36 0 l
0.36 0 l
0.36 0 l
0.36 0 l
0.35 0 l
0.36 0 l
0.36 0 l
0.36 0 l
0.36 0 l
0.35 0 l
0.36 0 l
0.36 0 l
0.36 0 l
0.35 0 l
0.36 0 l
0.36 0 l
0.36 0 l
0.36 0 l
0.35 0 l
0.36 0 l
0.36 0 l
0.36 0 l
0.36 0 l
0.35 0 l
0.36 0 l
0.36 0 l
0.36 0 l
0.36 0 l
0.35 0 l
0.36 0 l
0.36 0 l
0.36 0 l
0.36 0 l
0.35 0 l
0.36 0 l
0.36 0 l
0.36 0 l
0.36 0 l
0.35 0 l
0.36 0 l
0.36 0 l
0.36 0 l
0.36 0 l
0.35 0 l
0.36 0 l
0.36 0 l
0.36 0 l
0.35 0 l
0.36 0 l
0.36 0 l
0.36 0 l
0.36 0 l
0.35 0 l
0.36 0 l
0.36 0 l
0.36 0 l
0.36 0 l
0.35 0 l
0.36 0 l
0.36 0 l
0.36 0 l
0.36 0 l
0.35 0 l
0.36 0 l
0.36 0 l
0.36 0 l
0.36 0 l
0.35 0 l
0.36 0 l
0.36 0 l
0.36 0 l
0.36 0 l
0.35 0 l
0.36 0 l
0.36 0 l
0.36 0 l
0.36 0 l
0.35 0 l
0.36 0 l
0.36 0 l
0.36 0 l
0.35 0.01 l
0.36 0.01 l
648.00 252.97 lineto
0.36 0.23 l
0.36 0.73 l
0.35 1.99 l
0.36 4.60 l
0.36 8.92 l
0.36 14.36 l
0.36 18.83 l
0.35 19.22 l
0.36 13.39 l
0.36 2.36 l
0.36 -9.64 l
0.36 -17.77 l
0.35 -19.62 l
0.36 -16.34 l
0.36 -10.92 l
0.36 -6.04 l
0.36 -2.79 l
0.35 -1.09 l
0.36 -0.36 l
0.36 -0.11 l
0.36 -0.02 l
0.36 -0.01 l
0.35 0 l
0.36 0 l
0.36 0 l
0.36 0 l
0.36 0 l
0.35 0 l
0.36 0 l
0.36 0 l
0.36 0 l
0.35 0 l
0.36 0 l
0.36 0 l
0.36 0 l
0.36 0 l
0.35 0 l
0.36 0 l
0.36 0 l
0.36 0 l
0.36 0 l
0.35 0 l
0.36 0 l
0.36 0 l
0.36 0 l
0.36 0 l
0.35 0 l
0.36 0 l
0.36 0 l
0.36 0 l
0.36 0 l
0.35 0 l
0.36 0 l
0.36 0 l
0.36 0 l
0.36 0 l
0.35 0 l
0.36 0 l
0.36 0 l
0.36 0 l
0.36 0 l
0.35 0 l
0.36 0 l
0.36 0 l
0.36 0 l
0.35 0 l
0.36 0 l
0.36 0 l
0.36 0 l
0.36 0 l
0.35 0 l
0.36 0 l
0.36 0 l
0.36 0 l
0.36 0 l
0.35 0 l
0.36 0 l
0.36 0 l
0.36 0 l
0.36 0 l
0.35 0 l
0.36 0 l
0.36 0 l
0.36 0 l
0.36 0 l
0.35 0 l
0.36 0 l
0.36 0 l
0.36 0 l
0.36 0 l
0.35 0 l
0.36 0 l
0.36 0 l
0.36 0 l
0.36 0 l
0.35 0 l
0.36 0 l
0.36 0 l
0.36 0 l
683.79 252.89 lineto
0.36 0 l
0.36 0 l
0.36 0 l
0.36 0 l
0.35 0 l
0.36 0 l
0.36 0 l
0.36 0 l
0.36 0 l
0.35 0 l
0.36 0 l
0.36 0 l
0.36 0 l
0.36 0 l
0.35 0 l
0.36 0 l
0.36 0 l
0.36 0 l
0.36 0 l
0.35 0 l
0.36 0 l
0.36 0 l
0.36 0 l
0.36 0 l
0.35 0 l
0.36 0 l
0.36 0 l
0.36 0 l
0.36 0 l
0.35 0 l
0.36 0 l
0.36 0 l
0.36 0 l
0.35 0 l
0.36 0 l
0.36 0 l
0.36 0 l
0.36 0 l
0.35 0 l
0.36 0 l
0.36 0 l
0.36 0 l
0.36 0 l
0.35 0 l
0.36 0 l
0.36 0 l
0.36 0 l
0.36 0 l
0.35 0 l
0.36 0 l
0.36 0 l
0.36 0 l
0.36 0 l
0.35 0 l
0.36 0 l
0.36 0 l
0.36 0 l
0.36 0 l
0.35 0.01 l
0.36 0 l
0.36 0.02 l
0.36 0.05 l
0.36 0.12 l
0.35 0.28 l
0.36 0.61 l
0.36 1.18 l
0.36 2.13 l
0.35 3.52 l
0.36 5.31 l
0.36 7.28 l
0.36 9.00 l
0.36 9.90 l
0.35 9.44 l
0.36 7.35 l
0.36 3.81 l
0.36 -0.54 l
0.36 -4.77 l
0.35 -8.00 l
0.36 -9.70 l
0.36 -9.79 l
0.36 -8.64 l
0.36 -6.80 l
0.35 -4.85 l
0.36 -3.14 l
0.36 -1.87 l
0.36 -1.01 l
0.36 -0.51 l
0.35 -0.23 l
0.36 -0.10 l
0.36 -0.04 l
0.36 -0.01 l
0.36 -0.01 l
0.35 0 l
0.36 0 l
0.36 0 l
0.36 0 l
0.36 0 l
0.35 0 l
0.36 0 l
719.59 252.89 lineto
0.36 0 l
0.35 0 l
0.36 0 l
0.36 0 l
0.36 0 l
0.36 0 l
0.35 0 l
0.36 0 l
0.36 0 l
0.36 0 l
0.36 0 l
0.35 0 l
0.36 0 l
0.36 0 l
0.36 0 l
0.36 0 l
0.35 0 l
0.36 0 l
0.36 0 l
0.36 0 l
0.36 0 l
0.35 0 l
0.36 0 l
0.36 0 l
0.36 0 l
0.36 0 l
0.35 0 l
0.36 0 l
0.36 0 l
0.36 0 l
0.36 0 l
0.35 0 l
0.36 0 l
0.36 0 l
0.36 0 l
0.35 0 l
0.36 0 l
0.36 0 l
0.36 0 l
0.36 0 l
0.35 0 l
0.36 0 l
0.36 0 l
0.36 0 l
0.36 0 l
0.35 0 l
0.36 0 l
0.36 0 l
0.36 0 l
0.36 0 l
0.35 0 l
0.36 0 l
0.36 0 l
0.36 0 l
0.36 0 l
0.35 0 l
0.36 0 l
0.36 0 l
0.36 0 l
0.36 0 l
0.35 0 l
0.36 0 l
0.36 0 l
0.36 0 l
0.35 0 l
0.36 0 l
0.36 0 l
0.36 0 l
0.36 0 l
0.35 0 l
0.36 0 l
0.36 0 l
0.36 0 l
0.36 0 l
0.35 0 l
0.36 0 l
0.36 0 l
0.36 0 l
0.36 0 l
0.35 0 l
0.36 0 l
0.36 0 l
0.36 0 l
0.36 0 l
0.35 0 l
0.36 0 l
0.36 0 l
0.36 0 l
0.36 0 l
0.35 0 l
0.36 0 l
0.36 0 l
0.36 0 l
0.36 0 l
0.35 0 l
0.36 0 l
0.36 0 l
0.36 0 l
0.35 0 l
755.38 252.89 lineto
0.36 0 l
0.36 0 l
0.36 0 l
0.35 0 l
0.36 0 l
0.36 0 l
0.36 0 l
0.36 0 l
0.35 0 l
0.36 0 l
0.36 0 l
0.36 0 l
0.36 0 l
0.35 0 l
0.36 0 l
0.36 0 l
0.36 0 l
0.36 0 l
0.35 0 l
0.36 0 l
0.36 0 l
0.36 0.01 l
0.36 0.01 l
0.35 0.02 l
0.36 0.04 l
0.36 0.10 l
0.36 0.18 l
0.36 0.35 l
0.35 0.61 l
0.36 1.02 l
0.36 1.62 l
0.36 2.42 l
0.35 3.38 l
0.36 4.46 l
0.36 5.50 l
0.36 6.29 l
0.36 6.63 l
0.35 6.34 l
0.36 5.31 l
0.36 3.59 l
0.36 1.38 l
0.36 -1.05 l
0.35 -3.31 l
0.36 -5.11 l
0.36 -6.24 l
0.36 -6.64 l
0.36 -6.36 l
0.35 -5.63 l
0.36 -4.61 l
0.36 -3.53 l
0.36 -2.54 l
0.36 -1.71 l
0.35 -1.10 l
0.36 -0.66 l
0.36 -0.37 l
0.36 -0.20 l
0.36 -0.11 l
0.35 -0.05 l
0.36 -0.02 l
0.36 -0.01 l
0.36 -0.01 l
0.36 0 l
0.35 0 l
0.36 0 l
0.36 0 l
0.36 0 l
0.35 0 l
0.36 0 l
0.36 0 l
0.36 0 l
0.36 0 l
0.35 0 l
0.36 0 l
0.36 0 l
0.36 0 l
0.36 0 l
0.35 0 l
0.36 0 l
0.36 0 l
0.36 0 l
0.36 0 l
0.35 0 l
0.36 0 l
0.36 0 l
0.36 0 l
0.36 0 l
0.35 0 l
0.36 0 l
0.36 0 l
0.36 0 l
0.36 0 l
0.35 0 l
0.36 0 l
0.36 0 l
0.36 0 l
0.36 0 l
0.35 0 l
0.36 0 l
0.36 0 l
791.18 252.89 lineto
0.35 0 l
0.36 0 l
0.36 0 l
0.36 0 l
0.36 0 l
0.35 0 l
0.36 0 l
0.36 0 l
0.36 0 l
0.36 0 l
0.35 0 l
0.36 0 l
0.36 0 l
0.36 0 l
0.36 0 l
0.35 0 l
0.36 0 l
0.36 0 l
0.36 0 l
0.36 0 l
0.35 0 l
0.36 0 l
0.36 0 l
0.36 0 l
0.36 0 l
0.35 0 l
0.36 0 l
0.36 0 l
0.36 0 l
0.36 0 l
0.35 0 l
0.36 0 l
0.36 0 l
0.36 0 l
0.35 0 l
0.36 0 l
0.36 0 l
0.36 0 l
0.36 0 l
0.35 0 l
0.36 0 l
0.36 0 l
0.36 0 l
0.36 0 l
0.35 0 l
0.36 0 l
0.36 0 l
0.36 0 l
0.36 0 l
0.35 0 l
0.36 0 l
0.36 0 l
0.36 0 l
0.36 0 l
0.35 0 l
0.36 0 l
0.36 0 l
0.36 0 l
0.36 0 l
0.35 0 l
0.36 0 l
0.36 0 l
0.36 0 l
0.36 0 l
0.35 0 l
0.36 0 l
0.36 0 l
0.36 0 l
0.35 0 l
0.36 0 l
0.36 0 l
0.36 0 l
0.36 0 l
0.35 0 l
0.36 0 l
0.36 0 l
0.36 0 l
0.36 0 l
0.35 0 l
0.36 0 l
0.36 0 l
0.36 0 l
0.36 0 l
0.35 0.01 l
0.36 0 l
0.36 0.01 l
0.36 0.01 l
0.36 0.03 l
0.35 0.06 l
0.36 0.11 l
0.36 0.19 l
0.36 0.32 l
0.36 0.51 l
0.35 0.80 l
0.36 1.19 l
0.36 1.69 l
0.36 2.30 l
0.36 2.98 l
0.35 3.68 l
826.97 271.09 lineto
0.36 4.79 l
0.36 4.98 l
0.35 4.81 l
0.36 4.24 l
0.36 3.25 l
0.36 1.94 l
0.36 0.41 l
0.35 -1.17 l
0.36 -2.60 l
0.36 -3.78 l
0.36 -4.56 l
0.36 -4.95 l
0.35 -4.92 l
0.36 -4.59 l
0.36 -4.03 l
0.36 -3.34 l
0.36 -2.64 l
0.35 -1.99 l
0.36 -1.44 l
0.36 -0.99 l
0.36 -0.65 l
0.36 -0.41 l
0.35 -0.25 l
0.36 -0.14 l
0.36 -0.08 l
0.36 -0.04 l
0.36 -0.03 l
0.35 -0.01 l
0.36 0 l
0.36 -0.01 l
0.36 0 l
0.36 0 l
0.35 0 l
0.36 0 l
0.36 0 l
0.36 0 l
0.35 0 l
0.36 0 l
0.36 0 l
0.36 0 l
0.36 0 l
0.35 0 l
0.36 0 l
0.36 0 l
0.36 0 l
0.36 0 l
0.35 0 l
0.36 0 l
0.36 0 l
0.36 0 l
0.36 0 l
0.35 0 l
0.36 0 l
0.36 0 l
0.36 0 l
0.36 0 l
0.35 0 l
0.36 0 l
0.36 0 l
0.36 0 l
0.36 0 l
0.35 0 l
0.36 0 l
0.36 0 l
0.36 0 l
0.36 0 l
0.35 0 l
0.36 0 l
0.36 0 l
0.36 0 l
0.35 0 l
0.36 0 l
0.36 0 l
0.36 0 l
0.36 0 l
0.35 0 l
0.36 0 l
0.36 0 l
0.36 0 l
0.36 0 l
0.35 0 l
0.36 0 l
0.36 0 l
0.36 0 l
0.36 0 l
0.35 0 l
0.36 0 l
0.36 0 l
0.36 0 l
0.36 0 l
0.35 0 l
0.36 0 l
0.36 0 l
0.36 0 l
0.36 0 l
0.35 0 l
0.36 0 l
0.36 0 l
0.36 0 l
862.77 252.89 lineto
0.35 0 l
0.36 0 l
0.36 0 l
0.36 0 l
0.35 0 l
0.36 0 l
0.36 0 l
0.36 0 l
0.36 0 l
0.35 0 l
0.36 0 l
0.36 0 l
0.36 0 l
0.36 0 l
0.35 0 l
0.36 0 l
0.36 0 l
0.36 0 l
0.36 0 l
0.35 0 l
0.36 0 l
0.36 0 l
0.36 0 l
0.36 0 l
0.35 0 l
0.36 0 l
0.36 0 l
0.36 0 l
0.36 0 l
0.35 0 l
0.36 0 l
0.36 0 l
0.36 0 l
0.35 0 l
0.36 0 l
0.36 0 l
0.36 0 l
0.36 0 l
0.35 0 l
0.36 0 l
0.36 0 l
0.36 0 l
0.36 0 l
0.35 0 l
0.36 0 l
0.36 0 l
0.36 0 l
0.36 0.01 l
0.35 0 l
0.36 0.01 l
0.36 0.02 l
0.36 0.04 l
0.36 0.06 l
0.35 0.10 l
0.36 0.17 l
0.36 0.27 l
0.36 0.41 l
0.36 0.61 l
0.35 0.87 l
0.36 1.21 l
0.36 1.62 l
0.36 2.09 l
0.36 2.59 l
0.35 3.08 l
0.36 3.52 l
0.36 3.84 l
0.36 3.99 l
0.35 3.90 l
0.36 3.55 l
0.36 2.94 l
0.36 2.08 l
0.36 1.07 l
0.35 -0.06 l
0.36 -1.18 l
0.36 -2.18 l
0.36 -3.02 l
0.36 -3.60 l
0.35 -3.91 l
0.36 -3.98 l
0.36 -3.82 l
0.36 -3.48 l
0.36 -3.03 l
0.35 -2.54 l
0.36 -2.03 l
0.36 -1.58 l
0.36 -1.17 l
0.36 -0.85 l
0.35 -0.58 l
0.36 -0.40 l
0.36 -0.25 l
0.36 -0.16 l
0.36 -0.10 l
0.35 -0.06 l
0.36 -0.03 l
0.36 -0.02 l
0.36 -0.01 l
0.36 0 l
0.35 -0.01 l
0.36 0 l
currentpoint o m
898.56 252.89 lineto
0.36 0 l
0.35 0 l
0.36 0 l
0.36 0 l
0.36 0 l
0.36 0 l
0.35 0 l
0.36 0 l
0.36 0 l
0.36 0 l
0.36 0 l
0.35 0 l
0.36 0 l
0.36 0 l
0.36 0 l
0.36 0 l
0.35 0 l
0.36 0 l
0.36 0 l
0.36 0 l
0.36 0 l
0.35 0 l
0.36 0 l
0.36 0 l
0.36 0 l
0.36 0 l
0.35 0 l
0.36 0 l
0.36 0 l
0.36 0 l
0.36 0 l
0.35 0 l
0.36 0 l
0.36 0 l
0.36 0 l
0.35 0 l
0.36 0 l
0.36 0 l
0.36 0 l
0.36 0 l
0.35 0 l
0.36 0 l
0.36 0 l
0.36 0 l
0.36 0 l
0.35 0 l
0.36 0 l
0.36 0 l
0.36 0 l
0.36 0 l
0.35 0 l
0.36 0 l
0.36 0 l
0.36 0 l
0.36 0 l
0.35 0 l
0.36 0 l
0.36 0 l
0.36 0 l
0.36 0 l
0.35 0 l
0.36 0 l
0.36 0 l
0.36 0 l
0.36 0 l
0.35 0 l
0.36 0 l
0.36 0 l
0.36 0 l
0.35 0 l
0.36 0 l
0.36 0 l
0.36 0 l
0.36 0 l
0.35 0 l
0.36 0 l
0.36 0 l
0.36 0 l
0.36 0 l
0.35 0 l
0.36 0 l
0.36 0 l
0.36 0 l
0.36 0 l
0.35 0 l
0.36 0 l
0.36 0 l
0.36 0 l
0.36 0 l
0.35 0 l
0.36 0 l
0.36 0 l
0.36 0 l
0.36 0 l
0.35 0 l
0.36 0 l
0.36 0 l
0.36 0 l
0.36 0 l
934.35 252.89 lineto
0.36 0 l
0.36 0 l
0.36 0 l
0.35 0 l
0.36 0 l
0.36 0 l
0.36 0 l
0.36 0 l
0.35 0 l
0.36 0 l
0.36 0.01 l
0.36 0 l
0.36 0.01 l
0.35 0.01 l
0.36 0.02 l
0.36 0.03 l
0.36 0.06 l
0.36 0.09 l
0.35 0.14 l
0.36 0.22 l
0.36 0.32 l
0.36 0.46 l
0.36 0.65 l
0.35 0.89 l
0.36 1.17 l
0.36 1.50 l
0.36 1.87 l
0.36 2.26 l
0.35 2.63 l
0.36 2.95 l
0.36 3.20 l
0.36 3.32 l
0.36 3.28 l
0.35 3.07 l
0.36 2.66 l
0.36 2.09 l
0.36 1.37 l
0.35 0.55 l
0.36 -0.32 l
0.36 -1.14 l
0.36 -1.91 l
0.36 -2.52 l
0.35 -2.97 l
0.36 -3.24 l
0.36 -3.33 l
0.36 -3.24 l
0.36 -3.04 l
0.35 -2.72 l
0.36 -2.36 l
0.36 -1.98 l
0.36 -1.60 l
0.36 -1.26 l
0.35 -0.96 l
0.36 -0.71 l
0.36 -0.51 l
0.36 -0.36 l
0.36 -0.24 l
0.35 -0.16 l
0.36 -0.10 l
0.36 -0.07 l
0.36 -0.04 l
0.36 -0.02 l
0.35 -0.01 l
0.36 -0.01 l
0.36 0 l
0.36 -0.01 l
0.36 0 l
0.35 0 l
0.36 0 l
0.36 0 l
0.36 0 l
0.35 0 l
0.36 0 l
0.36 0 l
0.36 0 l
0.36 0 l
0.35 0 l
0.36 0 l
0.36 0 l
0.36 0 l
0.36 0 l
0.35 0 l
0.36 0 l
0.36 0 l
0.36 0 l
0.36 0 l
0.35 0 l
0.36 0 l
0.36 0 l
0.36 0 l
0.36 0 l
0.35 0 l
0.36 0 l
0.36 0 l
0.36 0 l
0.36 0 l
0.35 0 l
0.36 0 l
0.36 0 l
970.15 252.89 lineto
0.36 0 l
0.35 0 l
0.36 0 l
0.36 0 l
0.36 0 l
0.35 0 l
0.36 0 l
0.36 0 l
0.36 0 l
0.36 0 l
0.35 0 l
0.36 0 l
0.36 0 l
0.36 0 l
0.36 0 l
0.35 0 l
0.36 0 l
0.36 0 l
0.36 0 l
0.36 0 l
0.35 0 l
0.36 0 l
0.36 0 l
0.36 0 l
0.36 0 l
0.35 0 l
0.36 0 l
0.36 0 l
0.36 0 l
0.36 0 l
o
0.00 0.00 1008.00 360.00 cl
0 0 0 srgb
0.75 setlinewidth
[] 0 setdash
1 setlinecap
1 setlinejoin
10.00 setmiterlimit
np
540.26 249.50 m
429.53 0 l
o
np
540.26 249.50 m
0 -4.75 l
o
np
611.85 249.50 m
0 -4.75 l
o
np
683.44 249.50 m
0 -4.75 l
o
np
755.02 249.50 m
0 -4.75 l
o
np
826.61 249.50 m
0 -4.75 l
o
np
898.20 249.50 m
0 -4.75 l
o
np
969.79 249.50 m
0 -4.75 l
o
/Font1 findfont 8 s
540.26 232.40 (0) .5 0 t
611.85 232.40 (200) .5 0 t
683.44 232.40 (400) .5 0 t
755.02 232.40 (600) .5 0 t
826.61 232.40 (800) .5 0 t
898.20 232.40 (1000) .5 0 t
969.79 232.40 (1200) .5 0 t
np
523.01 252.89 m
0 83.06 l
o
np
523.01 252.89 m
-4.75 0 l
o
np
523.01 280.58 m
-4.75 0 l
o
np
523.01 308.27 m
-4.75 0 l
o
np
523.01 335.95 m
-4.75 0 l
o
511.60 252.89 (0.00) .5 90 t
511.60 280.58 (0.05) .5 90 t
511.60 308.27 (0.10) .5 90 t
511.60 335.95 (0.15) .5 90 t
np
523.01 249.50 m
475.49 0 l
0 91.49 l
-475.49 0 l
0 -91.49 l
o
/Font1 findfont 12 s
760.75 342.89 (sig2) .5 0 t
523.01 249.50 998.50 340.99 cl
0 0 0 srgb
0.75 setlinewidth
[] 0 setdash
1 setlinecap
1 setlinejoin
10.00 setmiterlimit
np
572.48 249.50 m
0 91.49 l
o
np
590.37 249.50 m
0 91.49 l
o
np
631.54 249.50 m
0 91.49 l
o
np
651.22 249.50 m
0 91.49 l
o
np
690.60 249.50 m
0 91.49 l
o
np
710.28 249.50 m
0 91.49 l
o
np
749.66 249.50 m
0 91.49 l
o
np
771.13 249.50 m
0 91.49 l
o
np
808.72 249.50 m
0 91.49 l
o
np
829.48 249.50 m
0 91.49 l
o
np
865.99 249.50 m
0 91.49 l
o
np
887.46 249.50 m
0 91.49 l
o
np
926.84 249.50 m
0 91.49 l
o
np
946.52 249.50 m
0 91.49 l
o
19.01 129.50 494.50 220.99 cl
0 0 0 srgb
0.75 setlinewidth
[] 0 setdash
1 setlinecap
1 setlinejoin
10.00 setmiterlimit
np
36.62 132.89 m
0.73 0 l
0.74 0 l
0.73 0 l
0.74 0 l
0.73 0 l
0.74 0 l
0.73 0 l
0.74 0 l
0.73 0 l
0.74 0 l
0.73 0 l
0.74 0 l
0.73 0 l
0.74 0 l
0.73 0 l
0.74 0 l
0.73 0 l
0.74 0 l
0.73 0 l
0.74 0 l
0.73 0 l
0.74 0 l
0.73 0 l
0.74 0 l
0.73 0 l
0.74 0 l
0.73 0 l
0.74 0 l
0.73 0 l
0.74 0 l
0.73 0 l
0.74 0 l
0.73 0 l
0.74 0 l
0.73 0 l
0.74 0 l
0.73 0 l
0.74 0 l
0.73 0 l
0.74 0 l
0.73 0 l
0.74 0 l
0.73 0 l
0.74 0 l
0.73 0 l
0.74 0 l
0.73 0 l
0.74 0 l
0.73 0 l
0.74 0 l
0.73 0 l
0.74 0 l
0.73 0.01 l
0.74 0.01 l
0.73 0.05 l
0.74 0.18 l
0.73 0.50 l
0.74 1.26 l
0.73 2.83 l
0.74 5.49 l
0.73 9.32 l
0.74 13.60 l
0.73 16.81 l
0.74 16.99 l
0.73 12.85 l
0.74 4.81 l
0.73 -4.78 l
0.74 -12.80 l
0.73 -16.88 l
0.74 -16.57 l
0.73 -13.14 l
0.74 -8.46 l
0.73 -4.02 l
0.74 -0.43 l
0.73 2.35 l
0.74 4.57 l
0.73 6.44 l
0.74 7.88 l
0.73 8.67 l
0.74 8.52 l
0.73 7.27 l
0.74 4.93 l
0.73 1.81 l
0.74 -1.57 l
0.73 -4.60 l
0.74 -6.78 l
0.73 -7.78 l
0.74 -7.53 l
0.73 -6.26 l
0.74 -4.27 l
0.73 -1.95 l
0.74 0.35 l
0.73 2.38 l
0.74 3.96 l
0.73 4.96 l
0.74 5.32 l
0.73 5.06 l
0.74 4.18 l
0.73 2.83 l
110.12 182.43 lineto
0.73 -0.57 l
0.74 -2.15 l
0.73 -3.36 l
0.74 -4.07 l
0.73 -4.17 l
0.74 -3.73 l
0.73 -2.83 l
0.74 -1.62 l
0.73 -0.29 l
0.74 0.97 l
0.73 2.02 l
0.74 2.74 l
0.73 3.08 l
0.74 3.00 l
0.73 2.56 l
0.74 1.81 l
0.73 0.89 l
0.74 -0.09 l
0.73 -1.01 l
0.74 -1.73 l
0.73 -2.20 l
0.74 -2.35 l
0.73 -2.18 l
0.74 -1.76 l
0.73 -1.13 l
0.74 -0.39 l
0.73 0.34 l
0.74 0.98 l
0.73 1.46 l
0.74 1.72 l
0.73 1.74 l
0.74 1.54 l
0.73 1.16 l
0.74 0.66 l
0.73 0.09 l
0.74 -0.43 l
0.73 -0.88 l
0.74 -1.19 l
0.73 -1.32 l
0.74 -1.27 l
0.73 -1.08 l
0.74 -0.74 l
0.73 -0.35 l
0.74 0.08 l
0.73 0.46 l
0.74 0.76 l
0.73 0.94 l
0.74 1.00 l
0.73 0.91 l
0.74 0.73 l
0.73 0.46 l
0.74 0.14 l
0.73 -0.16 l
0.74 -0.44 l
0.73 -0.63 l
0.74 -0.74 l
0.73 -0.73 l
0.74 -0.65 l
0.73 -0.48 l
0.74 -0.26 l
0.73 -0.02 l
0.74 0.20 l
0.73 0.39 l
0.74 0.51 l
0.73 0.56 l
0.74 0.54 l
0.73 0.44 l
0.74 0.31 l
0.73 0.13 l
0.74 -0.04 l
0.73 -0.21 l
0.74 -0.33 l
0.73 -0.41 l
0.74 -0.42 l
0.73 -0.38 l
0.74 -0.31 l
0.73 -0.18 l
0.74 -0.05 l
0.73 0.08 l
0.74 0.19 l
0.73 0.28 l
0.74 0.31 l
0.73 0.31 l
0.74 0.27 l
0.73 0.20 l
0.74 0.10 l
0.73 0 l
0.74 -0.09 l
0.73 -0.17 l
0.74 -0.22 l
0.73 -0.24 l
0.74 -0.22 l
0.73 -0.19 l
0.74 -0.12 l
0.73 -0.05 l
0.74 0.02 l
0.73 0.09 l
0.74 0.15 l
0.73 0.17 l
183.62 169.47 lineto
0.73 0.16 l
0.74 0.13 l
0.73 0.07 l
0.74 0.02 l
0.73 -0.04 l
0.74 -0.09 l
0.73 -0.11 l
0.74 -0.14 l
0.73 -0.13 l
0.74 -0.11 l
0.73 -0.08 l
0.74 -0.05 l
0.73 0.01 l
0.74 0.04 l
0.73 0.07 l
0.74 0.10 l
0.73 0.10 l
0.74 0.10 l
0.73 0.07 l
0.74 0.05 l
0.73 0.02 l
0.74 -0.01 l
0.73 -0.04 l
0.74 -0.06 l
0.73 -0.08 l
0.74 -0.07 l
0.73 -0.07 l
0.74 -0.05 l
0.73 -0.03 l
0.74 -0.01 l
0.73 0.02 l
0.74 0.04 l
0.73 0.05 l
0.74 0.05 l
0.73 0.06 l
0.74 0.05 l
0.73 0.03 l
0.74 0.02 l
0.73 -0.01 l
0.74 -0.01 l
0.73 -0.04 l
0.74 -0.04 l
0.73 -0.04 l
0.74 -0.04 l
0.73 -0.03 l
0.74 -0.02 l
0.73 -0.01 l
0.74 0.01 l
0.73 0.01 l
0.74 0.03 l
0.73 0.03 l
0.74 0.03 l
0.73 0.03 l
0.74 0.02 l
0.73 0.02 l
0.74 0 l
0.73 -0.01 l
0.74 -0.02 l
0.73 -0.02 l
0.74 -0.02 l
0.73 -0.03 l
0.74 -0.02 l
0.73 -0.01 l
0.74 -0.01 l
0.73 0.01 l
0.74 0 l
0.73 0.02 l
0.74 0.02 l
0.73 0.01 l
0.74 0.02 l
0.73 0.01 l
0.74 0.01 l
0.73 0.01 l
0.74 -0.01 l
0.73 -0.01 l
0.74 -0.01 l
0.73 -0.01 l
0.74 -0.02 l
0.73 -0.01 l
0.74 -0.01 l
0.73 0 l
0.74 0 l
0.73 0 l
0.74 0.01 l
0.73 0.01 l
0.74 0.01 l
0.73 0.01 l
0.74 0.01 l
0.73 0 l
0.74 0.01 l
0.73 0 l
0.74 -0.01 l
0.73 0 l
0.74 -0.01 l
0.73 -0.01 l
0.74 -0.01 l
0.73 0 l
0.74 -0.01 l
0.73 0 l
257.12 169.40 lineto
0.73 0.01 l
0.74 0 l
0.73 0.01 l
0.74 0 l
0.73 0.01 l
0.74 0 l
0.73 0.01 l
0.74 0 l
0.73 -0.01 l
0.74 0 l
0.73 0 l
0.74 -0.01 l
0.73 0 l
0.74 -0.01 l
0.73 0 l
0.74 0 l
0.73 0 l
0.74 0 l
0.73 0.01 l
0.74 0 l
0.73 0 l
0.74 0.01 l
0.73 0 l
0.74 0 l
0.73 0 l
0.74 0 l
0.73 0 l
0.74 -0.01 l
0.73 0 l
0.74 0 l
0.73 0 l
0.74 0 l
0.73 0 l
0.74 0 l
0.73 0 l
0.74 0 l
0.73 0 l
0.74 0 l
0.73 0 l
0.74 0 l
0.73 0.01 l
0.74 0 l
0.73 0 l
0.74 0 l
0.73 -0.01 l
0.74 0 l
0.73 0 l
0.74 0 l
0.73 0 l
0.74 0 l
0.73 0 l
0.74 0 l
0.73 0 l
0.74 0 l
0.73 0 l
0.74 0 l
0.73 0 l
0.74 0 l
0.73 0 l
0.74 0 l
0.73 0 l
0.74 0 l
0.73 0 l
0.74 0 l
0.73 0 l
0.74 0 l
0.73 0 l
0.74 0 l
0.73 0 l
0.74 0 l
0.73 0 l
0.74 0 l
0.73 0 l
0.74 0 l
0.73 0 l
0.74 0 l
0.73 0 l
0.74 0 l
0.73 0 l
0.74 0 l
0.73 0 l
0.74 0 l
0.73 0 l
0.74 0 l
0.73 0 l
0.74 0 l
0.73 0 l
0.74 0 l
0.73 0 l
0.74 0 l
0.73 0 l
0.74 0 l
0.73 0 l
0.74 0 l
0.73 0 l
0.74 0 l
0.73 0 l
0.74 0 l
0.73 0 l
330.62 169.42 lineto
0.73 0 l
0.74 0 l
0.73 0 l
0.74 0 l
0.73 0 l
0.74 0 l
0.73 0 l
0.74 0 l
0.73 0 l
0.74 0 l
0.73 0 l
0.74 0 l
0.73 0 l
0.74 0 l
0.73 0 l
0.74 0 l
0.73 0 l
0.74 0 l
0.73 0 l
0.74 0 l
0.73 0 l
0.74 0 l
0.73 0 l
0.74 0 l
0.73 0 l
0.74 0 l
0.73 0 l
0.74 0 l
0.73 0 l
0.74 0 l
0.73 0 l
0.74 0 l
0.73 0 l
0.74 0 l
0.73 0 l
0.74 0 l
0.73 0 l
0.74 0 l
0.73 0 l
0.74 0 l
0.73 0 l
0.74 0 l
0.73 0 l
0.74 0 l
0.73 0 l
0.74 0 l
0.73 0 l
0.74 0 l
0.73 0 l
0.74 0 l
0.73 0 l
0.74 0 l
0.73 0 l
0.74 0 l
0.73 0 l
0.74 0 l
0.73 0 l
0.74 0 l
0.73 0 l
0.74 0 l
0.73 0 l
0.74 0 l
0.73 0 l
0.74 0 l
0.73 0 l
0.74 0 l
0.73 0 l
0.74 0 l
0.73 0 l
0.74 0 l
0.73 0 l
0.74 0 l
0.73 0 l
0.74 0 l
0.73 0 l
0.74 0 l
0.73 0 l
0.74 0 l
0.73 0 l
0.74 0 l
0.74 0 l
0.73 0 l
0.74 0 l
0.73 0 l
0.74 0 l
0.73 0 l
0.74 0 l
0.73 0 l
0.74 0 l
0.73 0 l
0.74 0 l
0.73 0 l
0.74 0 l
0.73 0 l
0.74 0 l
0.73 0 l
0.74 0 l
0.73 0 l
0.74 0 l
404.12 169.42 lineto
0.74 0 l
0.73 0 l
0.74 0 l
0.73 0 l
0.74 0 l
0.73 0 l
0.74 0 l
0.73 0 l
0.74 0 l
0.73 0 l
0.74 0 l
0.73 0 l
0.74 0 l
0.73 0 l
0.74 0 l
0.73 0 l
0.74 0 l
0.73 0 l
0.74 0 l
0.73 0 l
0.74 0 l
0.73 0 l
0.74 0 l
0.73 0 l
0.74 0 l
0.73 0 l
0.74 0 l
0.73 0 l
0.74 0 l
0.73 0 l
0.74 0 l
0.73 0 l
0.74 0 l
0.73 0 l
0.74 0 l
0.73 0 l
0.74 0 l
0.73 0 l
0.74 0 l
0.73 0 l
0.74 0 l
0.73 0 l
0.74 0 l
0.73 0 l
0.74 0 l
0.73 0 l
0.74 0 l
0.73 0 l
0.74 0 l
0.73 0 l
0.74 0 l
0.73 0 l
0.74 0 l
0.73 0 l
0.74 0 l
0.73 0 l
0.74 0 l
0.73 0 l
0.74 0 l
0.73 0 l
0.74 0 l
0.73 0 l
0.74 0 l
0.73 0 l
0.74 0 l
0.73 0 l
0.74 0 l
0.73 0 l
0.74 0 l
0.73 0 l
0.74 0 l
0.73 0 l
0.74 0 l
0.73 0 l
0.74 0 l
0.73 0 l
0.74 0 l
0.73 0 l
0.74 0 l
0.73 0 l
0.74 0 l
0.73 0 l
0.74 0 l
0.73 0 l
0.74 0 l
0.73 0 l
0.74 0 l
0.73 0 l
0.74 0 l
0.73 0 l
0.74 0 l
0.73 0 l
0.74 0 l
0.73 0 l
0.74 0 l
0.73 0 l
0.74 0 l
0.73 0 l
0.74 0 l
o
0.00 0.00 1008.00 360.00 cl
0 0 0 srgb
0.75 setlinewidth
[] 0 setdash
1 setlinecap
1 setlinejoin
10.00 setmiterlimit
np
35.88 129.50 m
441.01 0 l
o
np
35.88 129.50 m
0 -4.75 l
o
np
109.38 129.50 m
0 -4.75 l
o
np
182.88 129.50 m
0 -4.75 l
o
np
256.38 129.50 m
0 -4.75 l
o
np
329.88 129.50 m
0 -4.75 l
o
np
403.39 129.50 m
0 -4.75 l
o
np
476.89 129.50 m
0 -4.75 l
o
/Font1 findfont 8 s
35.88 112.40 (0) .5 0 t
109.38 112.40 (100) .5 0 t
182.88 112.40 (200) .5 0 t
256.38 112.40 (300) .5 0 t
329.88 112.40 (400) .5 0 t
403.39 112.40 (500) .5 0 t
476.89 112.40 (600) .5 0 t
np
19.01 132.89 m
0 86.94 l
o
np
19.01 132.89 m
-4.75 0 l
o
np
19.01 145.31 m
-4.75 0 l
o
np
19.01 157.73 m
-4.75 0 l
o
np
19.01 170.15 m
-4.75 0 l
o
np
19.01 182.57 m
-4.75 0 l
o
np
19.01 194.99 m
-4.75 0 l
o
np
19.01 207.41 m
-4.75 0 l
o
np
19.01 219.83 m
-4.75 0 l
o
7.60 132.89 (0.00) .5 90 t
7.60 157.73 (0.04) .5 90 t
7.60 182.57 (0.08) .5 90 t
7.60 207.41 (0.12) .5 90 t
np
19.01 129.50 m
475.49 0 l
0 91.49 l
-475.49 0 l
0 -91.49 l
o
/Font1 findfont 12 s
256.75 222.89 (sig3) .5 0 t
19.01 129.50 494.50 220.99 cl
0 0 0 srgb
0.75 setlinewidth
[] 0 setdash
1 setlinecap
1 setlinejoin
10.00 setmiterlimit
np
83.66 129.50 m
0 91.49 l
o
np
113.06 129.50 m
0 91.49 l
o
np
124.08 129.50 m
0 91.49 l
o
np
146.13 129.50 m
0 91.49 l
o
np
175.53 129.50 m
0 91.49 l
o
np
219.63 129.50 m
0 91.49 l
o
np
293.13 129.50 m
0 91.49 l
o
np
370.31 129.50 m
0 91.49 l
o
np
421.76 129.50 m
0 91.49 l
o
523.01 129.50 998.50 220.99 cl
0 0 0 srgb
0.75 setlinewidth
[] 0 setdash
1 setlinecap
1 setlinejoin
10.00 setmiterlimit
np
540.62 132.89 m
4.49 0 l
4.49 0 l
4.50 0 l
4.49 0 l
4.49 0 l
4.49 0 l
4.50 0 l
4.49 0 l
4.49 0 l
4.49 0 l
4.50 0 l
4.49 0 l
4.49 0 l
4.49 0 l
4.50 0 l
4.49 0 l
4.49 0 l
4.49 0 l
4.50 0 l
4.49 0 l
4.49 0 l
4.49 0 l
4.50 0 l
4.49 0 l
4.49 0 l
4.49 0 l
4.50 0 l
4.49 0 l
4.49 0 l
4.49 0 l
4.50 0 l
4.49 0 l
4.49 0 l
4.49 0 l
4.50 0 l
4.49 0 l
4.49 0.01 l
4.49 2.37 l
4.50 62.76 l
4.49 19.57 l
4.49 -79.48 l
4.49 -5.21 l
4.50 -0.02 l
4.49 0 l
4.49 0 l
4.49 0 l
4.50 0 l
4.49 0 l
4.49 0 l
4.49 0.04 l
4.50 2.10 l
4.49 25.14 l
4.49 48.74 l
4.49 -29.87 l
4.50 -40.05 l
4.49 -5.92 l
4.49 -0.18 l
4.49 0 l
4.50 0 l
4.49 0 l
4.49 0 l
4.49 0 l
4.50 0.05 l
4.49 1.28 l
4.49 11.87 l
4.49 34.20 l
4.50 14.24 l
4.49 -32.62 l
4.49 -24.07 l
4.49 -4.64 l
4.50 -0.30 l
4.49 -0.01 l
4.49 0 l
4.49 0 l
4.50 0 l
4.49 0.04 l
4.49 0.74 l
4.49 5.99 l
4.50 20.84 l
4.49 24.94 l
4.49 -5.86 l
4.50 -27.33 l
4.49 -15.61 l
4.49 -3.41 l
4.49 -0.32 l
4.50 -0.02 l
4.49 0 l
4.49 0 l
4.49 0.03 l
4.50 0.42 l
4.49 3.14 l
4.49 12.20 l
4.49 21.97 l
4.50 11.35 l
4.49 -14.39 l
4.49 -21.38 l
4.49 -10.55 l
4.50 -2.47 l
o
0.00 0.00 1008.00 360.00 cl
0 0 0 srgb
0.75 setlinewidth
[] 0 setdash
1 setlinecap
1 setlinejoin
10.00 setmiterlimit
np
536.13 129.50 m
449.25 0 l
o
np
536.13 129.50 m
0 -4.75 l
o
np
625.98 129.50 m
0 -4.75 l
o
np
715.83 129.50 m
0 -4.75 l
o
np
805.68 129.50 m
0 -4.75 l
o
np
895.53 129.50 m
0 -4.75 l
o
np
985.38 129.50 m
0 -4.75 l
o
/Font1 findfont 8 s
536.13 112.40 (0) .5 0 t
625.98 112.40 (20) .5 0 t
715.83 112.40 (40) .5 0 t
805.68 112.40 (60) .5 0 t
895.53 112.40 (80) .5 0 t
985.38 112.40 (100) .5 0 t
np
523.01 132.89 m
0 78.95 l
o
np
523.01 132.89 m
-4.75 0 l
o
np
523.01 148.68 m
-4.75 0 l
o
np
523.01 164.47 m
-4.75 0 l
o
np
523.01 180.26 m
-4.75 0 l
o
np
523.01 196.05 m
-4.75 0 l
o
np
523.01 211.84 m
-4.75 0 l
o
511.60 132.89 (0.0) .5 90 t
511.60 164.47 (0.2) .5 90 t
511.60 196.05 (0.4) .5 90 t
np
523.01 129.50 m
475.49 0 l
0 91.49 l
-475.49 0 l
0 -91.49 l
o
/Font1 findfont 12 s
760.75 222.89 (sig4) .5 0 t
523.01 129.50 998.50 220.99 cl
0 0 0 srgb
0.75 setlinewidth
[] 0 setdash
1 setlinecap
1 setlinejoin
10.00 setmiterlimit
np
625.98 129.50 m
0 91.49 l
o
np
715.83 129.50 m
0 91.49 l
o
np
774.23 129.50 m
0 91.49 l
o
np
846.11 129.50 m
0 91.49 l
o
np
891.03 129.50 m
0 91.49 l
o
np
962.92 129.50 m
0 91.49 l
o
19.01 9.50 494.50 100.99 cl
0 0 0 srgb
0.75 setlinewidth
[] 0 setdash
1 setlinecap
1 setlinejoin
10.00 setmiterlimit
np
36.62 12.89 m
4.95 0 l
4.94 0 l
4.95 0 l
4.95 0 l
4.94 0 l
4.95 0 l
4.95 0 l
4.94 0 l
4.95 0 l
4.95 0 l
4.94 0 l
4.95 0 l
4.95 0 l
4.94 0 l
4.95 0 l
4.95 0.06 l
4.94 4.31 l
4.95 44.61 l
4.95 35.73 l
4.94 -62.11 l
4.95 -21.67 l
4.95 -0.92 l
4.95 -0.01 l
4.94 0 l
4.95 0 l
4.95 0 l
4.94 0 l
4.95 0 l
4.95 0 l
4.94 0 l
4.95 0 l
4.95 0 l
4.94 0 l
4.95 0.01 l
4.95 0.15 l
4.94 2.58 l
4.95 16.50 l
4.95 33.86 l
4.94 4.45 l
4.95 -33.05 l
4.95 -20.40 l
4.94 -3.83 l
4.95 -0.26 l
4.95 -0.01 l
4.95 0 l
4.94 0 l
4.95 0 l
4.95 0 l
4.94 0 l
4.95 0 l
4.95 0 l
4.94 0 l
4.95 0.01 l
4.95 0.12 l
4.94 1.32 l
4.95 7.28 l
4.95 19.41 l
4.94 20.54 l
4.95 -3.53 l
4.95 -22.69 l
4.94 -16.47 l
4.95 -5.13 l
4.95 -0.79 l
4.94 -0.06 l
4.95 -0.01 l
4.95 0 l
4.95 0 l
4.94 0 l
4.95 0 l
4.95 0 l
4.94 0 l
4.95 0.01 l
4.95 0.08 l
4.94 0.67 l
4.95 3.44 l
4.95 10.44 l
4.94 17.34 l
4.95 11.80 l
4.95 -6.21 l
4.94 -17.37 l
4.95 -13.39 l
4.95 -5.37 l
4.94 -1.25 l
4.95 -0.17 l
4.95 -0.02 l
4.94 0 l
4.95 0 l
4.95 0 l
4.95 0 l
o
0.00 0.00 1008.00 360.00 cl
0 0 0 srgb
0.75 setlinewidth
[] 0 setdash
1 setlinecap
1 setlinejoin
10.00 setmiterlimit
np
31.67 9.50 m
395.75 0 l
o
np
31.67 9.50 m
0 -4.75 l
o
np
130.61 9.50 m
0 -4.75 l
o
np
229.54 9.50 m
0 -4.75 l
o
np
328.48 9.50 m
0 -4.75 l
o
np
427.42 9.50 m
0 -4.75 l
o
np
19.01 12.89 m
0 80.83 l
o
np
19.01 12.89 m
-4.75 0 l
o
np
19.01 29.06 m
-4.75 0 l
o
np
19.01 45.22 m
-4.75 0 l
o
np
19.01 61.39 m
-4.75 0 l
o
np
19.01 77.55 m
-4.75 0 l
o
np
19.01 93.72 m
-4.75 0 l
o
/Font1 findfont 8 s
7.60 12.89 (0.0) .5 90 t
7.60 45.22 (0.2) .5 90 t
7.60 77.55 (0.4) .5 90 t
np
19.01 9.50 m
475.49 0 l
0 91.49 l
-475.49 0 l
0 -91.49 l
o
/Font1 findfont 12 s
256.75 102.89 (sig5) .5 0 t
19.01 9.50 494.50 100.99 cl
0 0 0 srgb
0.75 setlinewidth
[] 0 setdash
1 setlinecap
1 setlinejoin
10.00 setmiterlimit
np
125.66 9.50 m
0 91.49 l
o
np
224.60 9.50 m
0 91.49 l
o
np
318.59 9.50 m
0 91.49 l
o
np
447.20 9.50 m
0 91.49 l
o
523.01 9.50 998.50 100.99 cl
0 0 0 srgb
0.75 setlinewidth
[] 0 setdash
1 setlinecap
1 setlinejoin
10.00 setmiterlimit
np
540.62 12.89 m
4.84 0 l
4.83 0 l
4.84 0 l
4.84 0 l
4.84 0 l
4.84 0 l
4.84 0 l
4.83 0 l
4.84 0 l
4.84 0 l
4.84 0 l
4.84 0 l
4.83 0 l
4.84 0 l
4.84 0.01 l
4.84 0.35 l
4.84 7.10 l
4.83 38.68 l
4.84 38.57 l
4.84 -38.57 l
4.84 -38.68 l
4.84 -7.10 l
4.83 -0.35 l
4.84 0.02 l
4.84 0.44 l
4.84 3.42 l
4.84 13.88 l
4.84 26.44 l
4.83 15.69 l
4.84 -15.69 l
4.84 -26.44 l
4.84 -13.87 l
4.84 -3.40 l
4.83 -0.16 l
4.84 1.58 l
4.84 5.99 l
4.84 13.85 l
4.84 18.18 l
4.83 8.97 l
4.84 -8.97 l
4.84 -18.18 l
4.84 -13.83 l
4.84 -5.83 l
4.83 -0.84 l
4.84 2.50 l
4.84 7.04 l
4.84 12.27 l
4.84 13.32 l
4.84 5.97 l
4.83 -5.97 l
4.84 -13.30 l
4.84 -12.19 l
4.84 -6.69 l
4.84 -1.44 l
4.83 2.83 l
4.84 7.12 l
4.84 10.59 l
4.84 10.24 l
4.84 4.34 l
4.83 -4.33 l
4.84 -10.20 l
4.84 -10.42 l
4.84 -6.61 l
4.84 -1.76 l
4.83 2.75 l
4.84 6.68 l
4.84 9.08 l
4.84 8.18 l
4.84 3.33 l
4.84 -3.31 l
4.83 -8.09 l
4.84 -8.83 l
4.84 -6.11 l
4.84 -1.84 l
4.84 2.48 l
4.83 6.02 l
4.84 7.77 l
4.84 6.69 l
4.84 2.67 l
4.84 -2.62 l
4.83 -6.56 l
4.84 -7.47 l
4.84 -5.46 l
4.84 -1.78 l
4.84 2.15 l
4.83 5.28 l
4.84 6.65 l
4.84 5.57 l
4.84 2.19 l
4.84 -2.11 l
4.84 -5.40 l
o
0.00 0.00 1008.00 360.00 cl
0 0 0 srgb
0.75 setlinewidth
[] 0 setdash
1 setlinecap
1 setlinejoin
10.00 setmiterlimit
np
535.78 9.50 m
387.05 0 l
o
np
535.78 9.50 m
0 -4.75 l
o
np
632.54 9.50 m
0 -4.75 l
o
np
729.30 9.50 m
0 -4.75 l
o
np
826.07 9.50 m
0 -4.75 l
o
np
922.83 9.50 m
0 -4.75 l
o
np
523.01 12.89 m
0 77.06 l
o
np
523.01 12.89 m
-4.75 0 l
o
np
523.01 32.16 m
-4.75 0 l
o
np
523.01 51.42 m
-4.75 0 l
o
np
523.01 70.68 m
-4.75 0 l
o
np
523.01 89.95 m
-4.75 0 l
o
/Font1 findfont 8 s
511.60 12.89 (0.0) .5 90 t
511.60 32.16 (0.1) .5 90 t
511.60 51.42 (0.2) .5 90 t
511.60 70.68 (0.3) .5 90 t
511.60 89.95 (0.4) .5 90 t
np
523.01 9.50 m
475.49 0 l
0 91.49 l
-475.49 0 l
0 -91.49 l
o
/Font1 findfont 12 s
760.75 102.89 (sig6) .5 0 t
523.01 9.50 998.50 100.99 cl
0 0 0 srgb
0.75 setlinewidth
[] 0 setdash
1 setlinecap
1 setlinejoin
10.00 setmiterlimit
np
627.70 9.50 m
0 91.49 l
o
np
772.85 9.50 m
0 91.49 l
o
np
811.55 9.50 m
0 91.49 l
o
np
927.67 9.50 m
0 91.49 l
o
ep
%%Trailer
%%Pages: 1
%%EOF
