%!PS-Adobe-3.0 EPSF-3.0
%%DocumentNeededResources: font Helvetica
%%+ font Helvetica-Bold
%%+ font Helvetica-Oblique
%%+ font Helvetica-BoldOblique
%%+ font Symbol
%%Title: R Graphics Output
%%Creator: R Software
%%Pages: (atend)
%%BoundingBox: 0 0 504 1080
%%EndComments
%%BeginProlog
/bp  { gs sRGB gs } def
% begin .ps.prolog
/gs  { gsave } bind def
/gr  { grestore } bind def
/ep  { showpage gr gr } bind def
/m   { moveto } bind def
/l  { rlineto } bind def
/np  { newpath } bind def
/cp  { closepath } bind def
/f   { fill } bind def
/o   { stroke } bind def
/c   { newpath 0 360 arc } bind def
/r   { 4 2 roll moveto 1 copy 3 -1 roll exch 0 exch rlineto 0 rlineto -1 mul 0 exch rlineto closepath } bind def
/p1  { stroke } bind def
/p2  { gsave bg fill grestore newpath } bind def
/p3  { gsave bg fill grestore stroke } bind def
/p6  { gsave bg eofill grestore newpath } bind def
/p7  { gsave bg eofill grestore stroke } bind def
/t   { 5 -2 roll moveto gsave rotate
       1 index stringwidth pop
       mul neg 0 rmoveto show grestore } bind def
/ta  { 4 -2 roll moveto gsave rotate show } bind def
/tb  { 2 -1 roll 0 rmoveto show } bind def
/cl  { grestore gsave newpath 3 index 3 index moveto 1 index
       4 -1 roll lineto  exch 1 index lineto lineto
       closepath clip newpath } bind def
/rgb { setrgbcolor } bind def
/s   { scalefont setfont } bind def
% end   .ps.prolog
/sRGB { [ /CIEBasedABC
          << /DecodeLMN
               [ { dup 0.03928 le
                        {12.92321 div}
                        {0.055 add 1.055 div 2.4 exp }
                     ifelse
                 } bind dup dup
               ]
             /MatrixLMN [0.412457 0.212673 0.019334
                         0.357576 0.715152 0.119192
                         0.180437 0.072175 0.950301]
             /WhitePoint [0.9505 1.0 1.0890]
           >>
         ] setcolorspace } bind def
/srgb { setcolor } bind def
%%IncludeResource: font Helvetica
/Helvetica findfont
dup length dict begin
  {1 index /FID ne {def} {pop pop} ifelse} forall
  /Encoding ISOLatin1Encoding def
  currentdict
  end
/Font1 exch definefont pop
%%IncludeResource: font Helvetica-Bold
/Helvetica-Bold findfont
dup length dict begin
  {1 index /FID ne {def} {pop pop} ifelse} forall
  /Encoding ISOLatin1Encoding def
  currentdict
  end
/Font2 exch definefont pop
%%IncludeResource: font Helvetica-Oblique
/Helvetica-Oblique findfont
dup length dict begin
  {1 index /FID ne {def} {pop pop} ifelse} forall
  /Encoding ISOLatin1Encoding def
  currentdict
  end
/Font3 exch definefont pop
%%IncludeResource: font Helvetica-BoldOblique
/Helvetica-BoldOblique findfont
dup length dict begin
  {1 index /FID ne {def} {pop pop} ifelse} forall
  /Encoding ISOLatin1Encoding def
  currentdict
  end
/Font4 exch definefont pop
%%IncludeResource: font Symbol
/Symbol findfont
dup length dict begin
  {1 index /FID ne {def} {pop pop} ifelse} forall
  currentdict
  end
/Font5 exch definefont pop
%%EndProlog
%%Page: 1 1
bp
38.97 768.47 484.04 1041.03 cl
1 0 0 srgb
0.75 setlinewidth
[] 0 setdash
1 setlinecap
1 setlinejoin
10.00 setmiterlimit
np
58.69 782.04 m
7.73 8.32 l
o
np
72.17 797.87 m
9.20 14.83 l
o
np
86.52 820.69 m
8.92 13.31 l
o
np
101.23 841.51 m
7.92 8.99 l
o
np
116.63 852.12 m
5.54 -2.48 l
o
np
129.34 851.51 m
8.54 11.47 l
o
np
145.46 867.07 m
4.72 0.29 l
o
np
156.52 863.16 m
11.02 -30.92 l
o
np
171.01 832.13 m
10.46 24.36 l
o
np
185.85 864.89 m
9.20 14.83 l
o
np
198.37 888.44 m
12.59 72.92 l
o
np
213.32 970.53 m
11.11 32.16 l
o
np
229.17 1003.66 m
7.83 -8.65 l
o
np
244.43 993.64 m
5.73 2.91 l
o
np
255.68 994.13 m
11.65 -41.75 l
o
np
273.31 948.51 m
4.81 0.71 l
o
np
287.25 951.64 m
5.35 2.08 l
o
np
298.00 960.09 m
12.27 58.56 l
o
np
315.43 1025.55 m
5.84 3.14 l
o
np
328.10 1026.99 m
8.92 -13.31 l
o
np
340.78 1005.11 m
11.98 -49.72 l
o
np
355.42 955.26 m
11.11 32.16 l
o
np
372.22 994.26 m
5.94 3.37 l
o
np
384.80 1004.01 m
9.20 14.83 l
o
np
399.38 1019.10 m
8.46 -11.10 l
o
np
414.58 1001.45 m
6.48 -4.65 l
o
np
429.58 993.07 m
4.90 -1.03 l
o
np
443.89 991.21 m
4.71 0.14 l
o
np
455.50 995.73 m
9.91 19.52 l
o
55.45 778.57 1.78 c p1
69.66 793.83 1.78 c p1
83.87 816.74 1.78 c p1
98.08 837.95 1.78 c p1
112.29 854.07 1.78 c p1
126.50 847.70 1.78 c p1
140.71 866.79 1.78 c p1
154.92 867.64 1.78 c p1
169.14 827.77 1.78 c p1
183.35 860.85 1.78 c p1
197.56 883.76 1.78 c p1
211.77 966.04 1.78 c p1
225.98 1007.19 1.78 c p1
240.19 991.49 1.78 c p1
254.40 998.70 1.78 c p1
268.61 947.80 1.78 c p1
282.82 949.92 1.78 c p1
297.03 955.44 1.78 c p1
311.24 1023.30 1.78 c p1
325.45 1030.94 1.78 c p1
339.66 1009.73 1.78 c p1
353.87 950.77 1.78 c p1
368.08 991.92 1.78 c p1
382.29 999.98 1.78 c p1
396.50 1022.88 1.78 c p1
410.72 1004.22 1.78 c p1
424.93 994.04 1.78 c p1
439.14 991.07 1.78 c p1
453.35 991.49 1.78 c p1
467.56 1019.49 1.78 c p1
0.00 0.00 504.00 1080.00 cl
0 0 0 srgb
0.75 setlinewidth
[] 0 setdash
1 setlinecap
1 setlinejoin
10.00 setmiterlimit
np
55.45 768.47 m
412.11 0 l
o
np
55.45 768.47 m
0 -4.75 l
o
np
158.48 768.47 m
0 -4.75 l
o
np
261.50 768.47 m
0 -4.75 l
o
np
364.53 768.47 m
0 -4.75 l
o
np
467.56 768.47 m
0 -4.75 l
o
/Font1 findfont 8 s
55.45 751.36 (3.0) .5 0 t
158.48 751.36 (3.5) .5 0 t
261.50 751.36 (4.0) .5 0 t
364.53 751.36 (4.5) .5 0 t
467.56 751.36 (5.0) .5 0 t
np
38.97 802.32 m
0 212.08 l
o
np
38.97 802.32 m
-4.76 0 l
o
np
38.97 844.73 m
-4.76 0 l
o
np
38.97 887.15 m
-4.76 0 l
o
np
38.97 929.57 m
-4.76 0 l
o
np
38.97 971.98 m
-4.76 0 l
o
np
38.97 1014.40 m
-4.76 0 l
o
27.56 802.32 (4) .5 90 t
27.56 844.73 (5) .5 90 t
27.56 887.15 (6) .5 90 t
27.56 929.57 (7) .5 90 t
27.56 971.98 (8) .5 90 t
27.56 1014.40 (9) .5 90 t
np
38.97 768.47 m
445.07 0 l
0 272.56 l
-445.07 0 l
0 -272.56 l
o
0.00 720.00 504.00 1080.00 cl
/Font1 findfont 8 s
0 0 0 srgb
261.50 732.36 (xx) .5 0 t
8.55 879.18 (A) 90 ta
-0.320 (v) tb
-0.200 (er) tb
-0.080 (age dela) tb
-0.240 (y) tb gr
38.97 768.47 484.04 1041.03 cl
0 0 0 srgb
0.75 setlinewidth
[] 0 setdash
1 setlinecap
1 setlinejoin
10.00 setmiterlimit
np
55.45 832.43 m
14.21 -19.93 l
14.21 -16.54 l
14.21 34.78 l
14.21 -22.91 l
14.21 -9.75 l
14.21 4.66 l
14.21 -11.03 l
14.22 13.58 l
14.21 3.39 l
14.21 13.57 l
14.21 22.91 l
14.21 4.66 l
14.21 2.97 l
14.21 19.94 l
14.21 -14.42 l
14.21 9.75 l
14.21 -7.21 l
14.21 -5.09 l
14.21 11.45 l
14.21 1.28 l
14.21 21.63 l
14.21 19.51 l
14.21 0.85 l
14.21 34.35 l
14.22 -19.08 l
14.21 -14.85 l
14.21 8.49 l
14.21 -11.46 l
14.21 33.51 l
o
np
69.66 768.47 m
0 272.56 l
o
38.02 369.50 475.49 710.50 cl
/bg { 1 0.7529 0.7961 srgb } def
np
 74.47 413.71 m
162.03 0 l
0 47.36 l
-162.03 0 l
cp p2
0 0 0 srgb
2.25 setlinewidth
[] 0 setdash
0 setlinecap
1 setlinejoin
10.00 setmiterlimit
np
74.47 429.49 m
162.03 0 l
o
0.75 setlinewidth
[ 2.25 3.75] 0 setdash
1 setlinecap
np
155.49 397.92 m
0 15.79 l
o
np
155.49 524.21 m
0 -63.14 l
o
0.75 setlinewidth
[] 0 setdash
np
114.98 397.92 m
81.01 0 l
o
np
114.98 524.21 m
81.01 0 l
o
np
74.47 413.71 m
162.03 0 l
0 47.36 l
-162.03 0 l
0 -47.36 l
o
155.49 540.00 1.18 c p1
155.49 603.15 1.18 c p1
155.49 540.00 1.18 c p1
155.49 555.79 1.18 c p1
/bg { 0.6784 0.8471 0.9020 srgb } def
np
 277.01 413.71 m
162.02 0 l
0 63.14 l
-162.02 0 l
cp p2
2.25 setlinewidth
[] 0 setdash
0 setlinecap
np
277.01 445.28 m
162.02 0 l
o
0.75 setlinewidth
[ 2.25 3.75] 0 setdash
1 setlinecap
np
358.02 382.13 m
0 31.58 l
o
np
358.02 571.57 m
0 -94.72 l
o
0.75 setlinewidth
[] 0 setdash
np
317.51 382.13 m
81.02 0 l
o
np
317.51 571.57 m
81.02 0 l
o
np
277.01 413.71 m
162.02 0 l
0 63.14 l
-162.02 0 l
0 -63.14 l
o
358.02 697.87 1.18 c p1
0.00 0.00 504.00 1080.00 cl
0 0 0 srgb
0.75 setlinewidth
[] 0 setdash
1 setlinecap
1 setlinejoin
10.00 setmiterlimit
np
155.49 369.50 m
202.53 0 l
o
np
155.49 369.50 m
0 -4.75 l
o
np
358.02 369.50 m
0 -4.75 l
o
/Font1 findfont 8 s
155.49 352.40 (Dynamic) .5 0 t
358.02 352.40 (Static) .5 0 t
np
38.02 382.13 m
0 315.74 l
o
np
38.02 382.13 m
-4.76 0 l
o
np
38.02 461.07 m
-4.76 0 l
o
np
38.02 540.00 m
-4.76 0 l
o
np
38.02 618.93 m
-4.76 0 l
o
np
38.02 697.87 m
-4.76 0 l
o
26.61 382.13 (0) .5 90 t
26.61 461.07 (5) .5 90 t
26.61 540.00 (10) .5 90 t
26.61 618.93 (15) .5 90 t
26.61 697.87 (20) .5 90 t
0.00 360.00 504.00 720.00 cl
/Font2 findfont 10 s
0 0 0 srgb
256.75 711.66 (Sensitivity=3.06896551724138) .5 0 t
/Font1 findfont 8 s
7.60 529.78 (Dela) 90 ta
-0.240 (y) tb gr
0.00 0.00 504.00 1080.00 cl
0 0 0 srgb
0.75 setlinewidth
[] 0 setdash
1 setlinecap
1 setlinejoin
10.00 setmiterlimit
np
38.02 369.50 m
437.47 0 l
0 341.00 l
-437.47 0 l
0 -341.00 l
o
38.02 19.01 475.49 350.50 cl
/bg { 1 0.7529 0.7961 srgb } def
np
 74.47 68.49 m
162.03 0 l
0 18.60 l
-162.03 0 l
cp p2
0 0 0 srgb
2.25 setlinewidth
[] 0 setdash
0 setlinecap
1 setlinejoin
10.00 setmiterlimit
np
74.47 77.79 m
162.03 0 l
o
0.75 setlinewidth
[ 2.25 3.75] 0 setdash
1 setlinecap
np
155.49 40.59 m
0 27.90 l
o
np
155.49 114.99 m
0 -27.90 l
o
0.75 setlinewidth
[] 0 setdash
np
114.98 40.59 m
81.01 0 l
o
np
114.98 114.99 m
81.01 0 l
o
np
74.47 68.49 m
162.03 0 l
0 18.60 l
-162.03 0 l
0 -18.60 l
o
155.49 124.30 1.18 c p1
155.49 133.60 1.18 c p1
155.49 31.29 1.18 c p1
/bg { 0.6784 0.8471 0.9020 srgb } def
np
 277.01 152.20 m
162.02 0 l
0 69.76 l
-162.02 0 l
cp p2
2.25 setlinewidth
[] 0 setdash
0 setlinecap
np
277.01 180.10 m
162.02 0 l
o
0.75 setlinewidth
[ 2.25 3.75] 0 setdash
1 setlinecap
np
358.02 87.09 m
0 65.11 l
o
np
358.02 319.62 m
0 -97.66 l
o
0.75 setlinewidth
[] 0 setdash
np
317.51 87.09 m
81.02 0 l
o
np
317.51 319.62 m
81.02 0 l
o
np
277.01 152.20 m
162.02 0 l
0 69.76 l
-162.02 0 l
0 -69.76 l
o
358.02 338.22 1.18 c p1
0.00 0.00 504.00 1080.00 cl
0 0 0 srgb
0.75 setlinewidth
[] 0 setdash
1 setlinecap
1 setlinejoin
10.00 setmiterlimit
np
155.49 19.01 m
202.53 0 l
o
np
155.49 19.01 m
0 -4.75 l
o
np
358.02 19.01 m
0 -4.75 l
o
/Font1 findfont 8 s
155.49 1.90 (Dynamic) .5 0 t
358.02 1.90 (Static) .5 0 t
np
38.02 21.98 m
0 325.54 l
o
np
38.02 21.98 m
-4.76 0 l
o
np
38.02 68.49 m
-4.76 0 l
o
np
38.02 114.99 m
-4.76 0 l
o
np
38.02 161.50 m
-4.76 0 l
o
np
38.02 208.00 m
-4.76 0 l
o
np
38.02 254.51 m
-4.76 0 l
o
np
38.02 301.01 m
-4.76 0 l
o
np
38.02 347.52 m
-4.76 0 l
o
26.61 21.98 (0) .5 90 t
26.61 68.49 (5) .5 90 t
26.61 114.99 (10) .5 90 t
26.61 161.50 (15) .5 90 t
26.61 208.00 (20) .5 90 t
26.61 254.51 (25) .5 90 t
26.61 301.01 (30) .5 90 t
26.61 347.52 (35) .5 90 t
0.00 0.00 504.00 360.00 cl
/Font1 findfont 8 s
0 0 0 srgb
7.60 170.08 (Num F) 90 ta
-0.640 (A) tb gr
0.00 0.00 504.00 1080.00 cl
0 0 0 srgb
0.75 setlinewidth
[] 0 setdash
1 setlinecap
1 setlinejoin
10.00 setmiterlimit
np
38.02 19.01 m
437.47 0 l
0 331.49 l
-437.47 0 l
0 -331.49 l
o
ep
%%Trailer
%%Pages: 1
%%EOF
