"delays","faRate","sensitivity","numOfCdes","chpsLength","loss_v"
94.78571428571429,0.16003249390739235,100,211,14.0,236.88847626784263
97.92857142857143,0.1364744110479285,110,182,14.0,210.35015086457003
100.78571428571429,0.11697806661251016,120,158,14.0,188.55648717651155
104.0,0.09991876523151909,130,137,14.0,169.85418359057678
105.42857142857143,0.0926076360682372,140,128,14.0,161.87884414529418
108.28571428571429,0.08123476848090982,150,114,14.0,149.7851920622026
182.0,0.07229894394800974,160,102,14.0,172.4569455727051
186.28571428571428,0.06580016246953696,170,94,14.0,167.04694209121504
254.5,0.059301380991064176,180,85,14.0,190.73354995938263
257.7857142857143,0.054427294882209584,190,79,14.0,186.90478124637343
260.85714285714283,0.050365556458164096,200,74,14.0,183.88464662875708
262.5,0.047116165718927704,210,70,14.0,181.08956133225018
262.5,0.045491470349309504,220,68,14.0,179.3019902518278
262.57142857142856,0.04224207961007311,230,64,14.0,175.76105373099688
262.57142857142856,0.04224207961007311,240,64,14.0,175.76105373099688
262.7142857142857,0.03899268887083672,250,60,14.0,172.25467099918768
321.14285714285717,0.036555645816409424,260,56,14.0,196.71991412324476
378.7142857142857,0.03249390739236393,270,50,14.0,219.2204363467564
