"delays","faRate","sensitivity","numOfCdes","chpsLength","loss_v"
40.0,0.011111111111111112,100,2,4.0,21.783333333333335
40.0,0.011111111111111112,110,2,4.0,21.783333333333335
40.0,0.011111111111111112,120,2,4.0,21.783333333333335
40.0,0.011111111111111112,130,2,4.0,21.783333333333335
40.0,0.011111111111111112,140,2,4.0,21.783333333333335
40.0,0.011111111111111112,150,2,4.0,21.783333333333335
40.0,0.011111111111111112,160,2,4.0,21.783333333333335
40.0,0.011111111111111112,170,2,4.0,21.783333333333335
40.0,0.011111111111111112,180,2,4.0,21.783333333333335
40.0,0.011111111111111112,190,2,4.0,21.783333333333335
40.0,0.011111111111111112,200,2,4.0,21.783333333333335
40.0,0.011111111111111112,210,2,4.0,21.783333333333335
40.0,0.011111111111111112,220,2,4.0,21.783333333333335
40.0,0.011111111111111112,230,2,4.0,21.783333333333335
40.0,0.011111111111111112,240,2,4.0,21.783333333333335
40.0,0.011111111111111112,250,2,4.0,21.783333333333335
40.0,0.011111111111111112,260,2,4.0,21.783333333333335
40.0,0.011111111111111112,270,2,4.0,21.783333333333335
