%!PS-Adobe-3.0 EPSF-3.0
%%DocumentNeededResources: font Helvetica
%%+ font Helvetica-Bold
%%+ font Helvetica-Oblique
%%+ font Helvetica-BoldOblique
%%+ font Symbol
%%Title: R Graphics Output
%%Creator: R Software
%%Pages: (atend)
%%BoundingBox: 0 0 432 504
%%EndComments
%%BeginProlog
/bp  { gs sRGB gs } def
% begin .ps.prolog
/gs  { gsave } bind def
/gr  { grestore } bind def
/ep  { showpage gr gr } bind def
/m   { moveto } bind def
/l  { rlineto } bind def
/np  { newpath } bind def
/cp  { closepath } bind def
/f   { fill } bind def
/o   { stroke } bind def
/c   { newpath 0 360 arc } bind def
/r   { 4 2 roll moveto 1 copy 3 -1 roll exch 0 exch rlineto 0 rlineto -1 mul 0 exch rlineto closepath } bind def
/p1  { stroke } bind def
/p2  { gsave bg fill grestore newpath } bind def
/p3  { gsave bg fill grestore stroke } bind def
/p6  { gsave bg eofill grestore newpath } bind def
/p7  { gsave bg eofill grestore stroke } bind def
/t   { 5 -2 roll moveto gsave rotate
       1 index stringwidth pop
       mul neg 0 rmoveto show grestore } bind def
/ta  { 4 -2 roll moveto gsave rotate show } bind def
/tb  { 2 -1 roll 0 rmoveto show } bind def
/cl  { grestore gsave newpath 3 index 3 index moveto 1 index
       4 -1 roll lineto  exch 1 index lineto lineto
       closepath clip newpath } bind def
/rgb { setrgbcolor } bind def
/s   { scalefont setfont } bind def
% end   .ps.prolog
/sRGB { [ /CIEBasedABC
          << /DecodeLMN
               [ { dup 0.03928 le
                        {12.92321 div}
                        {0.055 add 1.055 div 2.4 exp }
                     ifelse
                 } bind dup dup
               ]
             /MatrixLMN [0.412457 0.212673 0.019334
                         0.357576 0.715152 0.119192
                         0.180437 0.072175 0.950301]
             /WhitePoint [0.9505 1.0 1.0890]
           >>
         ] setcolorspace } bind def
/srgb { setcolor } bind def
% begin encoding
/WinAnsiEncoding [
 /.notdef /.notdef /.notdef /.notdef /.notdef /.notdef /.notdef /.notdef
 /.notdef /.notdef /.notdef /.notdef /.notdef /.notdef /.notdef /.notdef
 /.notdef /.notdef /.notdef /.notdef /.notdef /.notdef /.notdef /.notdef
 /.notdef /.notdef /.notdef /.notdef /.notdef /.notdef /.notdef /.notdef
 /space /exclam /quotedbl /numbersign /dollar /percent /ampersand /quoteright
 /parenleft /parenright /asterisk /plus /comma /minus /period /slash
 /zero /one /two /three /four /five /six /seven
 /eight /nine /colon /semicolon /less /equal /greater /question
 /at /A /B /C /D /E /F /G
 /H /I /J /K /L /M /N /O
 /P /Q /R /S /T /U /V /W
 /X /Y /Z /bracketleft /backslash /bracketright /asciicircum /underscore
 /grave /a /b /c /d /e /f /g
 /h /i /j /k /l /m /n /o
 /p /q /r /s /t /u /v /w
 /x /y /z /braceleft /bar /braceright /asciitilde /.notdef
 /Euro /.notdef /quotesinglbase /florin /quotedblbase /ellipsis /dagger /daggerdbl
 /circumflex /perthousand /Scaron /guilsinglleft /OE /.notdef /Zcaron /.notdef
 /.notdef /quoteleft /quoteright /quotedblleft /quotedblright /bullet /endash /emdash
 /tilde /trademark /scaron /guilsinglright /oe /.notdef /zcaron /Ydieresis
 /space /exclamdown /cent /sterling /currency /yen /brokenbar /section
 /dieresis /copyright /ordfeminine /guillemotleft /logicalnot /hyphen /registered /macron
 /degree /plusminus /twosuperior /threesuperior /acute /mu /paragraph /periodcentered
 /cedilla /onesuperior /ordmasculine /guillemotright /onequarter /onehalf /threequarters /questiondown
 /Agrave /Aacute /Acircumflex /Atilde /Adieresis /Aring /AE /Ccedilla
 /Egrave /Eacute /Ecircumflex /Edieresis /Igrave /Iacute /Icircumflex /Idieresis
 /Eth /Ntilde /Ograve /Oacute /Ocircumflex /Otilde /Odieresis /multiply
 /Oslash /Ugrave /Uacute /Ucircumflex /Udieresis /Yacute /Thorn /germandbls
 /agrave /aacute /acircumflex /atilde /adieresis /aring /ae /ccedilla
 /egrave /eacute /ecircumflex /edieresis /igrave /iacute /icircumflex /idieresis
 /eth /ntilde /ograve /oacute /ocircumflex /otilde /odieresis /divide
 /oslash /ugrave /uacute /ucircumflex /udieresis /yacute /thorn /ydieresis
]
 def
% end encoding
%%IncludeResource: font Helvetica
/Helvetica findfont
dup length dict begin
  {1 index /FID ne {def} {pop pop} ifelse} forall
  /Encoding WinAnsiEncoding def
  currentdict
  end
/Font1 exch definefont pop
%%IncludeResource: font Helvetica-Bold
/Helvetica-Bold findfont
dup length dict begin
  {1 index /FID ne {def} {pop pop} ifelse} forall
  /Encoding WinAnsiEncoding def
  currentdict
  end
/Font2 exch definefont pop
%%IncludeResource: font Helvetica-Oblique
/Helvetica-Oblique findfont
dup length dict begin
  {1 index /FID ne {def} {pop pop} ifelse} forall
  /Encoding WinAnsiEncoding def
  currentdict
  end
/Font3 exch definefont pop
%%IncludeResource: font Helvetica-BoldOblique
/Helvetica-BoldOblique findfont
dup length dict begin
  {1 index /FID ne {def} {pop pop} ifelse} forall
  /Encoding WinAnsiEncoding def
  currentdict
  end
/Font4 exch definefont pop
%%IncludeResource: font Symbol
/Symbol findfont
dup length dict begin
  {1 index /FID ne {def} {pop pop} ifelse} forall
  currentdict
  end
/Font5 exch definefont pop
%%EndProlog
%%Page: 1 1
bp
9.50 345.50 206.50 484.99 cl
0 0 0 srgb
0.75 setlinewidth
[] 0 setdash
1 setlinecap
1 setlinejoin
10.00 setmiterlimit
np
16.80 350.67 m
0.36 0.03 l
0.35 0.04 l
0.36 0.03 l
0.36 0.04 l
0.35 0.04 l
0.36 0.05 l
0.36 0.04 l
0.36 0.05 l
0.35 0.05 l
0.36 0.05 l
0.36 0.05 l
0.35 0.06 l
0.36 0.06 l
0.36 0.06 l
0.35 0.07 l
0.36 0.07 l
0.36 0.07 l
0.36 0.08 l
0.35 0.08 l
0.36 0.08 l
0.36 0.09 l
0.35 0.09 l
0.36 0.09 l
0.36 0.10 l
0.35 0.10 l
0.36 0.11 l
0.36 0.11 l
0.35 0.12 l
0.36 0.12 l
0.36 0.13 l
0.36 0.13 l
0.35 0.14 l
0.36 0.15 l
0.36 0.14 l
0.35 0.16 l
0.36 0.16 l
0.36 0.17 l
0.35 0.17 l
0.36 0.18 l
0.36 0.19 l
0.35 0.20 l
0.36 0.20 l
0.36 0.21 l
0.36 0.22 l
0.35 0.22 l
0.36 0.23 l
0.36 0.25 l
0.35 0.24 l
0.36 0.27 l
0.36 0.26 l
0.35 0.28 l
0.36 0.28 l
0.36 0.30 l
0.36 0.30 l
0.35 0.31 l
0.36 0.32 l
0.36 0.33 l
0.35 0.35 l
0.36 0.35 l
0.36 0.37 l
0.35 0.37 l
0.36 0.38 l
0.36 0.40 l
0.35 0.41 l
0.36 0.41 l
0.36 0.43 l
0.36 0.44 l
0.35 0.45 l
0.36 0.47 l
0.36 0.47 l
0.35 0.49 l
0.36 0.49 l
0.36 0.52 l
0.35 0.52 l
0.36 0.53 l
0.36 0.55 l
0.35 0.55 l
0.36 0.58 l
0.36 0.57 l
0.36 0.60 l
0.35 0.60 l
0.36 0.63 l
0.36 0.62 l
0.35 0.65 l
0.36 0.65 l
0.36 0.67 l
0.35 0.67 l
0.36 0.69 l
0.36 0.70 l
0.36 0.71 l
0.35 0.73 l
0.36 0.73 l
0.36 0.75 l
0.35 0.75 l
0.36 0.76 l
0.36 0.78 l
0.35 0.78 l
0.36 0.80 l
0.36 0.80 l
52.49 383.83 lineto
0.36 0.82 l
0.36 0.83 l
0.36 0.83 l
0.35 0.85 l
0.36 0.86 l
0.36 0.86 l
0.35 0.86 l
0.36 0.88 l
0.36 0.88 l
0.35 0.88 l
0.36 0.89 l
0.36 0.89 l
0.36 0.90 l
0.35 0.91 l
0.36 0.90 l
0.36 0.91 l
0.35 0.91 l
0.36 0.91 l
0.36 0.91 l
0.35 0.92 l
0.36 0.91 l
0.36 0.91 l
0.35 0.92 l
0.36 0.91 l
0.36 0.91 l
0.36 0.90 l
0.35 0.90 l
0.36 0.90 l
0.36 0.90 l
0.35 0.89 l
0.36 0.88 l
0.36 0.88 l
0.35 0.87 l
0.36 0.87 l
0.36 0.86 l
0.35 0.85 l
0.36 0.84 l
0.36 0.83 l
0.36 0.82 l
0.35 0.81 l
0.36 0.81 l
0.36 0.79 l
0.35 0.78 l
0.36 0.76 l
0.36 0.76 l
0.35 0.74 l
0.36 0.73 l
0.36 0.72 l
0.36 0.70 l
0.35 0.69 l
0.36 0.67 l
0.36 0.66 l
0.35 0.64 l
0.36 0.63 l
0.36 0.60 l
0.35 0.60 l
0.36 0.57 l
0.36 0.57 l
0.35 0.54 l
0.36 0.53 l
0.36 0.51 l
0.36 0.49 l
0.35 0.48 l
0.36 0.46 l
0.36 0.45 l
0.35 0.42 l
0.36 0.41 l
0.36 0.38 l
0.35 0.38 l
0.36 0.35 l
0.36 0.34 l
0.35 0.33 l
0.36 0.30 l
0.36 0.29 l
0.36 0.27 l
0.35 0.26 l
0.36 0.24 l
0.36 0.23 l
0.35 0.20 l
0.36 0.20 l
0.36 0.18 l
0.35 0.16 l
0.36 0.15 l
0.36 0.14 l
0.36 0.13 l
0.35 0.10 l
0.36 0.11 l
0.36 0.08 l
0.35 0.08 l
0.36 0.06 l
0.36 0.06 l
0.35 0.04 l
0.36 0.04 l
0.36 0.02 l
0.35 0.02 l
0.36 0.01 l
0.36 0 l
0.36 0 l
0.35 -0.01 l
88.19 440.83 lineto
0.36 -0.03 l
0.35 -0.02 l
0.36 -0.03 l
0.36 -0.03 l
0.35 -0.03 l
0.36 -0.04 l
0.36 -0.04 l
0.36 -0.03 l
0.35 -0.04 l
0.36 -0.04 l
0.36 -0.04 l
0.35 -0.03 l
0.36 -0.03 l
0.36 -0.03 l
0.35 -0.03 l
0.36 -0.02 l
0.36 -0.02 l
0.35 -0.01 l
0.36 -0.01 l
0.36 0 l
0.36 0 l
0.35 0.01 l
0.36 0.02 l
0.36 0.03 l
0.35 0.04 l
0.36 0.04 l
0.36 0.05 l
0.35 0.07 l
0.36 0.07 l
0.36 0.08 l
0.35 0.09 l
0.36 0.11 l
0.36 0.12 l
0.36 0.13 l
0.35 0.14 l
0.36 0.15 l
0.36 0.16 l
0.35 0.18 l
0.36 0.19 l
0.36 0.20 l
0.35 0.22 l
0.36 0.22 l
0.36 0.25 l
0.36 0.25 l
0.35 0.27 l
0.36 0.28 l
0.36 0.30 l
0.35 0.31 l
0.36 0.32 l
0.36 0.34 l
0.35 0.34 l
0.36 0.37 l
0.36 0.37 l
0.35 0.40 l
0.36 0.40 l
0.36 0.41 l
0.36 0.43 l
0.35 0.44 l
0.36 0.45 l
0.36 0.46 l
0.35 0.48 l
0.36 0.49 l
0.36 0.50 l
0.35 0.50 l
0.36 0.53 l
0.36 0.52 l
0.35 0.54 l
0.36 0.55 l
0.36 0.55 l
0.36 0.57 l
0.35 0.57 l
0.36 0.58 l
0.36 0.59 l
0.35 0.59 l
0.36 0.60 l
0.36 0.60 l
0.35 0.61 l
0.36 0.61 l
0.36 0.62 l
0.36 0.62 l
0.35 0.62 l
0.36 0.62 l
0.36 0.62 l
0.35 0.63 l
0.36 0.62 l
0.36 0.62 l
0.35 0.62 l
0.36 0.62 l
0.36 0.62 l
0.35 0.61 l
0.36 0.61 l
0.36 0.60 l
0.36 0.59 l
0.35 0.59 l
0.36 0.58 l
0.36 0.58 l
0.35 0.56 l
0.36 0.56 l
0.36 0.54 l
123.88 472.15 lineto
0.36 0.52 l
0.36 0.52 l
0.35 0.49 l
0.36 0.48 l
0.36 0.46 l
0.36 0.46 l
0.35 0.43 l
0.36 0.42 l
0.36 0.40 l
0.35 0.38 l
0.36 0.36 l
0.36 0.34 l
0.35 0.33 l
0.36 0.30 l
0.36 0.29 l
0.36 0.25 l
0.35 0.24 l
0.36 0.20 l
0.36 0.19 l
0.35 0.17 l
0.36 0.13 l
0.36 0.12 l
0.35 0.08 l
0.36 0.08 l
0.36 0.02 l
0.35 0.02 l
0.36 -0.03 l
0.36 -0.05 l
0.36 -0.08 l
0.35 -0.10 l
0.36 -0.13 l
0.36 -0.17 l
0.35 -0.18 l
0.36 -0.23 l
0.36 -0.24 l
0.35 -0.29 l
0.36 -0.31 l
0.36 -0.34 l
0.36 -0.37 l
0.35 -0.40 l
0.36 -0.44 l
0.36 -0.45 l
0.35 -0.50 l
0.36 -0.51 l
0.36 -0.56 l
0.35 -0.57 l
0.36 -0.61 l
0.36 -0.63 l
0.35 -0.68 l
0.36 -0.69 l
0.36 -0.72 l
0.36 -0.75 l
0.35 -0.78 l
0.36 -0.81 l
0.36 -0.82 l
0.35 -0.86 l
0.36 -0.88 l
0.36 -0.92 l
0.35 -0.92 l
0.36 -0.96 l
0.36 -0.98 l
0.35 -1.00 l
0.36 -1.03 l
0.36 -1.04 l
0.36 -1.08 l
0.35 -1.08 l
0.36 -1.11 l
0.36 -1.12 l
0.35 -1.15 l
0.36 -1.16 l
0.36 -1.18 l
0.35 -1.19 l
0.36 -1.21 l
0.36 -1.23 l
0.36 -1.23 l
0.35 -1.25 l
0.36 -1.26 l
0.36 -1.28 l
0.35 -1.28 l
0.36 -1.29 l
0.36 -1.30 l
0.35 -1.31 l
0.36 -1.31 l
0.36 -1.32 l
0.35 -1.33 l
0.36 -1.33 l
0.36 -1.33 l
0.36 -1.34 l
0.35 -1.34 l
0.36 -1.34 l
0.36 -1.34 l
0.35 -1.34 l
0.36 -1.34 l
0.36 -1.33 l
0.35 -1.34 l
0.36 -1.33 l
0.36 -1.33 l
0.35 -1.32 l
0.36 -1.31 l
159.58 413.16 lineto
0.36 -1.30 l
0.35 -1.30 l
0.36 -1.29 l
0.36 -1.27 l
0.35 -1.27 l
0.36 -1.26 l
0.36 -1.25 l
0.35 -1.24 l
0.36 -1.22 l
0.36 -1.22 l
0.36 -1.19 l
0.35 -1.19 l
0.36 -1.18 l
0.36 -1.16 l
0.35 -1.15 l
0.36 -1.13 l
0.36 -1.12 l
0.35 -1.09 l
0.36 -1.10 l
0.36 -1.06 l
0.35 -1.06 l
0.36 -1.03 l
0.36 -1.03 l
0.36 -1.00 l
0.35 -0.99 l
0.36 -0.97 l
0.36 -0.95 l
0.35 -0.94 l
0.36 -0.92 l
0.36 -0.91 l
0.35 -0.87 l
0.36 -0.88 l
0.36 -0.84 l
0.36 -0.84 l
0.35 -0.81 l
0.36 -0.79 l
0.36 -0.78 l
0.35 -0.76 l
0.36 -0.75 l
0.36 -0.72 l
0.35 -0.72 l
0.36 -0.69 l
0.36 -0.68 l
0.35 -0.65 l
0.36 -0.65 l
0.36 -0.62 l
0.36 -0.61 l
0.35 -0.59 l
0.36 -0.58 l
0.36 -0.56 l
0.35 -0.54 l
0.36 -0.54 l
0.36 -0.51 l
0.35 -0.50 l
0.36 -0.49 l
0.36 -0.47 l
0.35 -0.45 l
0.36 -0.45 l
0.36 -0.43 l
0.36 -0.41 l
0.35 -0.41 l
0.36 -0.38 l
0.36 -0.39 l
0.35 -0.36 l
0.36 -0.35 l
0.36 -0.34 l
0.35 -0.33 l
0.36 -0.32 l
0.36 -0.30 l
0.36 -0.30 l
0.35 -0.28 l
0.36 -0.28 l
0.36 -0.26 l
0.35 -0.26 l
0.36 -0.24 l
0.36 -0.24 l
0.35 -0.23 l
0.36 -0.22 l
0.36 -0.21 l
0.35 -0.20 l
0.36 -0.19 l
0.36 -0.19 l
0.36 -0.18 l
0.35 -0.17 l
0.36 -0.17 l
0.36 -0.15 l
0.35 -0.15 l
0.36 -0.15 l
0.36 -0.14 l
0.35 -0.13 l
0.36 -0.13 l
0.36 -0.12 l
0.35 -0.12 l
0.36 -0.11 l
0.36 -0.10 l
0.36 -0.10 l
0.35 -0.10 l
0.36 -0.09 l
0.36 -0.09 l
195.27 351.62 lineto
0.36 -0.08 l
0.36 -0.07 l
0.35 -0.07 l
0.36 -0.07 l
0.36 -0.07 l
0.36 -0.06 l
0.35 -0.06 l
0.36 -0.06 l
0.36 -0.05 l
0.35 -0.05 l
0.36 -0.05 l
o
0.00 0.00 432.00 504.00 cl
0 0 0 srgb
0.75 setlinewidth
[] 0 setdash
1 setlinecap
1 setlinejoin
10.00 setmiterlimit
np
9.50 345.50 m
197.00 0 l
0 139.49 l
-197.00 0 l
0 -139.49 l
o
9.50 345.50 206.50 484.99 cl
0.7451 0.7451 0.7451 srgb
0.08 setlinewidth
[] 0 setdash
1 setlinecap
1 setlinejoin
10.00 setmiterlimit
np
9.50 350.12 m
197.00 0 l
o
0.75 setlinewidth
[ 2.25 3.75] 0 setdash
np
8.31 345.50 m
0 139.49 l
o
np
18.48 345.50 m
0 139.49 l
o
np
28.65 345.50 m
0 139.49 l
o
np
38.83 345.50 m
0 139.49 l
o
np
49.00 345.50 m
0 139.49 l
o
np
59.17 345.50 m
0 139.49 l
o
np
69.34 345.50 m
0 139.49 l
o
np
79.52 345.50 m
0 139.49 l
o
np
89.69 345.50 m
0 139.49 l
o
np
99.86 345.50 m
0 139.49 l
o
np
110.03 345.50 m
0 139.49 l
o
np
120.21 345.50 m
0 139.49 l
o
np
130.38 345.50 m
0 139.49 l
o
np
140.55 345.50 m
0 139.49 l
o
np
150.72 345.50 m
0 139.49 l
o
np
160.90 345.50 m
0 139.49 l
o
np
171.07 345.50 m
0 139.49 l
o
np
181.24 345.50 m
0 139.49 l
o
np
191.41 345.50 m
0 139.49 l
o
np
201.59 345.50 m
0 139.49 l
o
np
211.76 345.50 m
0 139.49 l
o
np
221.93 345.50 m
0 139.49 l
o
np
232.10 345.50 m
0 139.49 l
o
np
242.28 345.50 m
0 139.49 l
o
np
252.45 345.50 m
0 139.49 l
o
np
262.62 345.50 m
0 139.49 l
o
np
272.79 345.50 m
0 139.49 l
o
np
282.97 345.50 m
0 139.49 l
o
np
293.14 345.50 m
0 139.49 l
o
np
303.31 345.50 m
0 139.49 l
o
np
313.48 345.50 m
0 139.49 l
o
np
323.66 345.50 m
0 139.49 l
o
np
333.83 345.50 m
0 139.49 l
o
0.00 0.00 432.00 504.00 cl
/Font1 findfont 12 s
0 0 0 srgb
108.00 491.64 (Sig.1) .5 0 t
0.75 setlinewidth
[] 0 setdash
1 setlinecap
1 setlinejoin
10.00 setmiterlimit
np
28.65 345.50 m
162.76 0 l
o
np
28.65 345.50 m
0 4.19 l
o
np
69.34 345.50 m
0 4.19 l
o
np
110.03 345.50 m
0 4.19 l
o
np
150.72 345.50 m
0 4.19 l
o
np
191.41 345.50 m
0 4.19 l
o
/Font1 findfont 7 s
28.65 336.95 (0) .5 0 t
69.34 336.95 (20) .5 0 t
110.03 336.95 (40) .5 0 t
150.72 336.95 (60) .5 0 t
191.41 336.95 (80) .5 0 t
np
9.50 350.12 m
0 109.61 l
o
np
9.50 350.12 m
4.19 0 l
o
np
9.50 377.52 m
4.19 0 l
o
np
9.50 404.93 m
4.19 0 l
o
np
9.50 432.33 m
4.19 0 l
o
np
9.50 459.73 m
4.19 0 l
o
6.65 350.12 (0.000) .5 90 t
6.65 377.52 (0.005) .5 90 t
6.65 404.93 (0.010) .5 90 t
6.65 432.33 (0.015) .5 90 t
6.65 459.73 (0.020) .5 90 t
225.50 345.50 422.50 484.99 cl
225.50 345.50 422.50 484.99 cl
0 0 0 srgb
0.75 setlinewidth
[] 0 setdash
1 setlinecap
1 setlinejoin
10.00 setmiterlimit
np
232.80 350.72 m
0.36 0.03 l
0.35 0.04 l
0.36 0.04 l
0.36 0.04 l
0.35 0.04 l
0.36 0.05 l
0.36 0.05 l
0.36 0.05 l
0.35 0.06 l
0.36 0.06 l
0.36 0.06 l
0.35 0.06 l
0.36 0.07 l
0.36 0.07 l
0.35 0.08 l
0.36 0.08 l
0.36 0.09 l
0.36 0.09 l
0.35 0.09 l
0.36 0.10 l
0.36 0.11 l
0.35 0.11 l
0.36 0.11 l
0.36 0.13 l
0.35 0.12 l
0.36 0.14 l
0.36 0.14 l
0.35 0.15 l
0.36 0.16 l
0.36 0.16 l
0.36 0.17 l
0.35 0.18 l
0.36 0.18 l
0.36 0.20 l
0.35 0.20 l
0.36 0.22 l
0.36 0.22 l
0.35 0.24 l
0.36 0.24 l
0.36 0.26 l
0.35 0.27 l
0.36 0.27 l
0.36 0.29 l
0.36 0.30 l
0.35 0.32 l
0.36 0.32 l
0.36 0.34 l
0.35 0.36 l
0.36 0.36 l
0.36 0.39 l
0.35 0.39 l
0.36 0.41 l
0.36 0.43 l
0.36 0.44 l
0.35 0.46 l
0.36 0.47 l
0.36 0.50 l
0.35 0.50 l
0.36 0.54 l
0.36 0.54 l
0.35 0.56 l
0.36 0.58 l
0.36 0.60 l
0.35 0.63 l
0.36 0.63 l
0.36 0.67 l
0.36 0.67 l
0.35 0.71 l
0.36 0.72 l
0.36 0.74 l
0.35 0.76 l
0.36 0.79 l
0.36 0.81 l
0.35 0.82 l
0.36 0.86 l
0.36 0.86 l
0.35 0.90 l
0.36 0.92 l
0.36 0.94 l
0.36 0.96 l
0.35 0.98 l
0.36 1.01 l
0.36 1.03 l
0.35 1.06 l
0.36 1.07 l
0.36 1.10 l
0.35 1.12 l
0.36 1.13 l
0.36 1.17 l
0.36 1.18 l
0.35 1.21 l
0.36 1.23 l
0.36 1.25 l
0.35 1.26 l
0.36 1.29 l
0.36 1.31 l
0.35 1.32 l
0.36 1.35 l
0.36 1.36 l
268.49 402.25 lineto
0.36 1.40 l
0.36 1.41 l
0.36 1.43 l
0.35 1.44 l
0.36 1.46 l
0.36 1.47 l
0.35 1.48 l
0.36 1.49 l
0.36 1.51 l
0.35 1.51 l
0.36 1.52 l
0.36 1.53 l
0.36 1.54 l
0.35 1.54 l
0.36 1.55 l
0.36 1.54 l
0.35 1.56 l
0.36 1.55 l
0.36 1.55 l
0.35 1.55 l
0.36 1.55 l
0.36 1.54 l
0.35 1.54 l
0.36 1.53 l
0.36 1.52 l
0.36 1.51 l
0.35 1.51 l
0.36 1.49 l
0.36 1.48 l
0.35 1.46 l
0.36 1.44 l
0.36 1.43 l
0.35 1.41 l
0.36 1.39 l
0.36 1.37 l
0.35 1.35 l
0.36 1.31 l
0.36 1.30 l
0.36 1.27 l
0.35 1.24 l
0.36 1.21 l
0.36 1.17 l
0.35 1.16 l
0.36 1.10 l
0.36 1.09 l
0.35 1.04 l
0.36 1.01 l
0.36 0.97 l
0.36 0.92 l
0.35 0.90 l
0.36 0.84 l
0.36 0.82 l
0.35 0.75 l
0.36 0.73 l
0.36 0.67 l
0.35 0.63 l
0.36 0.60 l
0.36 0.53 l
0.35 0.51 l
0.36 0.43 l
0.36 0.40 l
0.36 0.35 l
0.35 0.30 l
0.36 0.25 l
0.36 0.20 l
0.35 0.17 l
0.36 0.09 l
0.36 0.07 l
0.35 -0.01 l
0.36 -0.04 l
0.36 -0.09 l
0.35 -0.15 l
0.36 -0.18 l
0.36 -0.25 l
0.36 -0.27 l
0.35 -0.35 l
0.36 -0.38 l
0.36 -0.43 l
0.35 -0.47 l
0.36 -0.51 l
0.36 -0.57 l
0.35 -0.60 l
0.36 -0.66 l
0.36 -0.68 l
0.36 -0.74 l
0.35 -0.77 l
0.36 -0.80 l
0.36 -0.85 l
0.35 -0.88 l
0.36 -0.92 l
0.36 -0.95 l
0.35 -0.99 l
0.36 -1.01 l
0.36 -1.04 l
0.35 -1.08 l
0.36 -1.09 l
0.36 -1.13 l
0.36 -1.14 l
0.35 -1.18 l
304.19 458.43 lineto
0.36 -1.21 l
0.35 -1.23 l
0.36 -1.25 l
0.36 -1.26 l
0.35 -1.27 l
0.36 -1.28 l
0.36 -1.29 l
0.36 -1.31 l
0.35 -1.30 l
0.36 -1.31 l
0.36 -1.32 l
0.35 -1.31 l
0.36 -1.32 l
0.36 -1.31 l
0.35 -1.31 l
0.36 -1.30 l
0.36 -1.30 l
0.35 -1.29 l
0.36 -1.28 l
0.36 -1.27 l
0.36 -1.26 l
0.35 -1.23 l
0.36 -1.23 l
0.36 -1.20 l
0.35 -1.19 l
0.36 -1.17 l
0.36 -1.15 l
0.35 -1.13 l
0.36 -1.09 l
0.36 -1.08 l
0.35 -1.05 l
0.36 -1.02 l
0.36 -0.99 l
0.36 -0.96 l
0.35 -0.94 l
0.36 -0.90 l
0.36 -0.88 l
0.35 -0.82 l
0.36 -0.80 l
0.36 -0.77 l
0.35 -0.73 l
0.36 -0.69 l
0.36 -0.65 l
0.36 -0.63 l
0.35 -0.57 l
0.36 -0.55 l
0.36 -0.49 l
0.35 -0.46 l
0.36 -0.43 l
0.36 -0.37 l
0.35 -0.36 l
0.36 -0.28 l
0.36 -0.27 l
0.35 -0.21 l
0.36 -0.18 l
0.36 -0.13 l
0.36 -0.09 l
0.35 -0.06 l
0.36 0 l
0.36 0.02 l
0.35 0.08 l
0.36 0.11 l
0.36 0.15 l
0.35 0.19 l
0.36 0.23 l
0.36 0.27 l
0.35 0.29 l
0.36 0.36 l
0.36 0.38 l
0.36 0.42 l
0.35 0.45 l
0.36 0.49 l
0.36 0.52 l
0.35 0.55 l
0.36 0.60 l
0.36 0.61 l
0.35 0.66 l
0.36 0.68 l
0.36 0.71 l
0.36 0.73 l
0.35 0.76 l
0.36 0.80 l
0.36 0.80 l
0.35 0.85 l
0.36 0.85 l
0.36 0.88 l
0.35 0.90 l
0.36 0.92 l
0.36 0.94 l
0.35 0.94 l
0.36 0.97 l
0.36 0.98 l
0.36 0.99 l
0.35 1.00 l
0.36 1.01 l
0.36 1.02 l
0.35 1.02 l
0.36 1.03 l
0.36 1.03 l
339.88 431.92 lineto
0.36 1.03 l
0.36 1.04 l
0.35 1.03 l
0.36 1.02 l
0.36 1.02 l
0.36 1.02 l
0.35 1.01 l
0.36 0.99 l
0.36 0.99 l
0.35 0.97 l
0.36 0.96 l
0.36 0.95 l
0.35 0.93 l
0.36 0.91 l
0.36 0.89 l
0.36 0.87 l
0.35 0.85 l
0.36 0.83 l
0.36 0.80 l
0.35 0.79 l
0.36 0.74 l
0.36 0.74 l
0.35 0.69 l
0.36 0.67 l
0.36 0.64 l
0.35 0.60 l
0.36 0.58 l
0.36 0.53 l
0.36 0.53 l
0.35 0.46 l
0.36 0.44 l
0.36 0.40 l
0.35 0.36 l
0.36 0.34 l
0.36 0.28 l
0.35 0.27 l
0.36 0.20 l
0.36 0.18 l
0.36 0.13 l
0.35 0.10 l
0.36 0.05 l
0.36 0.02 l
0.35 -0.02 l
0.36 -0.07 l
0.36 -0.10 l
0.35 -0.15 l
0.36 -0.18 l
0.36 -0.23 l
0.35 -0.27 l
0.36 -0.30 l
0.36 -0.35 l
0.36 -0.37 l
0.35 -0.43 l
0.36 -0.46 l
0.36 -0.50 l
0.35 -0.54 l
0.36 -0.57 l
0.36 -0.61 l
0.35 -0.63 l
0.36 -0.69 l
0.36 -0.71 l
0.35 -0.75 l
0.36 -0.78 l
0.36 -0.81 l
0.36 -0.85 l
0.35 -0.86 l
0.36 -0.91 l
0.36 -0.93 l
0.35 -0.96 l
0.36 -0.98 l
0.36 -1.01 l
0.35 -1.04 l
0.36 -1.05 l
0.36 -1.09 l
0.36 -1.09 l
0.35 -1.13 l
0.36 -1.14 l
0.36 -1.16 l
0.35 -1.17 l
0.36 -1.19 l
0.36 -1.21 l
0.35 -1.22 l
0.36 -1.23 l
0.36 -1.24 l
0.35 -1.26 l
0.36 -1.26 l
0.36 -1.27 l
0.36 -1.28 l
0.35 -1.28 l
0.36 -1.29 l
0.36 -1.29 l
0.35 -1.30 l
0.36 -1.29 l
0.36 -1.30 l
0.35 -1.30 l
0.36 -1.29 l
0.36 -1.29 l
0.35 -1.29 l
0.36 -1.29 l
375.58 408.23 lineto
0.36 -1.27 l
0.35 -1.27 l
0.36 -1.26 l
0.36 -1.25 l
0.35 -1.25 l
0.36 -1.23 l
0.36 -1.23 l
0.35 -1.20 l
0.36 -1.21 l
0.36 -1.18 l
0.36 -1.18 l
0.35 -1.16 l
0.36 -1.14 l
0.36 -1.14 l
0.35 -1.11 l
0.36 -1.11 l
0.36 -1.08 l
0.35 -1.07 l
0.36 -1.06 l
0.36 -1.03 l
0.35 -1.03 l
0.36 -0.99 l
0.36 -0.99 l
0.36 -0.96 l
0.35 -0.95 l
0.36 -0.93 l
0.36 -0.91 l
0.35 -0.90 l
0.36 -0.87 l
0.36 -0.86 l
0.35 -0.83 l
0.36 -0.82 l
0.36 -0.80 l
0.36 -0.78 l
0.35 -0.77 l
0.36 -0.74 l
0.36 -0.73 l
0.35 -0.70 l
0.36 -0.69 l
0.36 -0.67 l
0.35 -0.65 l
0.36 -0.64 l
0.36 -0.62 l
0.35 -0.60 l
0.36 -0.58 l
0.36 -0.57 l
0.36 -0.54 l
0.35 -0.54 l
0.36 -0.51 l
0.36 -0.50 l
0.35 -0.49 l
0.36 -0.47 l
0.36 -0.46 l
0.35 -0.43 l
0.36 -0.43 l
0.36 -0.41 l
0.35 -0.39 l
0.36 -0.39 l
0.36 -0.36 l
0.36 -0.36 l
0.35 -0.34 l
0.36 -0.34 l
0.36 -0.31 l
0.35 -0.31 l
0.36 -0.29 l
0.36 -0.29 l
0.35 -0.27 l
0.36 -0.26 l
0.36 -0.26 l
0.36 -0.24 l
0.35 -0.23 l
0.36 -0.22 l
0.36 -0.21 l
0.35 -0.21 l
0.36 -0.20 l
0.36 -0.19 l
0.35 -0.17 l
0.36 -0.18 l
0.36 -0.16 l
0.35 -0.16 l
0.36 -0.15 l
0.36 -0.14 l
0.36 -0.14 l
0.35 -0.13 l
0.36 -0.12 l
0.36 -0.12 l
0.35 -0.11 l
0.36 -0.11 l
0.36 -0.10 l
0.35 -0.10 l
0.36 -0.09 l
0.36 -0.09 l
0.35 -0.09 l
0.36 -0.08 l
0.36 -0.07 l
0.36 -0.07 l
0.35 -0.07 l
0.36 -0.07 l
0.36 -0.06 l
411.27 351.13 lineto
0.36 -0.05 l
0.36 -0.05 l
0.35 -0.05 l
0.36 -0.05 l
0.36 -0.04 l
0.36 -0.04 l
0.35 -0.04 l
0.36 -0.04 l
0.36 -0.04 l
0.35 -0.03 l
0.36 -0.03 l
o
0.00 0.00 432.00 504.00 cl
0 0 0 srgb
0.75 setlinewidth
[] 0 setdash
1 setlinecap
1 setlinejoin
10.00 setmiterlimit
np
225.50 345.50 m
197.00 0 l
0 139.49 l
-197.00 0 l
0 -139.49 l
o
225.50 345.50 422.50 484.99 cl
0.7451 0.7451 0.7451 srgb
0.08 setlinewidth
[] 0 setdash
1 setlinecap
1 setlinejoin
10.00 setmiterlimit
np
225.50 350.21 m
197.00 0 l
o
0.75 setlinewidth
[ 2.25 3.75] 0 setdash
np
214.43 345.50 m
0 139.49 l
o
np
220.35 345.50 m
0 139.49 l
o
np
226.28 345.50 m
0 139.49 l
o
np
232.20 345.50 m
0 139.49 l
o
np
238.12 345.50 m
0 139.49 l
o
np
244.04 345.50 m
0 139.49 l
o
np
249.97 345.50 m
0 139.49 l
o
np
255.89 345.50 m
0 139.49 l
o
np
261.81 345.50 m
0 139.49 l
o
np
267.74 345.50 m
0 139.49 l
o
np
273.66 345.50 m
0 139.49 l
o
np
279.58 345.50 m
0 139.49 l
o
np
285.50 345.50 m
0 139.49 l
o
np
291.43 345.50 m
0 139.49 l
o
np
297.35 345.50 m
0 139.49 l
o
np
303.27 345.50 m
0 139.49 l
o
np
309.19 345.50 m
0 139.49 l
o
np
315.12 345.50 m
0 139.49 l
o
np
321.04 345.50 m
0 139.49 l
o
np
326.96 345.50 m
0 139.49 l
o
np
332.88 345.50 m
0 139.49 l
o
np
338.81 345.50 m
0 139.49 l
o
np
344.73 345.50 m
0 139.49 l
o
np
350.65 345.50 m
0 139.49 l
o
np
356.57 345.50 m
0 139.49 l
o
np
362.50 345.50 m
0 139.49 l
o
np
368.42 345.50 m
0 139.49 l
o
np
374.34 345.50 m
0 139.49 l
o
np
380.26 345.50 m
0 139.49 l
o
np
386.19 345.50 m
0 139.49 l
o
np
392.11 345.50 m
0 139.49 l
o
np
398.03 345.50 m
0 139.49 l
o
np
403.96 345.50 m
0 139.49 l
o
0.00 0.00 432.00 504.00 cl
/Font1 findfont 12 s
0 0 0 srgb
324.00 491.64 (Sig.2) .5 0 t
0.75 setlinewidth
[] 0 setdash
1 setlinecap
1 setlinejoin
10.00 setmiterlimit
np
226.28 345.50 m
177.68 0 l
o
np
226.28 345.50 m
0 4.19 l
o
np
285.50 345.50 m
0 4.19 l
o
np
344.73 345.50 m
0 4.19 l
o
np
403.96 345.50 m
0 4.19 l
o
/Font1 findfont 7 s
226.28 336.95 (0) .5 0 t
285.50 336.95 (50) .5 0 t
344.73 336.95 (100) .5 0 t
403.96 336.95 (150) .5 0 t
np
225.50 350.21 m
0 128.00 l
o
np
225.50 350.21 m
4.19 0 l
o
np
225.50 368.49 m
4.19 0 l
o
np
225.50 386.78 m
4.19 0 l
o
np
225.50 405.06 m
4.19 0 l
o
np
225.50 423.35 m
4.19 0 l
o
np
225.50 441.64 m
4.19 0 l
o
np
225.50 459.92 m
4.19 0 l
o
np
225.50 478.21 m
4.19 0 l
o
222.65 350.21 (0.000) .5 90 t
222.65 386.78 (0.004) .5 90 t
222.65 423.35 (0.008) .5 90 t
222.65 459.92 (0.012) .5 90 t
9.50 177.50 206.50 316.99 cl
9.50 177.50 206.50 316.99 cl
0 0 0 srgb
0.75 setlinewidth
[] 0 setdash
1 setlinecap
1 setlinejoin
10.00 setmiterlimit
np
16.80 182.67 m
0.36 0.03 l
0.35 0.02 l
0.36 0.03 l
0.36 0.04 l
0.35 0.03 l
0.36 0.04 l
0.36 0.03 l
0.36 0.04 l
0.35 0.04 l
0.36 0.05 l
0.36 0.04 l
0.35 0.05 l
0.36 0.06 l
0.36 0.05 l
0.35 0.06 l
0.36 0.06 l
0.36 0.06 l
0.36 0.07 l
0.35 0.07 l
0.36 0.08 l
0.36 0.08 l
0.35 0.08 l
0.36 0.09 l
0.36 0.08 l
0.35 0.10 l
0.36 0.10 l
0.36 0.11 l
0.35 0.11 l
0.36 0.11 l
0.36 0.12 l
0.36 0.13 l
0.35 0.13 l
0.36 0.14 l
0.36 0.14 l
0.35 0.15 l
0.36 0.16 l
0.36 0.16 l
0.35 0.17 l
0.36 0.18 l
0.36 0.19 l
0.35 0.19 l
0.36 0.20 l
0.36 0.21 l
0.36 0.22 l
0.35 0.22 l
0.36 0.23 l
0.36 0.25 l
0.35 0.25 l
0.36 0.27 l
0.36 0.27 l
0.35 0.28 l
0.36 0.29 l
0.36 0.30 l
0.36 0.32 l
0.35 0.32 l
0.36 0.34 l
0.36 0.34 l
0.35 0.36 l
0.36 0.37 l
0.36 0.38 l
0.35 0.40 l
0.36 0.40 l
0.36 0.42 l
0.35 0.43 l
0.36 0.45 l
0.36 0.46 l
0.36 0.47 l
0.35 0.48 l
0.36 0.50 l
0.36 0.51 l
0.35 0.53 l
0.36 0.54 l
0.36 0.56 l
0.35 0.56 l
0.36 0.59 l
0.36 0.60 l
0.35 0.61 l
0.36 0.63 l
0.36 0.64 l
0.36 0.67 l
0.35 0.67 l
0.36 0.69 l
0.36 0.70 l
0.35 0.72 l
0.36 0.74 l
0.36 0.74 l
0.35 0.77 l
0.36 0.78 l
0.36 0.80 l
0.36 0.81 l
0.35 0.82 l
0.36 0.85 l
0.36 0.86 l
0.35 0.87 l
0.36 0.89 l
0.36 0.90 l
0.35 0.92 l
0.36 0.92 l
0.36 0.95 l
52.49 218.57 lineto
0.36 0.97 l
0.36 0.99 l
0.36 1.00 l
0.35 1.02 l
0.36 1.02 l
0.36 1.04 l
0.35 1.06 l
0.36 1.06 l
0.36 1.08 l
0.35 1.08 l
0.36 1.11 l
0.36 1.11 l
0.36 1.12 l
0.35 1.13 l
0.36 1.14 l
0.36 1.16 l
0.35 1.16 l
0.36 1.17 l
0.36 1.18 l
0.35 1.18 l
0.36 1.19 l
0.36 1.20 l
0.35 1.21 l
0.36 1.21 l
0.36 1.22 l
0.36 1.22 l
0.35 1.23 l
0.36 1.23 l
0.36 1.24 l
0.35 1.24 l
0.36 1.23 l
0.36 1.25 l
0.35 1.24 l
0.36 1.24 l
0.36 1.25 l
0.35 1.24 l
0.36 1.24 l
0.36 1.24 l
0.36 1.23 l
0.35 1.24 l
0.36 1.23 l
0.36 1.22 l
0.35 1.22 l
0.36 1.22 l
0.36 1.21 l
0.35 1.20 l
0.36 1.19 l
0.36 1.19 l
0.36 1.17 l
0.35 1.17 l
0.36 1.16 l
0.36 1.14 l
0.35 1.14 l
0.36 1.12 l
0.36 1.12 l
0.35 1.09 l
0.36 1.08 l
0.36 1.07 l
0.35 1.05 l
0.36 1.05 l
0.36 1.01 l
0.36 1.01 l
0.35 0.99 l
0.36 0.96 l
0.36 0.96 l
0.35 0.93 l
0.36 0.91 l
0.36 0.89 l
0.35 0.87 l
0.36 0.86 l
0.36 0.82 l
0.35 0.82 l
0.36 0.77 l
0.36 0.77 l
0.36 0.74 l
0.35 0.71 l
0.36 0.70 l
0.36 0.66 l
0.35 0.65 l
0.36 0.62 l
0.36 0.59 l
0.35 0.57 l
0.36 0.54 l
0.36 0.53 l
0.36 0.49 l
0.35 0.47 l
0.36 0.44 l
0.36 0.41 l
0.35 0.40 l
0.36 0.35 l
0.36 0.35 l
0.35 0.30 l
0.36 0.29 l
0.36 0.26 l
0.35 0.24 l
0.36 0.21 l
0.36 0.18 l
0.36 0.16 l
0.35 0.13 l
88.19 311.64 lineto
0.36 0.09 l
0.35 0.05 l
0.36 0.04 l
0.36 0.01 l
0.35 -0.02 l
0.36 -0.04 l
0.36 -0.06 l
0.36 -0.08 l
0.35 -0.11 l
0.36 -0.12 l
0.36 -0.16 l
0.35 -0.17 l
0.36 -0.19 l
0.36 -0.22 l
0.35 -0.23 l
0.36 -0.26 l
0.36 -0.26 l
0.35 -0.30 l
0.36 -0.31 l
0.36 -0.32 l
0.36 -0.35 l
0.35 -0.36 l
0.36 -0.38 l
0.36 -0.40 l
0.35 -0.41 l
0.36 -0.42 l
0.36 -0.44 l
0.35 -0.46 l
0.36 -0.46 l
0.36 -0.48 l
0.35 -0.50 l
0.36 -0.50 l
0.36 -0.52 l
0.36 -0.52 l
0.35 -0.55 l
0.36 -0.54 l
0.36 -0.56 l
0.35 -0.57 l
0.36 -0.57 l
0.36 -0.59 l
0.35 -0.59 l
0.36 -0.60 l
0.36 -0.61 l
0.36 -0.62 l
0.35 -0.62 l
0.36 -0.62 l
0.36 -0.63 l
0.35 -0.64 l
0.36 -0.64 l
0.36 -0.64 l
0.35 -0.65 l
0.36 -0.65 l
0.36 -0.66 l
0.35 -0.65 l
0.36 -0.66 l
0.36 -0.66 l
0.36 -0.66 l
0.35 -0.67 l
0.36 -0.66 l
0.36 -0.66 l
0.35 -0.66 l
0.36 -0.66 l
0.36 -0.66 l
0.35 -0.66 l
0.36 -0.66 l
0.36 -0.66 l
0.35 -0.65 l
0.36 -0.65 l
0.36 -0.64 l
0.36 -0.64 l
0.35 -0.64 l
0.36 -0.63 l
0.36 -0.63 l
0.35 -0.62 l
0.36 -0.62 l
0.36 -0.61 l
0.35 -0.61 l
0.36 -0.59 l
0.36 -0.59 l
0.36 -0.59 l
0.35 -0.57 l
0.36 -0.57 l
0.36 -0.55 l
0.35 -0.55 l
0.36 -0.54 l
0.36 -0.53 l
0.35 -0.52 l
0.36 -0.51 l
0.36 -0.50 l
0.35 -0.49 l
0.36 -0.47 l
0.36 -0.47 l
0.36 -0.45 l
0.35 -0.45 l
0.36 -0.42 l
0.36 -0.42 l
0.35 -0.41 l
0.36 -0.39 l
0.36 -0.38 l
123.88 264.39 lineto
0.36 -0.36 l
0.36 -0.34 l
0.35 -0.33 l
0.36 -0.31 l
0.36 -0.30 l
0.36 -0.29 l
0.35 -0.27 l
0.36 -0.27 l
0.36 -0.24 l
0.35 -0.24 l
0.36 -0.22 l
0.36 -0.21 l
0.35 -0.20 l
0.36 -0.18 l
0.36 -0.18 l
0.36 -0.16 l
0.35 -0.15 l
0.36 -0.14 l
0.36 -0.13 l
0.35 -0.12 l
0.36 -0.11 l
0.36 -0.10 l
0.35 -0.09 l
0.36 -0.09 l
0.36 -0.07 l
0.35 -0.07 l
0.36 -0.06 l
0.36 -0.06 l
0.36 -0.05 l
0.35 -0.05 l
0.36 -0.04 l
0.36 -0.04 l
0.35 -0.03 l
0.36 -0.04 l
0.36 -0.03 l
0.35 -0.03 l
0.36 -0.03 l
0.36 -0.04 l
0.36 -0.03 l
0.35 -0.04 l
0.36 -0.04 l
0.36 -0.04 l
0.35 -0.05 l
0.36 -0.06 l
0.36 -0.06 l
0.35 -0.06 l
0.36 -0.08 l
0.36 -0.08 l
0.35 -0.10 l
0.36 -0.10 l
0.36 -0.11 l
0.36 -0.13 l
0.35 -0.13 l
0.36 -0.15 l
0.36 -0.16 l
0.35 -0.18 l
0.36 -0.19 l
0.36 -0.20 l
0.35 -0.22 l
0.36 -0.23 l
0.36 -0.25 l
0.35 -0.27 l
0.36 -0.28 l
0.36 -0.30 l
0.36 -0.32 l
0.35 -0.34 l
0.36 -0.35 l
0.36 -0.37 l
0.35 -0.39 l
0.36 -0.40 l
0.36 -0.44 l
0.35 -0.44 l
0.36 -0.47 l
0.36 -0.48 l
0.36 -0.50 l
0.35 -0.52 l
0.36 -0.53 l
0.36 -0.56 l
0.35 -0.57 l
0.36 -0.60 l
0.36 -0.61 l
0.35 -0.62 l
0.36 -0.64 l
0.36 -0.66 l
0.35 -0.68 l
0.36 -0.68 l
0.36 -0.71 l
0.36 -0.72 l
0.35 -0.73 l
0.36 -0.75 l
0.36 -0.76 l
0.35 -0.77 l
0.36 -0.79 l
0.36 -0.79 l
0.35 -0.81 l
0.36 -0.81 l
0.36 -0.83 l
0.35 -0.83 l
0.36 -0.84 l
159.58 233.02 lineto
0.36 -0.85 l
0.35 -0.87 l
0.36 -0.86 l
0.36 -0.87 l
0.35 -0.88 l
0.36 -0.87 l
0.36 -0.88 l
0.35 -0.88 l
0.36 -0.88 l
0.36 -0.88 l
0.36 -0.88 l
0.35 -0.88 l
0.36 -0.88 l
0.36 -0.88 l
0.35 -0.87 l
0.36 -0.87 l
0.36 -0.86 l
0.35 -0.86 l
0.36 -0.85 l
0.36 -0.85 l
0.35 -0.84 l
0.36 -0.83 l
0.36 -0.83 l
0.36 -0.81 l
0.35 -0.81 l
0.36 -0.80 l
0.36 -0.79 l
0.35 -0.78 l
0.36 -0.77 l
0.36 -0.75 l
0.35 -0.75 l
0.36 -0.74 l
0.36 -0.72 l
0.36 -0.71 l
0.35 -0.70 l
0.36 -0.69 l
0.36 -0.67 l
0.35 -0.66 l
0.36 -0.66 l
0.36 -0.63 l
0.35 -0.62 l
0.36 -0.61 l
0.36 -0.60 l
0.35 -0.58 l
0.36 -0.57 l
0.36 -0.56 l
0.36 -0.53 l
0.35 -0.53 l
0.36 -0.52 l
0.36 -0.50 l
0.35 -0.49 l
0.36 -0.47 l
0.36 -0.46 l
0.35 -0.45 l
0.36 -0.44 l
0.36 -0.42 l
0.35 -0.41 l
0.36 -0.40 l
0.36 -0.38 l
0.36 -0.38 l
0.35 -0.36 l
0.36 -0.35 l
0.36 -0.34 l
0.35 -0.32 l
0.36 -0.32 l
0.36 -0.30 l
0.35 -0.29 l
0.36 -0.29 l
0.36 -0.27 l
0.36 -0.26 l
0.35 -0.25 l
0.36 -0.25 l
0.36 -0.23 l
0.35 -0.22 l
0.36 -0.22 l
0.36 -0.20 l
0.35 -0.20 l
0.36 -0.19 l
0.36 -0.19 l
0.35 -0.17 l
0.36 -0.17 l
0.36 -0.16 l
0.36 -0.15 l
0.35 -0.15 l
0.36 -0.14 l
0.36 -0.13 l
0.35 -0.13 l
0.36 -0.12 l
0.36 -0.11 l
0.35 -0.11 l
0.36 -0.11 l
0.36 -0.10 l
0.35 -0.09 l
0.36 -0.09 l
0.36 -0.09 l
0.36 -0.08 l
0.35 -0.08 l
0.36 -0.07 l
0.36 -0.07 l
195.27 183.32 lineto
0.36 -0.06 l
0.36 -0.06 l
0.35 -0.05 l
0.36 -0.06 l
0.36 -0.05 l
0.36 -0.04 l
0.35 -0.05 l
0.36 -0.04 l
0.36 -0.04 l
0.35 -0.04 l
0.36 -0.03 l
o
0.00 0.00 432.00 504.00 cl
0 0 0 srgb
0.75 setlinewidth
[] 0 setdash
1 setlinecap
1 setlinejoin
10.00 setmiterlimit
np
9.50 177.50 m
197.00 0 l
0 139.49 l
-197.00 0 l
0 -139.49 l
o
9.50 177.50 206.50 316.99 cl
0.7451 0.7451 0.7451 srgb
0.08 setlinewidth
[] 0 setdash
1 setlinecap
1 setlinejoin
10.00 setmiterlimit
np
9.50 182.28 m
197.00 0 l
o
0.75 setlinewidth
[ 2.25 3.75] 0 setdash
np
42.97 177.50 m
0 139.49 l
o
np
47.62 177.50 m
0 139.49 l
o
np
52.26 177.50 m
0 139.49 l
o
np
56.91 177.50 m
0 139.49 l
o
np
61.55 177.50 m
0 139.49 l
o
np
66.20 177.50 m
0 139.49 l
o
np
70.84 177.50 m
0 139.49 l
o
np
75.49 177.50 m
0 139.49 l
o
np
80.13 177.50 m
0 139.49 l
o
np
84.78 177.50 m
0 139.49 l
o
np
89.42 177.50 m
0 139.49 l
o
np
94.07 177.50 m
0 139.49 l
o
np
98.71 177.50 m
0 139.49 l
o
np
103.36 177.50 m
0 139.49 l
o
np
108.00 177.50 m
0 139.49 l
o
np
112.64 177.50 m
0 139.49 l
o
np
117.29 177.50 m
0 139.49 l
o
np
121.93 177.50 m
0 139.49 l
o
np
126.58 177.50 m
0 139.49 l
o
np
131.22 177.50 m
0 139.49 l
o
np
135.87 177.50 m
0 139.49 l
o
np
140.51 177.50 m
0 139.49 l
o
np
145.16 177.50 m
0 139.49 l
o
np
149.80 177.50 m
0 139.49 l
o
np
154.45 177.50 m
0 139.49 l
o
np
159.09 177.50 m
0 139.49 l
o
np
163.74 177.50 m
0 139.49 l
o
np
168.38 177.50 m
0 139.49 l
o
np
173.03 177.50 m
0 139.49 l
o
np
177.67 177.50 m
0 139.49 l
o
np
182.32 177.50 m
0 139.49 l
o
np
186.96 177.50 m
0 139.49 l
o
np
191.61 177.50 m
0 139.49 l
o
0.00 0.00 432.00 504.00 cl
/Font1 findfont 12 s
0 0 0 srgb
108.00 323.64 (Sig.3) .5 0 t
0.75 setlinewidth
[] 0 setdash
1 setlinecap
1 setlinejoin
10.00 setmiterlimit
np
52.26 177.50 m
139.35 0 l
o
np
52.26 177.50 m
0 4.19 l
o
np
98.71 177.50 m
0 4.19 l
o
np
145.16 177.50 m
0 4.19 l
o
np
191.61 177.50 m
0 4.19 l
o
/Font1 findfont 7 s
52.26 168.95 (0) .5 0 t
98.71 168.95 (50) .5 0 t
145.16 168.95 (100) .5 0 t
191.61 168.95 (150) .5 0 t
np
9.50 182.28 m
0 115.20 l
o
np
9.50 182.28 m
4.19 0 l
o
np
9.50 205.32 m
4.19 0 l
o
np
9.50 228.36 m
4.19 0 l
o
np
9.50 251.40 m
4.19 0 l
o
np
9.50 274.44 m
4.19 0 l
o
np
9.50 297.48 m
4.19 0 l
o
6.65 182.28 (0.000) .5 90 t
6.65 228.36 (0.004) .5 90 t
6.65 274.44 (0.008) .5 90 t
225.50 177.50 422.50 316.99 cl
225.50 177.50 422.50 316.99 cl
0 0 0 srgb
0.75 setlinewidth
[] 0 setdash
1 setlinecap
1 setlinejoin
10.00 setmiterlimit
np
232.80 182.67 m
0.36 0.05 l
0.35 0.06 l
0.36 0.06 l
0.36 0.06 l
0.35 0.07 l
0.36 0.08 l
0.36 0.07 l
0.36 0.08 l
0.35 0.09 l
0.36 0.10 l
0.36 0.09 l
0.35 0.11 l
0.36 0.11 l
0.36 0.12 l
0.35 0.12 l
0.36 0.13 l
0.36 0.15 l
0.36 0.14 l
0.35 0.16 l
0.36 0.16 l
0.36 0.17 l
0.35 0.19 l
0.36 0.19 l
0.36 0.20 l
0.35 0.21 l
0.36 0.22 l
0.36 0.24 l
0.35 0.24 l
0.36 0.26 l
0.36 0.27 l
0.36 0.28 l
0.35 0.29 l
0.36 0.31 l
0.36 0.31 l
0.35 0.34 l
0.36 0.35 l
0.36 0.36 l
0.35 0.38 l
0.36 0.39 l
0.36 0.41 l
0.35 0.43 l
0.36 0.43 l
0.36 0.46 l
0.36 0.47 l
0.35 0.49 l
0.36 0.51 l
0.36 0.51 l
0.35 0.55 l
0.36 0.55 l
0.36 0.58 l
0.35 0.59 l
0.36 0.61 l
0.36 0.62 l
0.36 0.65 l
0.35 0.65 l
0.36 0.69 l
0.36 0.69 l
0.35 0.71 l
0.36 0.73 l
0.36 0.74 l
0.35 0.76 l
0.36 0.78 l
0.36 0.79 l
0.35 0.81 l
0.36 0.81 l
0.36 0.84 l
0.36 0.85 l
0.35 0.86 l
0.36 0.88 l
0.36 0.88 l
0.35 0.90 l
0.36 0.90 l
0.36 0.92 l
0.35 0.93 l
0.36 0.93 l
0.36 0.94 l
0.35 0.95 l
0.36 0.95 l
0.36 0.96 l
0.36 0.96 l
0.35 0.96 l
0.36 0.96 l
0.36 0.97 l
0.35 0.96 l
0.36 0.96 l
0.36 0.96 l
0.35 0.96 l
0.36 0.95 l
0.36 0.95 l
0.36 0.93 l
0.35 0.94 l
0.36 0.92 l
0.36 0.91 l
0.35 0.90 l
0.36 0.89 l
0.36 0.87 l
0.35 0.87 l
0.36 0.84 l
0.36 0.83 l
268.49 237.89 lineto
0.36 0.80 l
0.36 0.78 l
0.36 0.76 l
0.35 0.74 l
0.36 0.72 l
0.36 0.70 l
0.35 0.68 l
0.36 0.65 l
0.36 0.63 l
0.35 0.61 l
0.36 0.59 l
0.36 0.57 l
0.36 0.53 l
0.35 0.52 l
0.36 0.50 l
0.36 0.46 l
0.35 0.45 l
0.36 0.42 l
0.36 0.40 l
0.35 0.38 l
0.36 0.35 l
0.36 0.33 l
0.35 0.31 l
0.36 0.29 l
0.36 0.27 l
0.36 0.25 l
0.35 0.22 l
0.36 0.22 l
0.36 0.18 l
0.35 0.18 l
0.36 0.16 l
0.36 0.14 l
0.35 0.13 l
0.36 0.11 l
0.36 0.10 l
0.35 0.09 l
0.36 0.08 l
0.36 0.07 l
0.36 0.06 l
0.35 0.05 l
0.36 0.04 l
0.36 0.04 l
0.35 0.04 l
0.36 0.03 l
0.36 0.02 l
0.35 0.03 l
0.36 0.02 l
0.36 0.02 l
0.36 0.03 l
0.35 0.02 l
0.36 0.03 l
0.36 0.03 l
0.35 0.03 l
0.36 0.04 l
0.36 0.05 l
0.35 0.04 l
0.36 0.06 l
0.36 0.06 l
0.35 0.07 l
0.36 0.08 l
0.36 0.08 l
0.36 0.09 l
0.35 0.11 l
0.36 0.10 l
0.36 0.12 l
0.35 0.13 l
0.36 0.14 l
0.36 0.15 l
0.35 0.15 l
0.36 0.17 l
0.36 0.17 l
0.35 0.18 l
0.36 0.19 l
0.36 0.21 l
0.36 0.20 l
0.35 0.22 l
0.36 0.23 l
0.36 0.23 l
0.35 0.24 l
0.36 0.25 l
0.36 0.26 l
0.35 0.26 l
0.36 0.27 l
0.36 0.28 l
0.36 0.28 l
0.35 0.29 l
0.36 0.30 l
0.36 0.30 l
0.35 0.31 l
0.36 0.31 l
0.36 0.32 l
0.35 0.32 l
0.36 0.33 l
0.36 0.33 l
0.35 0.34 l
0.36 0.35 l
0.36 0.35 l
0.36 0.35 l
0.35 0.37 l
304.19 263.80 lineto
0.36 0.37 l
0.35 0.38 l
0.36 0.39 l
0.36 0.39 l
0.35 0.41 l
0.36 0.41 l
0.36 0.42 l
0.36 0.42 l
0.35 0.44 l
0.36 0.45 l
0.36 0.45 l
0.35 0.47 l
0.36 0.48 l
0.36 0.49 l
0.35 0.51 l
0.36 0.51 l
0.36 0.53 l
0.35 0.54 l
0.36 0.56 l
0.36 0.57 l
0.36 0.58 l
0.35 0.60 l
0.36 0.62 l
0.36 0.63 l
0.35 0.65 l
0.36 0.66 l
0.36 0.68 l
0.35 0.70 l
0.36 0.71 l
0.36 0.72 l
0.35 0.75 l
0.36 0.75 l
0.36 0.78 l
0.36 0.78 l
0.35 0.80 l
0.36 0.82 l
0.36 0.83 l
0.35 0.84 l
0.36 0.85 l
0.36 0.85 l
0.35 0.88 l
0.36 0.87 l
0.36 0.89 l
0.36 0.88 l
0.35 0.90 l
0.36 0.89 l
0.36 0.90 l
0.35 0.89 l
0.36 0.90 l
0.36 0.89 l
0.35 0.88 l
0.36 0.87 l
0.36 0.87 l
0.35 0.85 l
0.36 0.84 l
0.36 0.83 l
0.36 0.80 l
0.35 0.79 l
0.36 0.76 l
0.36 0.75 l
0.35 0.72 l
0.36 0.68 l
0.36 0.66 l
0.35 0.62 l
0.36 0.59 l
0.36 0.57 l
0.35 0.51 l
0.36 0.48 l
0.36 0.44 l
0.36 0.39 l
0.35 0.36 l
0.36 0.29 l
0.36 0.26 l
0.35 0.22 l
0.36 0.15 l
0.36 0.11 l
0.35 0.06 l
0.36 0 l
0.36 -0.04 l
0.36 -0.12 l
0.35 -0.15 l
0.36 -0.21 l
0.36 -0.28 l
0.35 -0.31 l
0.36 -0.39 l
0.36 -0.43 l
0.35 -0.48 l
0.36 -0.55 l
0.36 -0.59 l
0.35 -0.65 l
0.36 -0.70 l
0.36 -0.73 l
0.36 -0.82 l
0.35 -0.84 l
0.36 -0.89 l
0.36 -0.94 l
0.35 -0.98 l
0.36 -1.03 l
0.36 -1.06 l
339.88 298.55 lineto
0.36 -1.14 l
0.36 -1.17 l
0.35 -1.20 l
0.36 -1.23 l
0.36 -1.25 l
0.36 -1.29 l
0.35 -1.29 l
0.36 -1.32 l
0.36 -1.34 l
0.35 -1.35 l
0.36 -1.36 l
0.36 -1.37 l
0.35 -1.38 l
0.36 -1.38 l
0.36 -1.38 l
0.36 -1.38 l
0.35 -1.37 l
0.36 -1.37 l
0.36 -1.35 l
0.35 -1.35 l
0.36 -1.33 l
0.36 -1.31 l
0.35 -1.30 l
0.36 -1.27 l
0.36 -1.26 l
0.35 -1.23 l
0.36 -1.19 l
0.36 -1.18 l
0.36 -1.14 l
0.35 -1.11 l
0.36 -1.08 l
0.36 -1.04 l
0.35 -1.01 l
0.36 -0.97 l
0.36 -0.93 l
0.35 -0.90 l
0.36 -0.85 l
0.36 -0.81 l
0.36 -0.78 l
0.35 -0.72 l
0.36 -0.70 l
0.36 -0.65 l
0.35 -0.61 l
0.36 -0.58 l
0.36 -0.52 l
0.35 -0.49 l
0.36 -0.45 l
0.36 -0.40 l
0.35 -0.38 l
0.36 -0.33 l
0.36 -0.30 l
0.36 -0.27 l
0.35 -0.22 l
0.36 -0.20 l
0.36 -0.17 l
0.35 -0.13 l
0.36 -0.11 l
0.36 -0.08 l
0.35 -0.05 l
0.36 -0.04 l
0.36 0 l
0.35 0.01 l
0.36 0.03 l
0.36 0.05 l
0.36 0.06 l
0.35 0.07 l
0.36 0.09 l
0.36 0.09 l
0.35 0.10 l
0.36 0.11 l
0.36 0.11 l
0.35 0.11 l
0.36 0.11 l
0.36 0.11 l
0.36 0.10 l
0.35 0.10 l
0.36 0.09 l
0.36 0.08 l
0.35 0.07 l
0.36 0.05 l
0.36 0.05 l
0.35 0.02 l
0.36 0.02 l
0.36 -0.01 l
0.35 -0.03 l
0.36 -0.05 l
0.36 -0.07 l
0.36 -0.09 l
0.35 -0.12 l
0.36 -0.14 l
0.36 -0.16 l
0.35 -0.20 l
0.36 -0.21 l
0.36 -0.25 l
0.35 -0.27 l
0.36 -0.30 l
0.36 -0.33 l
0.35 -0.35 l
0.36 -0.38 l
375.58 242.44 lineto
0.36 -0.44 l
0.35 -0.46 l
0.36 -0.50 l
0.36 -0.51 l
0.35 -0.56 l
0.36 -0.57 l
0.36 -0.60 l
0.35 -0.63 l
0.36 -0.64 l
0.36 -0.68 l
0.36 -0.69 l
0.35 -0.72 l
0.36 -0.74 l
0.36 -0.75 l
0.35 -0.78 l
0.36 -0.80 l
0.36 -0.80 l
0.35 -0.84 l
0.36 -0.84 l
0.36 -0.85 l
0.35 -0.87 l
0.36 -0.88 l
0.36 -0.89 l
0.36 -0.90 l
0.35 -0.90 l
0.36 -0.91 l
0.36 -0.92 l
0.35 -0.92 l
0.36 -0.93 l
0.36 -0.92 l
0.35 -0.93 l
0.36 -0.93 l
0.36 -0.92 l
0.36 -0.93 l
0.35 -0.92 l
0.36 -0.91 l
0.36 -0.91 l
0.35 -0.90 l
0.36 -0.90 l
0.36 -0.88 l
0.35 -0.88 l
0.36 -0.87 l
0.36 -0.86 l
0.35 -0.85 l
0.36 -0.83 l
0.36 -0.82 l
0.36 -0.81 l
0.35 -0.80 l
0.36 -0.78 l
0.36 -0.76 l
0.35 -0.76 l
0.36 -0.73 l
0.36 -0.72 l
0.35 -0.71 l
0.36 -0.68 l
0.36 -0.68 l
0.35 -0.65 l
0.36 -0.64 l
0.36 -0.62 l
0.36 -0.60 l
0.35 -0.59 l
0.36 -0.57 l
0.36 -0.55 l
0.35 -0.55 l
0.36 -0.51 l
0.36 -0.50 l
0.35 -0.49 l
0.36 -0.47 l
0.36 -0.46 l
0.36 -0.43 l
0.35 -0.42 l
0.36 -0.41 l
0.36 -0.39 l
0.35 -0.38 l
0.36 -0.36 l
0.36 -0.35 l
0.35 -0.33 l
0.36 -0.32 l
0.36 -0.31 l
0.35 -0.29 l
0.36 -0.28 l
0.36 -0.27 l
0.36 -0.25 l
0.35 -0.25 l
0.36 -0.23 l
0.36 -0.22 l
0.35 -0.21 l
0.36 -0.21 l
0.36 -0.19 l
0.35 -0.18 l
0.36 -0.17 l
0.36 -0.16 l
0.35 -0.16 l
0.36 -0.15 l
0.36 -0.14 l
0.36 -0.13 l
0.35 -0.12 l
0.36 -0.12 l
0.36 -0.11 l
411.27 183.48 lineto
0.36 -0.09 l
0.36 -0.10 l
0.35 -0.09 l
0.36 -0.08 l
0.36 -0.08 l
0.36 -0.07 l
0.35 -0.07 l
0.36 -0.06 l
0.36 -0.06 l
0.35 -0.06 l
0.36 -0.05 l
o
0.00 0.00 432.00 504.00 cl
0 0 0 srgb
0.75 setlinewidth
[] 0 setdash
1 setlinecap
1 setlinejoin
10.00 setmiterlimit
np
225.50 177.50 m
197.00 0 l
0 139.49 l
-197.00 0 l
0 -139.49 l
o
225.50 177.50 422.50 316.99 cl
0.7451 0.7451 0.7451 srgb
0.08 setlinewidth
[] 0 setdash
1 setlinecap
1 setlinejoin
10.00 setmiterlimit
np
225.50 181.99 m
197.00 0 l
o
0.75 setlinewidth
[ 2.25 3.75] 0 setdash
np
80.96 177.50 m
0 139.49 l
o
np
129.57 177.50 m
0 139.49 l
o
np
178.18 177.50 m
0 139.49 l
o
np
226.78 177.50 m
0 139.49 l
o
np
275.39 177.50 m
0 139.49 l
o
np
324.00 177.50 m
0 139.49 l
o
np
372.61 177.50 m
0 139.49 l
o
np
421.22 177.50 m
0 139.49 l
o
0.00 0.00 432.00 504.00 cl
/Font1 findfont 12 s
0 0 0 srgb
324.00 323.64 (Sig.4) .5 0 t
0.75 setlinewidth
[] 0 setdash
1 setlinecap
1 setlinejoin
10.00 setmiterlimit
np
226.78 177.50 m
194.44 0 l
o
np
226.78 177.50 m
0 4.19 l
o
np
275.39 177.50 m
0 4.19 l
o
np
324.00 177.50 m
0 4.19 l
o
np
372.61 177.50 m
0 4.19 l
o
np
421.22 177.50 m
0 4.19 l
o
/Font1 findfont 7 s
226.78 168.95 (5) .5 0 t
275.39 168.95 (10) .5 0 t
324.00 168.95 (15) .5 0 t
372.61 168.95 (20) .5 0 t
421.22 168.95 (25) .5 0 t
np
225.50 181.99 m
0 132.21 l
o
np
225.50 181.99 m
4.19 0 l
o
np
225.50 204.03 m
4.19 0 l
o
np
225.50 226.06 m
4.19 0 l
o
np
225.50 248.10 m
4.19 0 l
o
np
225.50 270.13 m
4.19 0 l
o
np
225.50 292.16 m
4.19 0 l
o
np
225.50 314.20 m
4.19 0 l
o
222.65 181.99 (0.00) .5 90 t
222.65 204.03 (0.02) .5 90 t
222.65 226.06 (0.04) .5 90 t
222.65 248.10 (0.06) .5 90 t
222.65 270.13 (0.08) .5 90 t
222.65 292.16 (0.10) .5 90 t
222.65 314.20 (0.12) .5 90 t
9.50 9.50 206.50 148.99 cl
9.50 9.50 206.50 148.99 cl
0 0 0 srgb
0.75 setlinewidth
[] 0 setdash
1 setlinecap
1 setlinejoin
10.00 setmiterlimit
np
16.80 14.80 m
0.36 0.06 l
0.35 0.05 l
0.36 0.06 l
0.36 0.07 l
0.35 0.06 l
0.36 0.07 l
0.36 0.07 l
0.36 0.08 l
0.35 0.08 l
0.36 0.08 l
0.36 0.09 l
0.35 0.09 l
0.36 0.10 l
0.36 0.10 l
0.35 0.11 l
0.36 0.11 l
0.36 0.12 l
0.36 0.12 l
0.35 0.13 l
0.36 0.13 l
0.36 0.14 l
0.35 0.15 l
0.36 0.15 l
0.36 0.16 l
0.35 0.17 l
0.36 0.17 l
0.36 0.18 l
0.35 0.19 l
0.36 0.20 l
0.36 0.21 l
0.36 0.21 l
0.35 0.22 l
0.36 0.24 l
0.36 0.24 l
0.35 0.25 l
0.36 0.26 l
0.36 0.28 l
0.35 0.28 l
0.36 0.29 l
0.36 0.31 l
0.35 0.31 l
0.36 0.33 l
0.36 0.34 l
0.36 0.35 l
0.35 0.36 l
0.36 0.39 l
0.36 0.38 l
0.35 0.41 l
0.36 0.42 l
0.36 0.43 l
0.35 0.45 l
0.36 0.46 l
0.36 0.48 l
0.36 0.48 l
0.35 0.52 l
0.36 0.52 l
0.36 0.54 l
0.35 0.55 l
0.36 0.58 l
0.36 0.59 l
0.35 0.60 l
0.36 0.63 l
0.36 0.63 l
0.35 0.67 l
0.36 0.67 l
0.36 0.70 l
0.36 0.71 l
0.35 0.74 l
0.36 0.75 l
0.36 0.77 l
0.35 0.79 l
0.36 0.80 l
0.36 0.84 l
0.35 0.83 l
0.36 0.88 l
0.36 0.88 l
0.35 0.91 l
0.36 0.92 l
0.36 0.95 l
0.36 0.96 l
0.35 0.98 l
0.36 1.01 l
0.36 1.01 l
0.35 1.05 l
0.36 1.05 l
0.36 1.09 l
0.35 1.09 l
0.36 1.12 l
0.36 1.13 l
0.36 1.15 l
0.35 1.17 l
0.36 1.19 l
0.36 1.20 l
0.35 1.22 l
0.36 1.24 l
0.36 1.25 l
0.35 1.27 l
0.36 1.28 l
0.36 1.30 l
52.49 68.51 lineto
0.36 1.32 l
0.36 1.34 l
0.36 1.35 l
0.35 1.36 l
0.36 1.37 l
0.36 1.39 l
0.35 1.39 l
0.36 1.40 l
0.36 1.41 l
0.35 1.41 l
0.36 1.42 l
0.36 1.43 l
0.36 1.43 l
0.35 1.44 l
0.36 1.44 l
0.36 1.44 l
0.35 1.44 l
0.36 1.44 l
0.36 1.44 l
0.35 1.44 l
0.36 1.44 l
0.36 1.43 l
0.35 1.43 l
0.36 1.42 l
0.36 1.42 l
0.36 1.41 l
0.35 1.40 l
0.36 1.38 l
0.36 1.38 l
0.35 1.36 l
0.36 1.36 l
0.36 1.33 l
0.35 1.32 l
0.36 1.31 l
0.36 1.28 l
0.35 1.28 l
0.36 1.24 l
0.36 1.23 l
0.36 1.20 l
0.35 1.18 l
0.36 1.16 l
0.36 1.13 l
0.35 1.11 l
0.36 1.07 l
0.36 1.06 l
0.35 1.01 l
0.36 1.01 l
0.36 0.95 l
0.36 0.93 l
0.35 0.89 l
0.36 0.87 l
0.36 0.82 l
0.35 0.79 l
0.36 0.77 l
0.36 0.71 l
0.35 0.69 l
0.36 0.64 l
0.36 0.62 l
0.35 0.55 l
0.36 0.54 l
0.36 0.48 l
0.36 0.45 l
0.35 0.40 l
0.36 0.36 l
0.36 0.34 l
0.35 0.27 l
0.36 0.25 l
0.36 0.18 l
0.35 0.17 l
0.36 0.10 l
0.36 0.07 l
0.35 0.03 l
0.36 -0.02 l
0.36 -0.06 l
0.36 -0.10 l
0.35 -0.14 l
0.36 -0.20 l
0.36 -0.21 l
0.35 -0.29 l
0.36 -0.30 l
0.36 -0.36 l
0.35 -0.39 l
0.36 -0.43 l
0.36 -0.48 l
0.36 -0.50 l
0.35 -0.56 l
0.36 -0.58 l
0.36 -0.63 l
0.35 -0.65 l
0.36 -0.71 l
0.36 -0.73 l
0.35 -0.77 l
0.36 -0.79 l
0.36 -0.84 l
0.35 -0.86 l
0.36 -0.89 l
0.36 -0.93 l
0.36 -0.94 l
0.35 -0.99 l
88.19 128.48 lineto
0.36 -1.03 l
0.35 -1.05 l
0.36 -1.08 l
0.36 -1.10 l
0.35 -1.12 l
0.36 -1.15 l
0.36 -1.15 l
0.36 -1.18 l
0.35 -1.19 l
0.36 -1.21 l
0.36 -1.22 l
0.35 -1.23 l
0.36 -1.25 l
0.36 -1.25 l
0.35 -1.26 l
0.36 -1.27 l
0.36 -1.28 l
0.35 -1.28 l
0.36 -1.29 l
0.36 -1.28 l
0.36 -1.29 l
0.35 -1.29 l
0.36 -1.29 l
0.36 -1.28 l
0.35 -1.29 l
0.36 -1.27 l
0.36 -1.28 l
0.35 -1.26 l
0.36 -1.26 l
0.36 -1.24 l
0.35 -1.24 l
0.36 -1.22 l
0.36 -1.22 l
0.36 -1.20 l
0.35 -1.18 l
0.36 -1.17 l
0.36 -1.15 l
0.35 -1.14 l
0.36 -1.12 l
0.36 -1.10 l
0.35 -1.08 l
0.36 -1.06 l
0.36 -1.03 l
0.36 -1.02 l
0.35 -0.99 l
0.36 -0.97 l
0.36 -0.95 l
0.35 -0.91 l
0.36 -0.90 l
0.36 -0.86 l
0.35 -0.85 l
0.36 -0.81 l
0.36 -0.79 l
0.35 -0.76 l
0.36 -0.73 l
0.36 -0.70 l
0.36 -0.68 l
0.35 -0.65 l
0.36 -0.61 l
0.36 -0.59 l
0.35 -0.55 l
0.36 -0.53 l
0.36 -0.49 l
0.35 -0.47 l
0.36 -0.43 l
0.36 -0.41 l
0.35 -0.38 l
0.36 -0.34 l
0.36 -0.32 l
0.36 -0.28 l
0.35 -0.26 l
0.36 -0.22 l
0.36 -0.20 l
0.35 -0.16 l
0.36 -0.15 l
0.36 -0.10 l
0.35 -0.09 l
0.36 -0.05 l
0.36 -0.03 l
0.36 0 l
0.35 0.03 l
0.36 0.04 l
0.36 0.09 l
0.35 0.10 l
0.36 0.13 l
0.36 0.15 l
0.35 0.18 l
0.36 0.19 l
0.36 0.22 l
0.35 0.25 l
0.36 0.25 l
0.36 0.29 l
0.36 0.29 l
0.35 0.33 l
0.36 0.33 l
0.36 0.35 l
0.35 0.37 l
0.36 0.39 l
0.36 0.40 l
123.88 62.51 lineto
0.36 0.43 l
0.36 0.43 l
0.35 0.45 l
0.36 0.46 l
0.36 0.47 l
0.36 0.47 l
0.35 0.49 l
0.36 0.49 l
0.36 0.49 l
0.35 0.50 l
0.36 0.51 l
0.36 0.51 l
0.35 0.51 l
0.36 0.51 l
0.36 0.51 l
0.36 0.51 l
0.35 0.51 l
0.36 0.50 l
0.36 0.51 l
0.35 0.50 l
0.36 0.49 l
0.36 0.49 l
0.35 0.48 l
0.36 0.47 l
0.36 0.47 l
0.35 0.46 l
0.36 0.44 l
0.36 0.44 l
0.36 0.42 l
0.35 0.41 l
0.36 0.40 l
0.36 0.39 l
0.35 0.37 l
0.36 0.35 l
0.36 0.35 l
0.35 0.32 l
0.36 0.31 l
0.36 0.29 l
0.36 0.27 l
0.35 0.26 l
0.36 0.23 l
0.36 0.22 l
0.35 0.19 l
0.36 0.19 l
0.36 0.14 l
0.35 0.14 l
0.36 0.11 l
0.36 0.10 l
0.35 0.07 l
0.36 0.05 l
0.36 0.03 l
0.36 0 l
0.35 -0.01 l
0.36 -0.05 l
0.36 -0.05 l
0.35 -0.10 l
0.36 -0.10 l
0.36 -0.13 l
0.35 -0.15 l
0.36 -0.18 l
0.36 -0.20 l
0.35 -0.21 l
0.36 -0.25 l
0.36 -0.25 l
0.36 -0.30 l
0.35 -0.30 l
0.36 -0.33 l
0.36 -0.35 l
0.35 -0.37 l
0.36 -0.39 l
0.36 -0.41 l
0.35 -0.43 l
0.36 -0.44 l
0.36 -0.47 l
0.36 -0.48 l
0.35 -0.51 l
0.36 -0.52 l
0.36 -0.54 l
0.35 -0.55 l
0.36 -0.57 l
0.36 -0.59 l
0.35 -0.59 l
0.36 -0.62 l
0.36 -0.62 l
0.35 -0.65 l
0.36 -0.65 l
0.36 -0.67 l
0.36 -0.67 l
0.35 -0.69 l
0.36 -0.69 l
0.36 -0.71 l
0.35 -0.72 l
0.36 -0.72 l
0.36 -0.73 l
0.35 -0.74 l
0.36 -0.74 l
0.36 -0.75 l
0.35 -0.76 l
0.36 -0.76 l
159.58 59.15 lineto
0.36 -0.77 l
0.35 -0.77 l
0.36 -0.77 l
0.36 -0.77 l
0.35 -0.78 l
0.36 -0.77 l
0.36 -0.77 l
0.35 -0.78 l
0.36 -0.77 l
0.36 -0.77 l
0.36 -0.77 l
0.35 -0.76 l
0.36 -0.77 l
0.36 -0.75 l
0.35 -0.76 l
0.36 -0.75 l
0.36 -0.74 l
0.35 -0.74 l
0.36 -0.73 l
0.36 -0.73 l
0.35 -0.72 l
0.36 -0.71 l
0.36 -0.71 l
0.36 -0.70 l
0.35 -0.69 l
0.36 -0.68 l
0.36 -0.67 l
0.35 -0.67 l
0.36 -0.65 l
0.36 -0.65 l
0.35 -0.64 l
0.36 -0.62 l
0.36 -0.62 l
0.36 -0.61 l
0.35 -0.60 l
0.36 -0.58 l
0.36 -0.58 l
0.35 -0.56 l
0.36 -0.56 l
0.36 -0.55 l
0.35 -0.53 l
0.36 -0.53 l
0.36 -0.51 l
0.35 -0.50 l
0.36 -0.49 l
0.36 -0.48 l
0.36 -0.47 l
0.35 -0.46 l
0.36 -0.45 l
0.36 -0.44 l
0.35 -0.42 l
0.36 -0.42 l
0.36 -0.41 l
0.35 -0.39 l
0.36 -0.39 l
0.36 -0.37 l
0.35 -0.37 l
0.36 -0.35 l
0.36 -0.35 l
0.36 -0.33 l
0.35 -0.33 l
0.36 -0.31 l
0.36 -0.31 l
0.35 -0.30 l
0.36 -0.29 l
0.36 -0.28 l
0.35 -0.27 l
0.36 -0.26 l
0.36 -0.25 l
0.36 -0.25 l
0.35 -0.24 l
0.36 -0.23 l
0.36 -0.22 l
0.35 -0.21 l
0.36 -0.21 l
0.36 -0.20 l
0.35 -0.19 l
0.36 -0.19 l
0.36 -0.18 l
0.35 -0.17 l
0.36 -0.16 l
0.36 -0.16 l
0.36 -0.16 l
0.35 -0.14 l
0.36 -0.15 l
0.36 -0.13 l
0.35 -0.13 l
0.36 -0.13 l
0.36 -0.12 l
0.35 -0.12 l
0.36 -0.11 l
0.36 -0.10 l
0.35 -0.10 l
0.36 -0.10 l
0.36 -0.10 l
0.36 -0.08 l
0.35 -0.09 l
0.36 -0.08 l
0.36 -0.08 l
195.27 15.30 lineto
0.36 -0.08 l
0.36 -0.06 l
0.35 -0.07 l
0.36 -0.06 l
0.36 -0.06 l
0.36 -0.06 l
0.35 -0.05 l
0.36 -0.05 l
0.36 -0.05 l
0.35 -0.05 l
0.36 -0.04 l
o
0.00 0.00 432.00 504.00 cl
0 0 0 srgb
0.75 setlinewidth
[] 0 setdash
1 setlinecap
1 setlinejoin
10.00 setmiterlimit
np
9.50 9.50 m
197.00 0 l
0 139.49 l
-197.00 0 l
0 -139.49 l
o
9.50 9.50 206.50 148.99 cl
0.7451 0.7451 0.7451 srgb
0.08 setlinewidth
[] 0 setdash
1 setlinecap
1 setlinejoin
10.00 setmiterlimit
np
9.50 13.92 m
197.00 0 l
o
0.75 setlinewidth
[ 2.25 3.75] 0 setdash
np
33.34 9.50 m
0 139.49 l
o
np
83.11 9.50 m
0 139.49 l
o
np
132.89 9.50 m
0 139.49 l
o
np
182.66 9.50 m
0 139.49 l
o
np
232.44 9.50 m
0 139.49 l
o
np
282.21 9.50 m
0 139.49 l
o
np
331.99 9.50 m
0 139.49 l
o
np
381.77 9.50 m
0 139.49 l
o
np
431.54 9.50 m
0 139.49 l
o
0.00 0.00 432.00 504.00 cl
/Font1 findfont 12 s
0 0 0 srgb
108.00 155.64 (Sig.5) .5 0 t
0.75 setlinewidth
[] 0 setdash
1 setlinecap
1 setlinejoin
10.00 setmiterlimit
np
33.34 9.50 m
149.32 0 l
o
np
33.34 9.50 m
0 4.19 l
o
np
83.11 9.50 m
0 4.19 l
o
np
132.89 9.50 m
0 4.19 l
o
np
182.66 9.50 m
0 4.19 l
o
/Font1 findfont 7 s
33.34 0.95 (15) .5 0 t
83.11 0.95 (20) .5 0 t
132.89 0.95 (25) .5 0 t
182.66 0.95 (30) .5 0 t
np
9.50 13.92 m
0 133.48 l
o
np
9.50 13.92 m
4.19 0 l
o
np
9.50 32.98 m
4.19 0 l
o
np
9.50 52.05 m
4.19 0 l
o
np
9.50 71.12 m
4.19 0 l
o
np
9.50 90.19 m
4.19 0 l
o
np
9.50 109.26 m
4.19 0 l
o
np
9.50 128.33 m
4.19 0 l
o
np
9.50 147.40 m
4.19 0 l
o
6.65 13.92 (0.00) .5 90 t
6.65 52.05 (0.04) .5 90 t
6.65 90.19 (0.08) .5 90 t
6.65 128.33 (0.12) .5 90 t
225.50 9.50 422.50 148.99 cl
225.50 9.50 422.50 148.99 cl
0 0 0 srgb
0.75 setlinewidth
[] 0 setdash
1 setlinecap
1 setlinejoin
10.00 setmiterlimit
np
232.80 14.67 m
0.36 0.05 l
0.35 0.05 l
0.36 0.05 l
0.36 0.06 l
0.35 0.06 l
0.36 0.06 l
0.36 0.06 l
0.36 0.07 l
0.35 0.07 l
0.36 0.08 l
0.36 0.07 l
0.35 0.09 l
0.36 0.08 l
0.36 0.09 l
0.35 0.10 l
0.36 0.09 l
0.36 0.11 l
0.36 0.10 l
0.35 0.11 l
0.36 0.12 l
0.36 0.12 l
0.35 0.13 l
0.36 0.13 l
0.36 0.14 l
0.35 0.14 l
0.36 0.15 l
0.36 0.16 l
0.35 0.16 l
0.36 0.17 l
0.36 0.17 l
0.36 0.18 l
0.35 0.19 l
0.36 0.20 l
0.36 0.20 l
0.35 0.21 l
0.36 0.22 l
0.36 0.23 l
0.35 0.23 l
0.36 0.24 l
0.36 0.26 l
0.35 0.25 l
0.36 0.28 l
0.36 0.27 l
0.36 0.29 l
0.35 0.30 l
0.36 0.30 l
0.36 0.32 l
0.35 0.33 l
0.36 0.33 l
0.36 0.35 l
0.35 0.36 l
0.36 0.36 l
0.36 0.38 l
0.36 0.39 l
0.35 0.40 l
0.36 0.41 l
0.36 0.42 l
0.35 0.43 l
0.36 0.45 l
0.36 0.46 l
0.35 0.46 l
0.36 0.48 l
0.36 0.49 l
0.35 0.51 l
0.36 0.51 l
0.36 0.53 l
0.36 0.54 l
0.35 0.55 l
0.36 0.56 l
0.36 0.57 l
0.35 0.59 l
0.36 0.60 l
0.36 0.61 l
0.35 0.62 l
0.36 0.63 l
0.36 0.64 l
0.35 0.66 l
0.36 0.67 l
0.36 0.67 l
0.36 0.69 l
0.35 0.70 l
0.36 0.71 l
0.36 0.72 l
0.35 0.73 l
0.36 0.73 l
0.36 0.75 l
0.35 0.76 l
0.36 0.77 l
0.36 0.77 l
0.36 0.78 l
0.35 0.80 l
0.36 0.79 l
0.36 0.81 l
0.35 0.81 l
0.36 0.82 l
0.36 0.82 l
0.35 0.83 l
0.36 0.83 l
0.36 0.84 l
268.49 54.14 lineto
0.36 0.85 l
0.36 0.84 l
0.36 0.85 l
0.35 0.85 l
0.36 0.86 l
0.36 0.85 l
0.35 0.85 l
0.36 0.85 l
0.36 0.86 l
0.35 0.84 l
0.36 0.85 l
0.36 0.84 l
0.36 0.84 l
0.35 0.84 l
0.36 0.83 l
0.36 0.82 l
0.35 0.82 l
0.36 0.81 l
0.36 0.80 l
0.35 0.80 l
0.36 0.78 l
0.36 0.78 l
0.35 0.76 l
0.36 0.76 l
0.36 0.74 l
0.36 0.73 l
0.35 0.72 l
0.36 0.70 l
0.36 0.69 l
0.35 0.68 l
0.36 0.66 l
0.36 0.64 l
0.35 0.63 l
0.36 0.62 l
0.36 0.59 l
0.35 0.58 l
0.36 0.55 l
0.36 0.55 l
0.36 0.51 l
0.35 0.51 l
0.36 0.48 l
0.36 0.46 l
0.35 0.44 l
0.36 0.42 l
0.36 0.40 l
0.35 0.38 l
0.36 0.36 l
0.36 0.33 l
0.36 0.31 l
0.35 0.29 l
0.36 0.27 l
0.36 0.25 l
0.35 0.22 l
0.36 0.20 l
0.36 0.18 l
0.35 0.16 l
0.36 0.13 l
0.36 0.12 l
0.35 0.09 l
0.36 0.07 l
0.36 0.05 l
0.36 0.03 l
0.35 0.01 l
0.36 -0.02 l
0.36 -0.03 l
0.35 -0.06 l
0.36 -0.06 l
0.36 -0.10 l
0.35 -0.10 l
0.36 -0.14 l
0.36 -0.14 l
0.35 -0.16 l
0.36 -0.18 l
0.36 -0.19 l
0.36 -0.21 l
0.35 -0.22 l
0.36 -0.24 l
0.36 -0.24 l
0.35 -0.27 l
0.36 -0.27 l
0.36 -0.28 l
0.35 -0.29 l
0.36 -0.30 l
0.36 -0.31 l
0.36 -0.32 l
0.35 -0.32 l
0.36 -0.33 l
0.36 -0.33 l
0.35 -0.34 l
0.36 -0.34 l
0.36 -0.34 l
0.35 -0.34 l
0.36 -0.34 l
0.36 -0.34 l
0.35 -0.34 l
0.36 -0.34 l
0.36 -0.33 l
0.36 -0.33 l
0.35 -0.32 l
304.19 80.59 lineto
0.36 -0.30 l
0.35 -0.31 l
0.36 -0.29 l
0.36 -0.28 l
0.35 -0.27 l
0.36 -0.26 l
0.36 -0.24 l
0.36 -0.23 l
0.35 -0.23 l
0.36 -0.20 l
0.36 -0.19 l
0.35 -0.17 l
0.36 -0.15 l
0.36 -0.14 l
0.35 -0.12 l
0.36 -0.10 l
0.36 -0.07 l
0.35 -0.07 l
0.36 -0.03 l
0.36 -0.02 l
0.36 0.01 l
0.35 0.02 l
0.36 0.06 l
0.36 0.07 l
0.35 0.10 l
0.36 0.12 l
0.36 0.14 l
0.35 0.17 l
0.36 0.19 l
0.36 0.23 l
0.35 0.24 l
0.36 0.27 l
0.36 0.30 l
0.36 0.32 l
0.35 0.35 l
0.36 0.37 l
0.36 0.40 l
0.35 0.41 l
0.36 0.46 l
0.36 0.46 l
0.35 0.51 l
0.36 0.51 l
0.36 0.55 l
0.36 0.57 l
0.35 0.60 l
0.36 0.62 l
0.36 0.63 l
0.35 0.67 l
0.36 0.68 l
0.36 0.71 l
0.35 0.72 l
0.36 0.76 l
0.36 0.76 l
0.35 0.80 l
0.36 0.80 l
0.36 0.83 l
0.36 0.84 l
0.35 0.86 l
0.36 0.87 l
0.36 0.89 l
0.35 0.91 l
0.36 0.91 l
0.36 0.94 l
0.35 0.94 l
0.36 0.96 l
0.36 0.96 l
0.35 0.97 l
0.36 0.99 l
0.36 0.99 l
0.36 0.99 l
0.35 1.01 l
0.36 1.00 l
0.36 1.02 l
0.35 1.01 l
0.36 1.02 l
0.36 1.01 l
0.35 1.02 l
0.36 1.02 l
0.36 1.01 l
0.36 1.02 l
0.35 1.00 l
0.36 1.01 l
0.36 0.99 l
0.35 0.99 l
0.36 0.98 l
0.36 0.98 l
0.35 0.96 l
0.36 0.95 l
0.36 0.95 l
0.35 0.92 l
0.36 0.92 l
0.36 0.90 l
0.36 0.89 l
0.35 0.87 l
0.36 0.85 l
0.36 0.84 l
0.35 0.81 l
0.36 0.80 l
0.36 0.77 l
339.88 133.63 lineto
0.36 0.73 l
0.36 0.72 l
0.35 0.68 l
0.36 0.67 l
0.36 0.63 l
0.36 0.62 l
0.35 0.58 l
0.36 0.57 l
0.36 0.53 l
0.35 0.50 l
0.36 0.49 l
0.36 0.44 l
0.35 0.43 l
0.36 0.38 l
0.36 0.36 l
0.36 0.33 l
0.35 0.30 l
0.36 0.26 l
0.36 0.24 l
0.35 0.20 l
0.36 0.17 l
0.36 0.15 l
0.35 0.09 l
0.36 0.08 l
0.36 0.03 l
0.35 0.02 l
0.36 -0.04 l
0.36 -0.05 l
0.36 -0.10 l
0.35 -0.13 l
0.36 -0.15 l
0.36 -0.20 l
0.35 -0.22 l
0.36 -0.27 l
0.36 -0.28 l
0.35 -0.34 l
0.36 -0.35 l
0.36 -0.39 l
0.36 -0.43 l
0.35 -0.45 l
0.36 -0.49 l
0.36 -0.51 l
0.35 -0.56 l
0.36 -0.57 l
0.36 -0.62 l
0.35 -0.63 l
0.36 -0.68 l
0.36 -0.69 l
0.35 -0.73 l
0.36 -0.76 l
0.36 -0.78 l
0.36 -0.81 l
0.35 -0.83 l
0.36 -0.87 l
0.36 -0.88 l
0.35 -0.92 l
0.36 -0.93 l
0.36 -0.97 l
0.35 -0.98 l
0.36 -1.00 l
0.36 -1.03 l
0.35 -1.04 l
0.36 -1.07 l
0.36 -1.08 l
0.36 -1.11 l
0.35 -1.12 l
0.36 -1.14 l
0.36 -1.16 l
0.35 -1.17 l
0.36 -1.19 l
0.36 -1.20 l
0.35 -1.21 l
0.36 -1.23 l
0.36 -1.24 l
0.36 -1.24 l
0.35 -1.26 l
0.36 -1.27 l
0.36 -1.28 l
0.35 -1.28 l
0.36 -1.29 l
0.36 -1.30 l
0.35 -1.30 l
0.36 -1.31 l
0.36 -1.31 l
0.35 -1.32 l
0.36 -1.32 l
0.36 -1.31 l
0.36 -1.32 l
0.35 -1.32 l
0.36 -1.32 l
0.36 -1.32 l
0.35 -1.32 l
0.36 -1.31 l
0.36 -1.31 l
0.35 -1.31 l
0.36 -1.30 l
0.36 -1.30 l
0.35 -1.28 l
0.36 -1.29 l
375.58 75.47 lineto
0.36 -1.27 l
0.35 -1.26 l
0.36 -1.26 l
0.36 -1.24 l
0.35 -1.23 l
0.36 -1.23 l
0.36 -1.20 l
0.35 -1.21 l
0.36 -1.18 l
0.36 -1.18 l
0.36 -1.17 l
0.35 -1.15 l
0.36 -1.14 l
0.36 -1.12 l
0.35 -1.11 l
0.36 -1.09 l
0.36 -1.09 l
0.35 -1.06 l
0.36 -1.06 l
0.36 -1.03 l
0.35 -1.02 l
0.36 -1.01 l
0.36 -0.99 l
0.36 -0.97 l
0.35 -0.96 l
0.36 -0.94 l
0.36 -0.92 l
0.35 -0.92 l
0.36 -0.88 l
0.36 -0.88 l
0.35 -0.86 l
0.36 -0.84 l
0.36 -0.82 l
0.36 -0.81 l
0.35 -0.79 l
0.36 -0.77 l
0.36 -0.77 l
0.35 -0.73 l
0.36 -0.73 l
0.36 -0.70 l
0.35 -0.69 l
0.36 -0.68 l
0.36 -0.66 l
0.35 -0.64 l
0.36 -0.63 l
0.36 -0.61 l
0.36 -0.59 l
0.35 -0.59 l
0.36 -0.56 l
0.36 -0.55 l
0.35 -0.53 l
0.36 -0.52 l
0.36 -0.51 l
0.35 -0.49 l
0.36 -0.48 l
0.36 -0.46 l
0.35 -0.45 l
0.36 -0.44 l
0.36 -0.42 l
0.36 -0.41 l
0.35 -0.40 l
0.36 -0.38 l
0.36 -0.38 l
0.35 -0.36 l
0.36 -0.34 l
0.36 -0.35 l
0.35 -0.32 l
0.36 -0.32 l
0.36 -0.30 l
0.36 -0.30 l
0.35 -0.28 l
0.36 -0.27 l
0.36 -0.27 l
0.35 -0.25 l
0.36 -0.25 l
0.36 -0.23 l
0.35 -0.23 l
0.36 -0.22 l
0.36 -0.21 l
0.35 -0.20 l
0.36 -0.20 l
0.36 -0.19 l
0.36 -0.18 l
0.35 -0.17 l
0.36 -0.16 l
0.36 -0.17 l
0.35 -0.15 l
0.36 -0.15 l
0.36 -0.13 l
0.35 -0.14 l
0.36 -0.13 l
0.36 -0.12 l
0.35 -0.12 l
0.36 -0.11 l
0.36 -0.11 l
0.36 -0.10 l
0.35 -0.10 l
0.36 -0.10 l
0.36 -0.09 l
411.27 15.41 lineto
0.36 -0.08 l
0.36 -0.08 l
0.35 -0.08 l
0.36 -0.07 l
0.36 -0.06 l
0.36 -0.07 l
0.35 -0.06 l
0.36 -0.06 l
0.36 -0.05 l
0.35 -0.06 l
0.36 -0.05 l
o
0.00 0.00 432.00 504.00 cl
0 0 0 srgb
0.75 setlinewidth
[] 0 setdash
1 setlinecap
1 setlinejoin
10.00 setmiterlimit
np
225.50 9.50 m
197.00 0 l
0 139.49 l
-197.00 0 l
0 -139.49 l
o
225.50 9.50 422.50 148.99 cl
0.7451 0.7451 0.7451 srgb
0.08 setlinewidth
[] 0 setdash
1 setlinecap
1 setlinejoin
10.00 setmiterlimit
np
225.50 13.84 m
197.00 0 l
o
0.75 setlinewidth
[ 2.25 3.75] 0 setdash
np
232.14 9.50 m
0 139.49 l
o
np
247.98 9.50 m
0 139.49 l
o
np
263.82 9.50 m
0 139.49 l
o
np
279.65 9.50 m
0 139.49 l
o
np
295.49 9.50 m
0 139.49 l
o
np
311.33 9.50 m
0 139.49 l
o
np
327.17 9.50 m
0 139.49 l
o
np
343.01 9.50 m
0 139.49 l
o
np
358.84 9.50 m
0 139.49 l
o
np
374.68 9.50 m
0 139.49 l
o
np
390.52 9.50 m
0 139.49 l
o
np
406.36 9.50 m
0 139.49 l
o
np
422.19 9.50 m
0 139.49 l
o
0.00 0.00 432.00 504.00 cl
/Font1 findfont 12 s
0 0 0 srgb
324.00 155.64 (Sig.6) .5 0 t
0.75 setlinewidth
[] 0 setdash
1 setlinecap
1 setlinejoin
10.00 setmiterlimit
np
232.14 9.50 m
190.05 0 l
o
np
232.14 9.50 m
0 4.19 l
o
np
263.82 9.50 m
0 4.19 l
o
np
295.49 9.50 m
0 4.19 l
o
np
327.17 9.50 m
0 4.19 l
o
np
358.84 9.50 m
0 4.19 l
o
np
390.52 9.50 m
0 4.19 l
o
np
422.19 9.50 m
0 4.19 l
o
/Font1 findfont 7 s
232.14 0.95 (-10) .5 0 t
263.82 0.95 (0) .5 0 t
295.49 0.95 (10) .5 0 t
327.17 0.95 (20) .5 0 t
358.84 0.95 (30) .5 0 t
390.52 0.95 (40) .5 0 t
422.19 0.95 (50) .5 0 t
np
225.50 13.84 m
0 131.29 l
o
np
225.50 13.84 m
4.19 0 l
o
np
225.50 46.67 m
4.19 0 l
o
np
225.50 79.49 m
4.19 0 l
o
np
225.50 112.31 m
4.19 0 l
o
np
225.50 145.13 m
4.19 0 l
o
222.65 13.84 (0.00) .5 90 t
222.65 46.67 (0.01) .5 90 t
222.65 79.49 (0.02) .5 90 t
222.65 112.31 (0.03) .5 90 t
222.65 145.13 (0.04) .5 90 t
ep
%%Trailer
%%Pages: 1
%%EOF
