%!PS-Adobe-3.0 EPSF-3.0
%%DocumentNeededResources: font Helvetica
%%+ font Helvetica-Bold
%%+ font Helvetica-Oblique
%%+ font Helvetica-BoldOblique
%%+ font Symbol
%%Title: R Graphics Output
%%Creator: R Software
%%Pages: (atend)
%%BoundingBox: 0 0 504 360
%%EndComments
%%BeginProlog
/bp  { gs sRGB gs } def
% begin .ps.prolog
/gs  { gsave } bind def
/gr  { grestore } bind def
/ep  { showpage gr gr } bind def
/m   { moveto } bind def
/l  { rlineto } bind def
/np  { newpath } bind def
/cp  { closepath } bind def
/f   { fill } bind def
/o   { stroke } bind def
/c   { newpath 0 360 arc } bind def
/r   { 4 2 roll moveto 1 copy 3 -1 roll exch 0 exch rlineto 0 rlineto -1 mul 0 exch rlineto closepath } bind def
/p1  { stroke } bind def
/p2  { gsave bg fill grestore newpath } bind def
/p3  { gsave bg fill grestore stroke } bind def
/p6  { gsave bg eofill grestore newpath } bind def
/p7  { gsave bg eofill grestore stroke } bind def
/t   { 5 -2 roll moveto gsave rotate
       1 index stringwidth pop
       mul neg 0 rmoveto show grestore } bind def
/ta  { 4 -2 roll moveto gsave rotate show } bind def
/tb  { 2 -1 roll 0 rmoveto show } bind def
/cl  { grestore gsave newpath 3 index 3 index moveto 1 index
       4 -1 roll lineto  exch 1 index lineto lineto
       closepath clip newpath } bind def
/rgb { setrgbcolor } bind def
/s   { scalefont setfont } bind def
% end   .ps.prolog
/sRGB { [ /CIEBasedABC
          << /DecodeLMN
               [ { dup 0.03928 le
                        {12.92321 div}
                        {0.055 add 1.055 div 2.4 exp }
                     ifelse
                 } bind dup dup
               ]
             /MatrixLMN [0.412457 0.212673 0.019334
                         0.357576 0.715152 0.119192
                         0.180437 0.072175 0.950301]
             /WhitePoint [0.9505 1.0 1.0890]
           >>
         ] setcolorspace } bind def
/srgb { setcolor } bind def
%%IncludeResource: font Helvetica
/Helvetica findfont
dup length dict begin
  {1 index /FID ne {def} {pop pop} ifelse} forall
  /Encoding ISOLatin1Encoding def
  currentdict
  end
/Font1 exch definefont pop
%%IncludeResource: font Helvetica-Bold
/Helvetica-Bold findfont
dup length dict begin
  {1 index /FID ne {def} {pop pop} ifelse} forall
  /Encoding ISOLatin1Encoding def
  currentdict
  end
/Font2 exch definefont pop
%%IncludeResource: font Helvetica-Oblique
/Helvetica-Oblique findfont
dup length dict begin
  {1 index /FID ne {def} {pop pop} ifelse} forall
  /Encoding ISOLatin1Encoding def
  currentdict
  end
/Font3 exch definefont pop
%%IncludeResource: font Helvetica-BoldOblique
/Helvetica-BoldOblique findfont
dup length dict begin
  {1 index /FID ne {def} {pop pop} ifelse} forall
  /Encoding ISOLatin1Encoding def
  currentdict
  end
/Font4 exch definefont pop
%%IncludeResource: font Symbol
/Symbol findfont
dup length dict begin
  {1 index /FID ne {def} {pop pop} ifelse} forall
  currentdict
  end
/Font5 exch definefont pop
%%EndProlog
%%Page: 1 1
bp
57.60 194.40 460.80 345.60 cl
/bg { 1 0.7529 0.7961 srgb } def
np
 91.20 214.00 m
149.33 0 l
0 21.00 l
-149.33 0 l
cp p2
0 0 0 srgb
2.25 setlinewidth
[] 0 setdash
0 setlinecap
1 setlinejoin
10.00 setmiterlimit
np
91.20 221.00 m
149.33 0 l
o
0.75 setlinewidth
[ 2.25 3.75] 0 setdash
1 setlinecap
np
165.87 207.00 m
0 7.00 l
o
np
165.87 263.00 m
0 -28.00 l
o
0.75 setlinewidth
[] 0 setdash
np
128.53 207.00 m
74.67 0 l
o
np
128.53 263.00 m
74.67 0 l
o
np
91.20 214.00 m
149.33 0 l
0 21.00 l
-149.33 0 l
0 -21.00 l
o
165.87 270.00 2.70 c p1
165.87 298.00 2.70 c p1
165.87 270.00 2.70 c p1
165.87 277.00 2.70 c p1
/bg { 0.6784 0.8471 0.9020 srgb } def
np
 277.87 214.00 m
149.33 0 l
0 28.00 l
-149.33 0 l
cp p2
2.25 setlinewidth
[] 0 setdash
0 setlinecap
np
277.87 228.00 m
149.33 0 l
o
0.75 setlinewidth
[ 2.25 3.75] 0 setdash
1 setlinecap
np
352.53 200.00 m
0 14.00 l
o
np
352.53 284.00 m
0 -42.00 l
o
0.75 setlinewidth
[] 0 setdash
np
315.20 200.00 m
74.67 0 l
o
np
315.20 284.00 m
74.67 0 l
o
np
277.87 214.00 m
149.33 0 l
0 28.00 l
-149.33 0 l
0 -28.00 l
o
352.53 340.00 2.70 c p1
0.00 0.00 504.00 360.00 cl
0 0 0 srgb
0.75 setlinewidth
[] 0 setdash
1 setlinecap
1 setlinejoin
10.00 setmiterlimit
np
165.87 194.40 m
186.66 0 l
o
np
165.87 194.40 m
0 -7.20 l
o
np
352.53 194.40 m
0 -7.20 l
o
/Font1 findfont 12 s
165.87 168.48 (Dynamic) .5 0 t
352.53 168.48 (Static) .5 0 t
np
57.60 200.00 m
0 140.00 l
o
np
57.60 200.00 m
-7.20 0 l
o
np
57.60 235.00 m
-7.20 0 l
o
np
57.60 270.00 m
-7.20 0 l
o
np
57.60 305.00 m
-7.20 0 l
o
np
57.60 340.00 m
-7.20 0 l
o
40.32 200.00 (0) .5 90 t
40.32 235.00 (5) .5 90 t
40.32 270.00 (10) .5 90 t
40.32 305.00 (15) .5 90 t
40.32 340.00 (20) .5 90 t
0.00 180.00 504.00 360.00 cl
/Font2 findfont 14 s
0 0 0 srgb
259.20 347.77 (Sensitivity=3.06896551724138) .5 0 t
/Font1 findfont 12 s
11.52 254.66 (Dela) 90 ta
-0.360 (y) tb gr
0.00 0.00 504.00 360.00 cl
0 0 0 srgb
0.75 setlinewidth
[] 0 setdash
1 setlinecap
1 setlinejoin
10.00 setmiterlimit
np
57.60 194.40 m
403.20 0 l
0 151.20 l
-403.20 0 l
0 -151.20 l
o
57.60 28.80 460.80 165.60 cl
/bg { 1 0.7529 0.7961 srgb } def
np
 91.20 49.22 m
149.33 0 l
0 7.68 l
-149.33 0 l
cp p2
0 0 0 srgb
2.25 setlinewidth
[] 0 setdash
0 setlinecap
1 setlinejoin
10.00 setmiterlimit
np
91.20 53.06 m
149.33 0 l
o
0.75 setlinewidth
[ 2.25 3.75] 0 setdash
1 setlinecap
np
165.87 37.71 m
0 11.51 l
o
np
165.87 68.41 m
0 -11.51 l
o
0.75 setlinewidth
[] 0 setdash
np
128.53 37.71 m
74.67 0 l
o
np
128.53 68.41 m
74.67 0 l
o
np
91.20 49.22 m
149.33 0 l
0 7.68 l
-149.33 0 l
0 -7.68 l
o
165.87 72.25 2.70 c p1
165.87 76.09 2.70 c p1
165.87 33.87 2.70 c p1
/bg { 0.6784 0.8471 0.9020 srgb } def
np
 277.87 83.77 m
149.33 0 l
0 28.78 l
-149.33 0 l
cp p2
2.25 setlinewidth
[] 0 setdash
0 setlinecap
np
277.87 95.28 m
149.33 0 l
o
0.75 setlinewidth
[ 2.25 3.75] 0 setdash
1 setlinecap
np
352.53 56.90 m
0 26.87 l
o
np
352.53 152.86 m
0 -40.31 l
o
0.75 setlinewidth
[] 0 setdash
np
315.20 56.90 m
74.67 0 l
o
np
315.20 152.86 m
74.67 0 l
o
np
277.87 83.77 m
149.33 0 l
0 28.78 l
-149.33 0 l
0 -28.78 l
o
352.53 160.53 2.70 c p1
0.00 0.00 504.00 360.00 cl
0 0 0 srgb
0.75 setlinewidth
[] 0 setdash
1 setlinecap
1 setlinejoin
10.00 setmiterlimit
np
165.87 28.80 m
186.66 0 l
o
np
165.87 28.80 m
0 -7.20 l
o
np
352.53 28.80 m
0 -7.20 l
o
/Font1 findfont 12 s
165.87 2.88 (Dynamic) .5 0 t
352.53 2.88 (Static) .5 0 t
np
57.60 30.03 m
0 134.34 l
o
np
57.60 30.03 m
-7.20 0 l
o
np
57.60 49.22 m
-7.20 0 l
o
np
57.60 68.41 m
-7.20 0 l
o
np
57.60 87.60 m
-7.20 0 l
o
np
57.60 106.80 m
-7.20 0 l
o
np
57.60 125.99 m
-7.20 0 l
o
np
57.60 145.18 m
-7.20 0 l
o
np
57.60 164.37 m
-7.20 0 l
o
40.32 30.03 (0) .5 90 t
40.32 49.22 (5) .5 90 t
40.32 87.60 (15) .5 90 t
40.32 125.99 (25) .5 90 t
40.32 164.37 (35) .5 90 t
0.00 0.00 504.00 180.00 cl
/Font1 findfont 12 s
0 0 0 srgb
11.52 75.20 (Num F) 90 ta
-0.960 (A) tb gr
0.00 0.00 504.00 360.00 cl
0 0 0 srgb
0.75 setlinewidth
[] 0 setdash
1 setlinecap
1 setlinejoin
10.00 setmiterlimit
np
57.60 28.80 m
403.20 0 l
0 136.80 l
-403.20 0 l
0 -136.80 l
o
ep
%%Trailer
%%Pages: 1
%%EOF
