{
    "outputfolder": "c:/1maslov/tmp01/",


    "dir": "/home/ms314/gitlocal/phd-monitor/datasets/",

    "ideal-indicator-function" : "src-scala-construct-ideal-pccfs-output",

    "numofsignals" : 6,

    "sig1" : "exchange-rate-bank-of-twi/data/sigTwi.dat",
    "sig2" : "internet-traffic-data-in-bits-fr/data/sigInternetTraffic.dat",
    "sig3" : "monthly-lake-erie-levels/data/sigLakeLevel.dat",
    "sig4" : "number-of-earthquakes-per-year/data/sigNumOfEarthQuakes.dat",
    "sig5" : "time-that-parts-for-industrial/data/sigTimesNeeded.dat",
    "sig6" : "wolfer-sunspot-numbers/data/sigSunspotNumber.dat",

    "chps1"   : "exchange-rate-bank-of-twi/data/changesTwi.dat",
    "chps1dp" : "exchange-rate-bank-of-twi/data/changesTwiScalaDpDetector.dat",  
    "chps2"   : "internet-traffic-data-in-bits-fr/data/changesInternetTraffic.dat",
    "chps3"   : "monthly-lake-erie-levels/data/changesErieLake.dat",
    "chps4"   : "number-of-earthquakes-per-year/data/changesNumOfEarthQuakes.dat",
    "chps5"   : "time-that-parts-for-industrial/data/changesParts.dat",
    "chps6"   : "wolfer-sunspot-numbers/data/changes.dat",

    "ind1" : "src-scala-construct-ideal-pccfs-output/step13-scala-ind-func-twi.dat",
    "ind2" : "src-scala-construct-ideal-pccfs-output/step13-scala-ind-func-internet.dat",
    "ind3" : "src-scala-construct-ideal-pccfs-output/step13-scala-ind-func-lake.dat",
    "ind4" : "src-scala-construct-ideal-pccfs-output/step13-scala-ind-func-earthquakes.dat",
    "ind5" : "src-scala-construct-ideal-pccfs-output/step13-scala-ind-func-parts.dat",
    "ind6" : "src-scala-construct-ideal-pccfs-output/step13-scala-ind-func-sunspot.dat",

    "artsig1" : "artsig/artsig1.dat",
    "artind1" : "artsig/indfunc1.dat",

    "artsig2" : "artsig/artsig1_LessNoise.dat",
    "artind2" : "artsig/indfunc1.dat"

}
